
trade_company_west_africa = {
	color = { 50 0 200 }
	
	provinces = {
		
	}
	
	# Specific
	# Generic
	names = {
		name = "TRADE_COMPANY_WEST_AFRICA_Root_Culture_GetName"
	}
	names = {
		name = "TRADE_COMPANY_WEST_AFRICA_Africa_Trade_Company"
	}
}

# #Aelantir
# trade_company_taychend = {
	# color = { 200 200 50 }
	
	# provinces = {
		# 2460 2461 2462 2463 2467 2466 2472 2464 2468 2607 2605 2604 2587 2586 2584 2573 2572 2465 2603 2591 2610 2470 2469 2474 2473 2477 2475 2478 2481 2480 2483 2486 2487 2485 2489 2479 2484 2490 
		# 2491 2494 2507 2504 2506 2552 2492 2554 2553 2555 2556 2493 2496 2497 2505 2498 2495 2551 2547 2499 2502 2500 2511 2510 2508 2509 6559 2514 2501 2540 2546 2539 2517 2534 2536 2518 2519 2520 2533 2535 2521 2541 2543 2544 2522 2532 2523 2531 2524 2561 2525 2545 2542 2530 2528 2529 2527 2558 2559 2560 2526 2562 2567 2566 2565 2570 2568 2571 2579 2578 2577 2574 2575 2576 2580 2581 2582 2550 2549 2537 2515 2588 2590 2589 2583 2585 2613 2612 2611 
		# 2564 2329 2330 2513 
	# }
	# # Generic
	# names = {
		# name = "TRADE_COMPANY_TAYCHEND_Root_GetName"
	# }
	# names = {
		# name = "TRADE_COMPANY_TAYCHEND_Taychend_Trade_Company"
	# }
# }

# trade_company_eordand = {
	# color = { 220 187 229 }
	
	# provinces = {
		# 2004 2007 2025 2008 2009 2026 2024 2027 2036 2032 2033 2034 2039 2010 2018 2029 2031 2049 2019 2020 2021 2022 2023 2035 2028 2030 2040 2037 2048 2053 2041 2042 2043 2038 2044 2045 2051 2013 2015 2016 2017 2050 1125 1997 2159 1993 1118 1875 2005 1990 2011 2012 2003
		# 2014 1984 1776 1982 1778 2052 2054 2055 2056 2057 2061 2825 1771 1988 2503 1969 2002 1112 1986 1985 1122 1978 1974 1987 1973 1972 1979 1970 1775 1983 1968 1109 1777
		# 2006 1981 1994 1966 1965 1971 1964 1780 1962 1967 2046 2047 1809 1813 1963 2058 2059 2060 2062 2063
	# }
	# names = {
		# name = "TRADE_COMPANY_EORDAND_Root_GetName"
	# }
	# names = {
		# name = "TRADE_COMPANY_EORDAND_Eordand_Trade_Company"
	# }
# }

#Haless
#Rahen
trade_company_shamakhad = {
	color = { 40 45 60 }
	
	provinces = {
		4516 4517 4518 4519 4521 4522 4525 4526 4528 4529 4630 4530 4531 4532 4533 4534 4535 4536 4537 4538 4539 4540 4541 4542 4543 4545 4546 4549 4624 4627 4628 4629 4631 4632 4633 4634 4635 4636 4637 4638 4639 4640 4642 4515 4476 4465 
	}
	names = {
		name = "TRADE_COMPANY_SHAMAKHAD_Root_GetName"
	}
	names = {
		name = "TRADE_COMPANY_SHAMAKHAD_Shamakhad_Trade_Company"
	}
}

trade_company_nadimraj = {
	color = { 170 0 15 }
	
	provinces = {
		4478 4464 4468 4474 4467 4475 4460 4462 4463 4520 4466 4457 4455 4459 4550 4397 4458 4456 4454 4453 4452 4451 4449 4450 4445 4448 4446 4447 4548 4444 
	}
	names = {
		name = "TRADE_COMPANY_NADIMRAJ_Root_GetName"
	}
	names = {
		name = "TRADE_COMPANY_NADIMRAJ_Nadimraj_Trade_Company"
	}
}

trade_company_dhenbasana = {
	color = { 45 45 150 }
	
	provinces = {
		4442 4441 4440 4439 4438 4437 4436 4435 4434 4433 4432 4431 4430 4429 4428 4427 4426 4416 4415 4414 4413 4412 4411 4410 4405 4385 4373 4401 4381 4391 4392 4404 4417 4419 4393 4394 4418 4443 4379 4390 
	}
	names = {
		name = "TRADE_COMPANY_DHENBASANA_Root_GetName"
	}
	names = {
		name = "TRADE_COMPANY_DHENBASANA_Dhenbasana_Trade_Company"
	}
}

trade_company_kharunyana = {
	color = { 48 120 100 }
	
	provinces = {
		4409 4492 4493 4496 4497 4499 4500 4501 4502 4503 4470 4489 4504 4527 4364 4620 4609 4608 4601 4606 4600 4599 4602 4596 4396 4597 4505 4506 4507 4513 4523 4524 4514 4509 4510 4498 4512 4939 4511 
	}
	names = {
		name = "TRADE_COMPANY_KHARUNYANA_Root_GetName"
	}
	names = {
		name = "TRADE_COMPANY_KHARUNYANA_Kharunyana_Trade_Company"
	}
}

trade_company_middle_rahen = {
	color = { 190 180 20 }
	
	provinces = {
		4461 4469 4479 4508 4472 4471 4477 4473 4480 4487 4495 4486 4485 4484 4483 4481 4482 4488 4491 4408 4490 4407 4421 4422 4423 4424 4425 4494 
	}
	names = {
		name = "TRADE_COMPANY_MIDDLE_RAHEN_Root_GetName"
	}
	names = {
		name = "TRADE_COMPANY_MIDDLE_RAHEN_Middle_Rahen_Trade_Company"
	}
}

trade_company_gulf_of_rahen = {
	color = { 48 70 20 }
	
	provinces = {
		4380 4382 4383 4384 4377 4388 4387 4389 4395 4398 4551 4420 4406 4399 4386 4554 4555 4556 4558 4557 4560 4562 4563 4566 4567 4568 4572 1346 1360 1361 4561 4361 4362 4363 4365 4366 4367 4378 4569 4570 4571 4573 4370 4371 4372 4374 4375 4369 1351 4368 
	}
	names = {
		name = "TRADE_COMPANY_GULF_OF_RAHEN_Root_GetName"
	}
	names = {
		name = "TRADE_COMPANY_GULF_OF_RAHEN_Gulf_Of_Rahen_Trade_Company"
	}
}

trade_company_davharral = {
	color = { 113 176 50 }
	
	provinces = {
		2923 2911 2912 2913 1348 1349 1350 2924 2925 566 3072 3073 4400 5431 5432 5433 5434 5435 5461 5667 5668 5437 5436 
	}
	names = {
		name = "TRADE_COMPANY_DAVHARRAL_Root_GetName"
	}
	names = {
		name = "TRADE_COMPANY_DAVHARRAL_Davharral_Trade_Company"
	}
}

#Forbidden Plains
trade_company_nuzurbokh = {
	color = { 85 15 85 }
	
	provinces = {
		5201 5202 5197 5198 5199 5205 5207 5208 5210 5211 5212 5209 5215 5216 5219 5221 5218 5222 5217 5192 5193 5194 5196 5213 5170 5171 5172 5173 5174 5177 5176 5181 5179 5186 5184 5185 5183 5168 5169 
	}
	names = {
		name = "TRADE_COMPANY_ZERNUUK_Root_GetName"
	}
	names = {
		name = "TRADE_COMPANY_ZERNUUK_Zernuuk_Trade_Company"
	}
}

trade_company_zernuuk = {
	color = { 25 15 5 }
	
	provinces = {
		5226 5227 5228 5224 5225 5230 5231 5229 5235 5236 5241 5238 5239 5237 5242 5243 5249 5251 5232 5233 5234 5223 5195 5191 5188 5189 5190 5256 5257 5258 5259 5252 5253 5255 5260 5315 
	}
	names = {
		name = "TRADE_COMPANY_ZERNUUK_Root_GetName"
	}
	names = {
		name = "TRADE_COMPANY_ZERNUUK_Zernuuk_Trade_Company"
	}
}

trade_company_yukelqur = {
	color = { 33 64 155 }
	
	provinces = {
		5261 5262 5263 5264 5265 5266 5270 5271 5273 5267 5269 5187 5180 5167 5166 5165 5164 5163 5161 5162 5160 5159 5158 5157 5155 5156 5151 5149 5146 5145 5141 5140 5139 5135 5138 5285 5284 5283 5282 5304 5281 5280 5278 5277 5276 5312 
	}
	names = {
		name = "TRADE_COMPANY_YUKELQUR_Root_GetName"
	}
	names = {
		name = "TRADE_COMPANY_YUKELQUR_Yukelqur_Trade_Company"
	}
}

trade_company_salahad_pass = {
	color = { 200 155 115 }
	
	provinces = {
		5142 5080 5081 5082 5083 5084 5085 5089 5090 5091 5144 5147 5148 5150 5143 5152 5153 5086 5087 5088 5154 
	}
	names = {
		name = "TRADE_COMPANY_SALAHAD_PASS_Root_GetName"
	}
	names = {
		name = "TRADE_COMPANY_SALAHAD_PASS_Salahad_Pass_Trade_Company"
	}
}

trade_company_the_blue_sea = {
	color = { 33 165 220 }
	
	provinces = {
		5274 5275 5291 5292 5293 5294 5301 5279 5272 5268 5254 5250 5248 5247 5246 5245 5244 5121 5119 5117 5115 5116 5018 5011 5010 5008 5320 5321 5323 5108 1444 
	}
	names = {
		name = "TRADE_COMPANY_THE_BLUE_SEA_Root_GetName"
	}
	names = {
		name = "TRADE_COMPANY_THE_BLUE_SEA_The_Blue_Sea_Trade_Company"
	}
}

trade_company_kodarve = {
	color = { 125 11 175 }
	
	provinces = {
		5111 5114 5113 5120 5118 5122 5123 5124 5125 5126 5127 5129 5130 5134 5133 5136 5137 5067 5068 5071 5128 5131 5132 5075 5286 5287 5288 5306 5240 5290 5289 5295 5296 5297 5298 5299 5305 5300 5302 1382 
	}
	names = {
		name = "TRADE_COMPANY_KODARVE_Root_GetName"
	}
	names = {
		name = "TRADE_COMPANY_KODARVE_Kodarve_Trade_Company"
	}
}

trade_company_ogre_steppe = {
	color = { 155 141 135 }
	
	provinces = {
		5024 5025 5026 5027 5028 5029 5032 5039 5031 5033 5035 5319 5030 5037 5038 5034 5036 5040 5041 5050 5042 5043 5044 5045 5049 5051 5057 5058 5052 5053 5054 5055 5056 5060 5066 5061 5062 5046 5048 5047 5059 5063 5070 5069 5065 5064 5112 5110 5109 5322 
	}
	names = {
		name = "TRADE_COMPANY_OGRE_STEPPE_Root_GetName"
	}
	names = {
		name = "TRADE_COMPANY_OGRE_STEPPE_Ogre_Steppe_Trade_Company"
	}
}

trade_company_serpent_gift = {
	color = { 225 211 175 }
	
	provinces = {
		5072 5073 5074 5076 5077 5078 5079 5092 5093 5094 5095 5096 5097 5098 5099 5100 5101 5102 5103 5104 5105 3264 3265 3266 3267 3269 3270 3271 3272 3273 3274
	}
	names = {
		name = "TRADE_COMPANY_SERPENT_GIFT_Root_GetName"
	}
	names = {
		name = "TRADE_COMPANY_SERPENT_GIFT_Serpent_Gift_Trade_Company"
	}
}

trade_company_frost_forest = {
	color = { 115 111 255 }
	
	provinces = {
		5001 5002 5003 5006 5004 5005 5303 5012 5007 5014 5015 5016 5013 5019 5020 5021 5022 5023 5106 5107 5017 
	}
	names = {
		name = "TRADE_COMPANY_FROST_FOREST_Root_GetName"
	}
	names = {
		name = "TRADE_COMPANY_FROST_FOREST_Frost_Forest_Trade_Company"
	}
}

#Yanshen
trade_company_bianfang = {
	color = { 150 100 200 }
	
	provinces = {
		4952 4973 4834 4969 4832 4831 5430 4830 4970 4829 4971 4812 4972 4828 4902 4815 4813 4814 4901 4827 4826 4825 4898 4899 4824 4900 4981 4985 5426 4951 4984 4982 4840 4833 5409 4844 4842 4845 4850 4848 4843 4974 
	}
	names = {
		name = "TRADE_COMPANY_BIANFANG_Root_GetName"
	}
	names = {
		name = "TRADE_COMPANY_BIANFANG_Bianfang_Trade_Company"
	}
}

trade_company_yanzhong = {
	color = { 180 255 200 }
	
	provinces = {
		4859 4849 4846 4906 4847 4853 4854 4933 4851 4852 4975 4856 4855 4950 4858 4861 4873 4860 4857 4930 4867 4976 4932 4862 4864 
	}
	names = {
		name = "TRADE_COMPANY_YANZHONG_Root_GetName"
	}
	names = {
		name = "TRADE_COMPANY_YANZHONG_Yanchung_Trade_Company"
	}
}

trade_company_tianlou = {
	color = { 255 200 0 }
	
	provinces = {
		4871 4870 4869 4868 4929 4915 4914 4978 4913 4907 4908 4977 4911 4909 4912 4910 4928 4980 4927 4979 4917 4916 4926 4920 4925 4918 4922 4924 4923 4872 4877 4904 4919 4921 1373 1372 4876 5420
	}
	names = {
		name = "TRADE_COMPANY_TIANLOU_Root_GetName"
	}
	names = {
		name = "TRADE_COMPANY_TIANLOU_Tianlou_Trade_Company"
	}
}

trade_company_feiten = {
	color = { 200 30 160 }
	
	provinces = {
		1371 4837 4836 4835 4838 4839 4884 4885 4888 4893 4889 4887 4886 4883 4881 4882 4949 4879 4878 4880 4905 4896 4931 4874 4875 4983 4894 4892 4895 4841 4891 4890 4903
	}
	names = {
		name = "TRADE_COMPANY_FEITEN_Root_GetName"
	}
	names = {
		name = "TRADE_COMPANY_FEITEN_Feiten_Trade_Company"
	}
}

trade_company_xiadao = {
	color = { 222 222 222 }
	
	provinces = {
		4559 4808 4934 4806 4809 4821 4816 4818 4817 4819 4810 4820 4811 4822 4616 4618 4619 4611 4613 4617 4621 4615 4948 4938 4623 4641 4612 4614 4610 4607 4604 4603 4605 4625 4626 4935 4783 4786 4937 4936 4785 4782 4784 4795 4947 4793 4794 4622 
	}
	names = {
		name = "TRADE_COMPANY_XIADAO_Root_GetName"
	}
	names = {
		name = "TRADE_COMPANY_XIADAO_Xiadao_Trade_Company"
	}
}

trade_company_haiban = {
	color = { 230 150 20 }
	
	provinces = {
		4763 4760 4758 5428 4756 4775 5424 4945 4759 4967 5429 4801 4802 4804 4803 4798 4946 4797 4799 4800 4779 4778 4776 4942 4780 4943 4791 4792 4788 4941 4796 4761 4790 5425 4579 4581 4582 4588 4589 4590 4591 4592 4564 4565 4593 4598 4595 4594 4583 4789 4787 4940 4781 4777 6300
	}
	names = {
		name = "TRADE_COMPANY_HAIBAN_Root_GetName"
	}
	names = {
		name = "TRADE_COMPANY_HAIBAN_Haiban_Trade_Company"
	}
}

trade_company_arawkelin = {
	color = { 70 20 20 }
	
	provinces = {
		1366 1644 1642 1622 1624 1367 1646 4772 4732 4964 4735 4733 4728 4774 4727 4723 4726 4722 4963 4720 4725 4721 4718 4717 4719 4773 6141 6153 6140 6151 6139 6137 6136 6138 6144 6147 6152 6142 6145 6146 6148 6149 4715 4714 4716 4724 4766 3249 3250 3251 3252 3253 3122 3124 3125
	}
	names = {
		name = "TRADE_COMPANY_ARAWKELIN_Root_GetName"
	}
	names = {
		name = "TRADE_COMPANY_ARAWKELIN_Arawkelin_Trade_Company"
	}
}

trade_company_yemakai = {
	color = { 75 220 155 }
	
	provinces = {
		1369 1370 4754 4755 4750 4944 4749 4966 4751 4968 4753 4752 4745 4748 4747 4746 4955 4744 4823 4743 4742 4736 4731 4729 4730 4956 4965 4741 4740 4739 4757 4953 4957 4959 6301
	}
	
	names = {
		name = "TRADE_COMPANY_YEMAKAI_Root_GetName"
	}
	names = {
		name = "TRADE_COMPANY_YEMAKAI_Yemakai_Trade_Company"
	}
}

trade_company_cay_cam_sinh = {
	color = { 40 40 100 }
	
	provinces = {
		1364 1362 1365 4712 4962 4711 4713 4767 4734 4765 4737 4710 4709 4768 4700 4701 4699 4961 4770 4706 4707 4960 4738 4954 4705 4703 4702 4958 4697 4771 4698 4704 4769 4708 4805 4694 4695 4696 4764 4762 4574 4575 4576 4578 4577 4580 4584 4585 4586 4587 3246 
	}
	names = {
		name = "TRADE_COMPANY_CAY_CAM_SINH_Root_GetName"
	}
	names = {
		name = "TRADE_COMPANY_CAY_CAM_SINH_Cay_Cam_Sinh_Trade_Company"
	}
}

#Siberia
trade_company_nuugdanghan = {
	color = { 0 0 100 }
	
	provinces = {
		5410 5413 5414 5416 5417 5415 5412 5407 5408 5423 5411 5376 5406 5200 6815 6814 6816 6813 5405 6818 6819 6817 6812 5380 6801 6800 5175 
	}
	names = {
		name = "TRADE_COMPANY_NUUGDANGHAN_Root_GetName"
	}
	names = {
		name = "TRADE_COMPANY_NUUGDANGHAN_Nuugdanghan_Trade_Company"
	}
}

trade_company_odheongu = {
	color = { 0 200 0 }
	
	provinces = {
		5367 5363 5365 5364 5366 5351 5352 5353 5354 5356 5357 5358 5359 5349 5348 5350 5345 5346 5344 5361 5360 5362 5355 5347 1374 5369 5368 5401 5400 5343 5372 5373 5339 5341 5340 5342 
	}
	names = {
		name = "TRADE_COMPANY_ODHEONGU_Root_GetName"
	}
	names = {
		name = "TRADE_COMPANY_ODHEONGU_Odheongu_Trade_Company"
	}
}

trade_company_moduk = {
	color = { 20 80 10 }
	
	provinces = {
		4990 4986 4987 4988 4989 4991 4992 4993 4994 5000 5324 5325 5326 5327 5328 5329 5330 5331 5332 5333 5334 5009 5419 5427 6511 6512 5220 5182 5335 6820
	}
	names = {
		name = "TRADE_COMPANY_MODUK_Root_GetName"
	}
	names = {
		name = "TRADE_COMPANY_MODUK_Moduk_Trade_Company"
	}
}

trade_company_khaashalg = {
	color = { 90 90 105 }
	
	provinces = {
		5178 5203 5204 5206 5214 5336 5337 5338 5370 5371 5374 5375 5377 5378 5379 5381 5382 5383 5402 5403 5404 5418 5421 5422 6802 6803 6804 6805 6806 6807 6808 6809 6810 6811
	}
	names = {
		name = "TRADE_COMPANY_KHAASHALG_Root_GetName"
	}
	names = {
		name = "TRADE_COMPANY_KHAASHALG_Khaashalg_Trade_Company"
	}
}

#Serpentspine
trade_company_jade_mines = {
	color = { 85 195 85 }
	
	provinces = {
		4301 4302 4303 4304 4305 4306 4307 4308 4309 4310 4314 4315 4316 4317 4318 4319 4320 4359 4360 4312 4350 4311 4313 4339 4338 4337 4336 4335 4334 4351 4352 4348 4349 4324 4325 4326 4353 4327 4329 4330 4331 4332 4344 4354 4345 4355 4342 4341 4340 4323 4356 
	}
	names = {
		name = "TRADE_COMPANY_JADE_MINES_Root_GetName"
	}
	names = {
		name = "TRADE_COMPANY_JADE_MINES_Jade_Mines_Trade_Company"
	}
}

trade_company_tree_of_stone = {
	color = { 140 160 200 }
	
	provinces = {
		4242 4243 4244 4245 4246 4247 4248 4249 4250 4251 4252 4253 4254 4255 4256 4257 4258 4259 4260 4261 4262 4263 4264 4265 4266 4297 4298 4300 4284 4277 4279 4280 4281 4271 4267 4282 4269 4270 4272 4292 4274 4275 4268 4283 4285 4287 4286 4288 4293 4294 4295 4296 4299 4278 4273 4290 4289 4291 
	}
	names = {
		name = "TRADE_COMPANY_TREE_OF_STONE_Root_GetName"
	}
	names = {
		name = "TRADE_COMPANY_TREE_OF_STONE_Tree_Of_Stone_Trade_Company"
	}
}

trade_company_middle_dwarovar = {
	color = { 130 150 200 }
	
	provinces = {
		2914 4218 4090 4114 4113 4223 4219 4220 4112 4111 4222 4091 4221 4231 2895 2894 4094 4092 4095 4106 4089 4087 4086 4107 4108 4109 2893 2892 4027 4110 4088 4230 4082 4216 4124 4085 4083 4081 2891 2890 2889 4079 4084 4080 4239 4078 4214 4215 4229 4228 4227 2888 2887 2886 4028 2885 4217 
	}
	names = {
		name = "TRADE_COMPANY_MIDDLE_DWAROVAR_Root_GetName"
	}
	names = {
		name = "TRADE_COMPANY_MIDDLE_DWAROVAR_middle_dwarovar_Trade_Company"
	}
}

trade_company_serpentreach = {
	color = { 70 240 160 }
	
	provinces = {
		4039 4038 4040 4042 4041 2949 4037 4036 2951 2952 2985 2984 4035 2980 2981 2978 2982 2979 4099 2975 2970 2983 2977 2974 2973 2968 4098 2976 2969 2971 2972 4126 4240 2967 4100 2962 2966 2965 2964 4127 2961 2959 2958 2960 2947 2948 2950 4093 2946 2945 2944 2943 2942 2955 2954 2956 4032 4031 2957 4034 4033 4030 2987 4238 2941 2939 2940 
	}
	names = {
		name = "TRADE_COMPANY_SERPENTREACH_Root_GetName"
	}
	names = {
		name = "TRADE_COMPANY_SERPENTREACH_Serpentreach_Trade_Company"
	}
}

trade_company_mountain_heart = {
	color = { 200 200 200 }
	
	provinces = {
		2874 2934 4065 2986 4052 4053 2931 2988 4150 4062 2989 4213 4212 4165 2876 4104 2932 2875 4067 4066 4061 4060 4059 4058 4057 4076 4075 4077 4105 4056 4237 4068 4069 4070 4071 4072 4073 2877 2937 2878 4101 4102 4103 2879 2880 2963 2881 2882 2883 4029 2884 
	}
	names = {
		name = "TRADE_COMPANY_MOUNTAIN_HEART_Root_GetName"
	}
	names = {
		name = "TRADE_COMPANY_MOUNTAIN_HEART_mountain_heart_Trade_Company"
	}
}

trade_company_westholds = {
	color = { 70 70 200 }
	
	provinces = {
		2897 2896 2863 2864 2935 2865 2898 2899 2870 2869 4163 2868 4022 2995 4023 4025 4024 4026 4021 2866 2867 2871 4074 4096 4054 4044 4045 4046 4047 4048 4049 4055 4043 2872 2933 2873 4050 4552 4553 4236 
	}
	names = {
		name = "TRADE_COMPANY_WESTHOLDS_Root_GetName"
	}
	names = {
		name = "TRADE_COMPANY_WESTHOLDS_westholds_Trade_Company"
	}
}

trade_company_northern_pass = {
	color = { 200 200 100 }
	
	provinces = {
		4211 4210 4209 4208 4207 4206 4205 4204 4203 4201 4198 4202 4200 4199 4197 4195 4196 4191 4194 4192 4193 4190 4189 4183 4182 4181 4188 4187 4185 4186 4180 4184 4176 4174 4175 4173 4171 6173 6187 6196 6198 6214 6286 6287
	}
	names = {
		name = "TRADE_COMPANY_NORTHERN_PASS_Root_GetName"
	}
	names = {
		name = "TRADE_COMPANY_NORTHERN_PASS_Northern_Pass_Trade_Company"
	}
}

trade_company_kings_rock = {
	color = { 50 75 100 }
	
	provinces = {
		2990 4141 4144 2991 4063 4064 2992 2993 2996 4147 2997 4148 4130 2998 2999 3000 3001 3002 3003 4020 4118 4125 4129 4142 4131 4143 4121 4122 4128 4119 4149 4120 4123 4151 4158 4152 4164 4166 4145 2994 4051 
	}
	names = {
		name = "TRADE_COMPANY_KINGS_ROCK_Root_GetName"
	}
	names = {
		name = "TRADE_COMPANY_KINGS_ROCK_kings_rock_Trade_Company"
	}
}

#Cannor
#Escann
trade_company_deepwoods = {
	color = { 25 75 0 }
	
	provinces = {
		3004 3005 3006 3007 3008 3009 3010 3011 3012 3013 3014 3015 3016 3017 3018 3019 3020 3021 3022 3024 3023 3025 3026 3027 3028 3029 3030 3031 3032 3033 3034 3035 3036 3037 3038 3039 3040 3041 3042 3043 3044 3045 3046 3047 3048 3049 3050 3051 3052 3053 3054 3055 3056 3057 3058 3059 3060 3061 3062 3063 3064 3065 3066 3067 3068 3069 3070 3071 6258 
	}
	names = {
		name = "TRADE_COMPANY_DEEPWOODS_Root_GetName"
	}
	names = {
		name = "TRADE_COMPANY_DEEPWOODS_Deepwoods_Trade_Company"
	}
}

trade_company_esswyck = {
	color = { 98 101 167 }
	
	provinces = {
		868 870 863 872 878 879 867 871 880 881 882 884 895 896 897 893 894 883 891 888 889 890 892 886 887 885 875 876 877 856 857 4097
	}
	names = {
		name = "TRADE_COMPANY_ESSWYCK_Root_GetName"
	}
	names = {
		name = "TRADE_COMPANY_ESSWYCK_Esswyck_Trade_Company"
	}
}

#trade_company_marrhold = {
#	color = { 167 165 135 }
#	
#	provinces = {
#		895 896 897 893 894 883 891 888 889 890 892 886 887 885 875 876 877 856 857 4097 
#	}
#	names = {
#		name = "TRADE_COMPANY_MARRHOLD_Root_GetName"
#	}
#	names = {
#		name = "TRADE_COMPANY_MARRHOLD_Marrhold_Trade_Company"
#	}
#}

trade_company_castonath = {
	color = { 222 222 222 }
	
	provinces = {
		860 861 859 862 846 852 858 864 869 865 866 874 873 837 839 754 842 747 848 840 843 845 847 841 853 855 746 743 850 849 851 844 854 755 834 835 836 828 829 830 831 832 833 
	}
	names = {
		name = "TRADE_COMPANY_CASTONATH_Root_GetName"
	}
	names = {
		name = "TRADE_COMPANY_CASTONATH_Castonath_Trade_Company"
	}
}

#trade_company_silvermere = {
#	color = { 200 200 255 }
#	
#	provinces = {
#		767 756 834 835 829 821 825 823 820 809 783 788 790 794 795 796 785 786 787 789 784 764 766 765 792 781 782 772 773 774 768 769 770 771 776 780  
#	}
#	names = {
#		name = "TRADE_COMPANY_SILVERMERE_Root_GetName"
#	}
#	names = {
#		name = "TRADE_COMPANY_SILVERMERE_Silvermere_Trade_Company"
#	}
#}

trade_company_vernham = {
	color = { 230 216 166 }
	
	provinces = {
		821 825 823 820 822 801 809 810 794 795 796 785 786 787 789 784 783 788 790 802 803 805 807 791 797 798 800 808 806 812 811 815 814 813 816 817 818 819 824 826 799 793 827 
	}
	names = {
		name = "TRADE_COMPANY_VERNHAM_Root_GetName"
	}
	names = {
		name = "TRADE_COMPANY_VERNHAM_Vernham_Trade_Company"
	}
}

trade_company_middle_alen = {
	color = { 20 105 123 }
	
	provinces = {
		229 230 232 231 710 725 726 729 749 730 732 727 750 728 751 753 758 759 761 763 762 741 745 742 744 748 760 757 767 756 764 766 765 792 781 782 772 773 774 768 769 770 771 776 780 
	}
	names = {
		name = "TRADE_COMPANY_MIDDLE_ALEN_Root_GetName"
	}
	names = {
		name = "TRADE_COMPANY_MIDDLE_ALEN_Middle_Alen_Trade_Company"
	}
}

trade_company_dostanesck = {
	color = { 154 154 154 }
	
	provinces = {
		424 427 428 426 425 430 441 440 439 438 431 432 433 434 435 437 436 429 804 443 442 446 450 445 451 447 448 449 506 507 508 509 510 511 512 513 514 515 444 1303 6762 6759 
	}
	names = {
		name = "TRADE_COMPANY_DOSTANESCK_Root_GetName"
	}
	names = {
		name = "TRADE_COMPANY_DOSTANESCK_Dostanesck_Trade_Company"
	}
}

#trade_company_flooded_coast = {
#	color = { 16 135 99 }
#	
#	provinces = {
#		446 450 445 451 447 448 449  506 507 508 509 510 511 512 513 514 515 444 1303 6762 6759
#	}
#	names = {
#		name = "TRADE_COMPANY_FLOODED_COAST_Root_GetName"
#	}
#	names = {
#		name = "TRADE_COMPANY_FLOODED_COAST_Flooded_Coast_Trade_Company"
#	}
#}

#West Cannor
trade_company_freecestir = {
	color = { 154 237 233 }
	
	provinces = {
		261 351 352 360 359 353 354 355 356 361 350 252 349 238 244 334 250 256 342 258 357 358 257 248 245 246 247 4168 779 778 777 775
	}
	names = {
		name = "TRADE_COMPANY_FREECESTIR_Root_GetName"
	}
	names = {
		name = "TRADE_COMPANY_FREECESTIR_Freecestir_Trade_Company"
	}
}

trade_company_vertesk = {
	color = { 64 95 184 }
	
	provinces = {
		150 211 212 213 336 214 215 216 251 235 219 224 237 239 243 338 221 222 223 341 346 337 220 339 225 240 226 340 217 218 201 202 203 204 227 228 241 343 344 242
	}
	names = {
		name = "TRADE_COMPANY_VERTESK_Root_GetName"
	}
	names = {
		name = "TRADE_COMPANY_VERTESK_Vertesk_Trade_Company"
	}
}

trade_company_beepeck = {
	color = { 169 127 74 }
	
	provinces = {
		63 66 130 131 132 136 115 116 117 118 120 162 161 164 160 163 139 137 159 166 135 134 133 158 152 7 348 206 210 103 147 165 149 76 12 18 153 154 156 157 151 60 155 205 207 208 209 347
	}
	names = {
		name = "TRADE_COMPANY_BEEPECK_Root_GetName"
	}
	names = {
		name = "TRADE_COMPANY_BEEPECK_Beepeck_Trade_Company"
	}
}

trade_company_dragon_coast = {
	color = { 68 97 136 }
	
	provinces = {
		126 129 142 141 143 195 196 170 167 145 148 144 169 146 177 178 176 175 172 173 174 181 171 179 180 182 184 183 185 187 186 189 138 140 122 1294 1001 4643 4644 4645 4646 4160 6168 1281 1479 1295 1284 1299 188 190 199 198 191 345 194 192 193 197 200
	}
	names = {
		name = "TRADE_COMPANY_DRAGON_COAST_Root_GetName"
	}
	names = {
		name = "TRADE_COMPANY_DRAGON_COAST_Dragon_Coast_Trade_Company"
	}
}

trade_company_westport = {
	color = { 191 87 197 }
	
	provinces = {
		89 100 91 58 102 104 105 78 128 123 124 125 75 92 107 87 119 112 110 111 113 121 106 83 82 90 85 88 99 93 94 127 1263 1 
	}
	names = {
		name = "TRADE_COMPANY_WESTPORT_Root_GetName"
	}
	names = {
		name = "TRADE_COMPANY_WESTPORT_Westport_Trade_Company"
	}
}

trade_company_bay_of_wines = {
	color = { 142 65 92 }
	
	provinces = {
		43 46 14 42 49 41 57 71 96 98 101 97 81 84 86 38 72 73 59 33 32 34 40 64 62 70 77 114 108 79 80 95 67 74 68 61 69 47 48 1292 4232 4343 4241 65 1278 1297 1291 1471 1472 4157 4321
	}
	names = {
		name = "TRADE_COMPANY_BAY_OF_WINES_Root_GetName"
	}
	names = {
		name = "TRADE_COMPANY_BAY_OF_WINES_Bay_Of_Wines_Trade_Company"
	}
}

trade_company_arannen = {
	color = { 51 69 168 }
	
	provinces = {
		287 295 906 322 323 324 421 298 898 303 304 305 306 294 300 332 307 318 907 903 312 326 321 325 904 418 419 313 316 317 319 315 913 414 415 327 299 918 919 417 920 579 923
	}
	names = {
		name = "TRADE_COMPANY_ARANNEN_Root_GetName"
	}
	names = {
		name = "TRADE_COMPANY_ARANNEN_Arannen_Trade_Company"
	}
}

trade_company_leslinpar = {
	color = { 187 128 165 }
	
	provinces = {
		333 274 308 309 302 901 909 273 272 271 900 280 916 268 263 270 311 314 320 310 912 423 301 297 902 279 44 576 4161 422 
	}
	names = {
		name = "TRADE_COMPANY_LESLINPAR_Root_GetName"
	}
	names = {
		name = "TRADE_COMPANY_LESLINPAR_Leslinpar_Trade_Company"
	}
}

trade_company_eborthil = {
	color = { 214 161 50 }
	
	provinces = {
		50 51 45 25 283 285 286 331 569 409 410 411 412 413 921 922 416 420 39 373 374 380 369 35 379 36 377 375 376 378 370 371 288 290 291 292 365 367 368 372 366 408 362 363 364 293 289 838 1296 6513 1280 1282 1301 1302 1254 6553 4167 4162
	}
	names = {
		name = "TRADE_COMPANY_EBORTHIL_Root_GetName"
	}
	names = {
		name = "TRADE_COMPANY_EBORTHIL_Eborthil_Trade_Company"
	}
}

trade_company_anbenncost = {
	color = { 84 162 167 }
	
	provinces = {
		3 6 8 11 168 2 4 5 9 524 10 13 15 17 28 16 21 23 24 27 26 276 281 328 330 910 37 29 277 278 899 52 53 54 55 56 30 22 19 20 31 282 296 394 109 284 329 587 1270 1271 1269 1272 1274 1275 1276 1293
	}
	names = {
		name = "TRADE_COMPANY_ANBENNCOST_Root_GetName"
	}
	names = {
		name = "TRADE_COMPANY_ANBENNCOST_Anbenncost_Trade_Company"
	}
}

trade_company_damescrown = {
	color = { 201 185 131 }
	
	provinces = {
		236 249 253 254 255 262 908 264 265 917 269 275 905 260 266 267 911 233 234 259 915 914 335 575 1252 1928 1255 1926 1267 1257 1266 
	}
	names = {
		name = "TRADE_COMPANY_DAMESCROWN_Root_GetName"
	}
	names = {
		name = "TRADE_COMPANY_DAMESCROWN_Damescrown_Trade_Company"
	}
}

#Gerudia
trade_company_redgarhavn = {
	color = { 129 129 195 }
	
	provinces = {
		972 973 974 975 976 977 978 979 980 981 982 983 984 985 986 1286 2829 2830 2831 2832 2833 2834 2835 6171 6220 6240 1289 4146 1474 1317 3188 3189 2426 6269 6270 6271 6272 6273 6274 6275 6276 6277 6278 6279 6280 6281 6282 6283 6284 6285
	}
	names = {
		name = "TRADE_COMPANY_REDGARHAVN_Root_GetName"
	}
	names = {
		name = "TRADE_COMPANY_REDGARHAVN_Redgarhavn_Trade_Company"
	}
}

trade_company_bay_of_chills = {
	color = { 158 209 209 }
	
	provinces = {
		717 718 719 720 733 734 735 736 740 737 738 739 987 988 989 990 991 992 700 702 723 705 704 706 722 721 709 712 701 713 707 711 716 714 715 731 752 1256 703 724 1477
	}
	names = {
		name = "TRADE_COMPANY_BAY_OF_CHILLS_Root_GetName"
	}
	names = {
		name = "TRADE_COMPANY_BAY_OF_CHILLS_Bay_Of_Chills_Trade_Company"
	}
}

trade_company_serpentshead = {
	color = { 186 223 145 }
	
	provinces = {
		694 695 708 698 697 696 699 952 953 954 955 956 997 959 960 1000 993 994 995 996 999 1322 957 958 961 962 963 964 965 966 967 968 969 970 971 998 4177 1321 1324 1436 1320 1476 3186 3187 2953 6265 6266 6267 6268
	}
	names = {
		name = "TRADE_COMPANY_SERPENTSHEAD_Root_GetName"
	}
	names = {
		name = "TRADE_COMPANY_SERPENTSHEAD_Sepentshead_Trade_Company"
	}
}

#Sarhal
#Bulwar
trade_company_golden_highway = {
	color = { 255 138 12 }
	
	provinces = {
		2900 2901 2902 2903 2904 2905 2906 2907 2908 2909 2910 2915 2916 2917 2918 2919 2920 2921 2922 2926 2927 2928 2929 2930 4376 583 571 6103 6101 6102 6104 6100 648 645 646 558 585 3268
	}
	names = {
		name = "TRADE_COMPANY_GOLDEN_HIGHWAY_Root_GetName"
	}
	names = {
		name = "TRADE_COMPANY_GOLDEN_HIGHWAY_Golden_Highway_Trade_Company"
	}
}

trade_company_seionqan = {
	color = { 221 117 182 }
	
	provinces = {
		653 655 656 660 663 661 664 665 666 667 668 669 671 670 672 673 674 675 676 677 678 654 652 659 662 658 657 4117 650 649 651 619 3263
	}
	names = {
		name = "TRADE_COMPANY_SEIONQAN_Root_GetName"
	}
	names = {
		name = "TRADE_COMPANY_SEIONQAN_Seionqan_Trade_Company"
	}
}

trade_company_bahar = {
	color = { 77 198 223 }
	
	provinces = {
		520 521 522 523 525 526 527 528 529 530 531 532 533 534 535 536 537 538 539 540 541 542 543 544 545 581 547 550 548 1312 549 551 553 552 6760 3223 452 516 517 518 519
	}
	names = {
		name = "TRADE_COMPANY_BAHAR_Root_GetName"
	}
	names = {
		name = "TRADE_COMPANY_BAHAR_Bahar_Trade_Company"
	}
}

trade_company_sareyand = {
	color = { 157 138 103 }
	
	provinces = {
		625 626 627 629 630 632 633 631 634 636 637 635 639 638 640 641 642 643 644 647 681 3197 684 
	}
	names = {
		name = "TRADE_COMPANY_SAREYAND_Root_GetName"
	}
	names = {
		name = "TRADE_COMPANY_SAREYAND_Sareyand_Trade_Company"
	}
}

trade_company_bulwar = {
	color = { 248 193 92 }
	
	provinces = {
		591 603 610 599 601 602 604 611 600 605 606 607 612 628 624 608 613 609 614 615 616 617 622 621 620 623 618 689 690
	}
	names = {
		name = "TRADE_COMPANY_BULWAR_Root_GetName"
	}
	names = {
		name = "TRADE_COMPANY_BULWAR_Bulwar_Trade_Company"
	}
}

trade_company_brasan = {
	color = { 205 233 232 }
	
	provinces = {
		578 573 564 565 567 572 561 570 568 584 679 680 682 683 685 597 596 598 693 692 686 687 688 595 1309 554 555 556 557 559 560 562 563 574 577 580 586 588 589 582 1310 594 593 590 6761 691
	}
	names = {
		name = "TRADE_COMPANY_BRASAN_Root_GetName"
	}
	names = {
		name = "TRADE_COMPANY_BRASAN_Brasan_Trade_Company"
	}
}

#Salahad
trade_company_divenhal_gate= {
	color = { 204 204 204 }
	
	provinces = {
		402 389 388 387 386 407 385 384 406 398 396 383 395 401 392 393 390 391 400 1300 5790 5791 5792 6091 6092 6093 6094 6095 6128 403 382 405 397 381 404 399 458 453
	}
	names = {
		name = "TRADE_COMPANY_DIVENHAL_GATE_Root_GetName"
	}
	names = {
		name = "TRADE_COMPANY_DIVENHAL_GATE_Divenhal_Gate_Trade_Company"
	}
}

trade_company_ardimya = {
	color = { 3 80 150 }

	provinces = {
		6576 6577 6578 6579 6069 6070 6071 6068 6570 6571 6572 6065 6573 6574 6066 6051 6052 6677 6683 6566 6567 6568 6080 6079 6078 6077 6076 6081 6082 6586 6585 6584 6583 6582 6075 6074 6073 6072 6083 6084 6085 6580 6581 6087 6086 1330 5848 6569 6575 6063 6064 6061 6587 6588 6590 6591 6050 6059 3224 3225 3226 3227 3228 3229 3230 3231 3232 3233 3141 1331
	}
	names = {
		name = "TRADE_COMPANY_ARDIMYA_Root_GetName"
	}
	names = {
		name = "TRADE_COMPANY_ARDIMYA_Ardimya_Trade_Company"
	}
}

trade_company_yetshelok = {
	color = { 150 111 44 }

	provinces = {
		1342 1343 1344 1611 1612 1614 5527 6658 5528 5526 5522 6606 5539 5520 5530 6637 5536 5531 5529 5540 5542 5541 6645 5545 6649 6650 5546 5547 6646 5548 6647 6648 5550 5581 6592 5524 5439 5525 6657 5549 5543 6654 6659 5523 6656 5672 4807 4547 3247 3248 5544 5552 5556 6717 5567 5568 5569 5588 5589 5591 5597 5553 5555 6740 5519 5551 5687 6118 6666 6667 6706 5518 6668 6729 5538 6712 6665 6638 5554
	}
	names = {
		name = "TRADE_COMPANY_Yetshelok_Root_GetName"
	}
	names = {
		name = "TRADE_COMPANY_YETSHELOK_Yetshelok_Trade_Company"
	}
}

trade_company_dakinshi_ahunanja = {
	color = { 150 150 150 }

	provinces = {
		5566 5565 5562 5563 5574 5571 5573 5572 5570 5578 5583 5580 5575 5576 5579 5577 5582 5585 5586 5623 5622 5625 5624 5638 5637 5636 5635 5634 5633 5631 5632 5630 5653 5558 1339 5564 5671 5560 5557
	}
	names = {
		name = "TRADE_COMPANY_dakinshi_ahunanja_Root_GetName"
	}
	names = {
		name = "TRADE_COMPANY_dakinshi_ahunanja_dakinshi_ahunanja_Trade_Company"
	}
}

trade_company_clovesight = {
	color = { 242 29 196 }

	provinces = {
		3082 6616 6617 6618 6621 6622 5828 5829 6626 6627 6628 6634 5830 6625 6624 6629 5832 6630 5831 6632 6633 6631 3256 3255 3254 3243 3242 3241 6130 3235 3234 6129 6131 6135 6133 6132 6134 3089 6635 3088 1636 3114 1603
	}
	names = {
		name = "TRADE_COMPANY_CLOVESIGHT_Root_GetName"
	}
	names = {
		name = "TRADE_COMPANY_CLOVESIGHT_Clovesight_Trade_Company"
	}
}

trade_company_sea_of_lel = {
	color = { 38 128 49 }

	provinces = {
		5716 5715 5840 5841 5844 5845 5847 5851 5853 5859 5858 5891 5892 3244 3245 #gunwa coast
		5818 6599 5821 6603 6604 6597 6601 6600 5819 6609 6607 6608 6598 6602 5822 6610 6611 6612 6614 6613 5826 5823 6615 5824 6619 6620 6623 5827 5825 6605 3236 3237 3238 3239 3240 3085 3084 1462 3086 3087 3080
	}
	names = {
		name = "TRADE_COMPANY_SEA_OF_LEL_Root_GetName"
	}
	names = {
		name = "TRADE_COMPANY_LEL_Sea_of_Lel_Trade_Company"
	}
}

trade_company_golkora = {
	color = { 180 137 50 }
	
	provinces = {
		479 480 481 482 483 484 486 487 485 488 489 5465 5472 5475 5476 5477 5478 5479 5480 5532 5533 5676 6090 3195 5679 5677 5678 3196 5675 5674 5681 5467 5680 5683
	}
	names = {
		name = "TRADE_COMPANY_GOLKORA_Root_GetName"
	}
	names = {
		name = "TRADE_COMPANY_GOLKORA_Golkora_Trade_Company"
	}
}

trade_company_gunwa = {
	color = { 89 178 178 }

	provinces = {
		5854 5856 5864 5865 5869 5885 5886 5857 5863 5862 5860 5861 5852 5849 6126 5873 5846 5839 5843 5842 5835 5837 5836 5702 5698 5773 5868 5699 5694 5700 3207 3208 3209 3210 5717 3211 3213 3214 3215 3218 3219 3220 3221 3222 5850 3212 5695 5696 5697 5703 5838 5871 5874 5875 5872
	}
	names = {
		name = "TRADE_COMPANY_GUNWA_Root_GetName"
	}
	names = {
		name = "TRADE_COMPANY_GUNWA_Gunwa_Trade_Company"
	}
}

trade_company_khet_highland = {
	color = { 20 185 30 }

	provinces = {
		5917 5867 5870 5887 5889 5890 6125 5879 5877 5482 5483 5484 5481 5486 5692 5485 5487 5693 5488 5489 5666 6027 6022 6028 6029 5878 5882 5881 5880 5883 5876 5888 6024 6025 5916
	}
	names = {
		name = "TRADE_COMPANY_KHET_HIGHLAND_Root_GetName"
	}
	names = {
		name = "TRADE_COMPANY_KHET_HIGHLAND_Khet_Highland_Trade_Company"
	}
}

trade_company_adzalaz_gulf = {
	color = { 100 40 10 }

	provinces = {
		6008 6007 6006 6004 6003 5951 5953 5952 5955 5954 5958 5959 5957 5949 5950 5946 5948 5943 5947 5945 5944 5942 5941 5940 5938 5939 5937 5936 5935 5930 5910 5934 5929 5905 5914 5903 5919 5901 5900 5926 5894 5899 5898 5897 5893 5895 5896 5833 5834 6030 6031 6032 6033 1458 3257 3258 3259 3260
	}
	names = {
		name = "TRADE_COMPANY_ADZALAZ_GULF_Root_GetName"
	}
	names = {
		name = "TRADE_COMPANY_ADZALAZ_GULD_Adzalaz_Gulf_Company"
	}
}

trade_company_fojara = {
	color = { 140 38 48 }

	provinces = {
		5744 5745 5746 5747 5749 5748 5730 5728 5729 5727 5726 5720 5685 5684 5708 5706 5704 5709 5707 5705 5774 5719 5718 5682 5742 5737 5735 5732 5736 5734 5733 6593 5731 6304 6305 6306 6307 6310 6314
	}
	names = {
		name = "TRADE_COMPANY_FOJARA_Root_GetName"
	}
	names = {
		name = "TRADE_COMPANY_FOJARA_Fojara_Trade_Company"
	}
}

trade_company_mothers_sorrow = {
	color = { 255 128 64 }
	
	provinces = {
		494 496 454 459 455 456 457 460 461 462 503 463 546 464 466 467 468 465 470 490 492 493 469 471 472 473 491 502 474 592 475 476 477 478 504 1305 6088 6089 6096 6097 6098 6099 495 505 497 498 499 500 501 3193 3194 
	}
	names = {
		name = "TRADE_COMPANY_MOTHERS_SORROW_Root_GetName"
	}
	names = {
		name = "TRADE_COMPANY_MOTHERS_SORROW_Mothers_Sorrow_Trade_Company"
	}
}

trade_company_biya_mubidya = {
	color = { 77 88 99 }

	provinces = {
		6060 5855 6021 6673 6034 6035 6036 6038 6037 6039 6040 6041 6680 6042 6043 6678 6000 6045 6044 6047 6046 6048 6049 6056 6681 6058 6127 6057 6682 6055 6679 6676 6671 6017 6675 6674 6018 6016 6672 6019 6015 6670 6020 6669 6009 6012 6011 6010 6014 6013 5654 6054 
	}
	names = {
		name = "TRADE_COMPANY_BIYA_MUBIDYA_Root_GetName"
	}
	names = {
		name = "TRADE_COMPANY_BIYA_MUBIDYA_Biya_Mubidya_Trade_Company"
	}
}

trade_company_shadow_swamp = {
	color = { 120 148 140 }

	provinces = {
		6734 6733 6732 6731 6730 6726 6725 6723 6724 6722 6721 6720 6718 6716 6714 6713 6705 6745 6744 6743 6742 6739 6737 6736 6709 6708 6707 6704 6703 6702 6701 6700 6699 6698 6697 6696 6695 6694 6693 6692 6687 6688 6690 6686 6685 6711 3206 
	}
	names = {
		name = "TRADE_COMPANY_SHADOW_SWAMP_Root_GetName"
	}
	names = {
		name = "TRADE_COMPANY_SHADOW_SWAMP_Shadow_Swamp_Trade_Company"
	}
}

trade_company_dao_nako = {
	color = { 29 212 78 }

	provinces = {
		5805 5713 5710 5711 5712 5721 5725 5724 5722 5723 5766 5763 5762 5764 5765 5753 5752 5760 5761 5759 5754 5751 5755 5756 5757 5758 5769 5770 5768 5767 5775 5777 5776 5806 5807 6308 6309 6315 6316 6317 6318 6320 6321 6319 5714
	}
	names = {
		name = "TRADE_COMPANY_DAO_NAKO_Root_GetName"
	}
	names = {
		name = "TRADE_COMPANY_DAO_NAKO_Dao_Nako_Trade_Company"
	}
}

trade_company_janama = {
	color = { 29 89 112 }

	provinces = {
		5813 5816 5815 5814 5803 5817 5804 5800 5802 5801 5811 5786 5797 5798 5796 5799 5795 5794 6595 5793 5789 5785 5787 5788 6594 1467 5784 5783 5782 5808 5781 5780 5779 5772 5771 5743 5750 5740 5741 5738 5739 5809 5812 5810 6302 6303 6311 6312 6313
	}
	names = {
		name = "TRADE_COMPANY_JANAMA_Root_GetName"
	}
	names = {
		name = "TRADE_COMPANY_JANAMA_janama_Trade_Company"
	}
}

trade_company_south_yikikakeli = {
	color = { 77 10 182 }

	provinces = {
		5587 6643 5602 6644 5603 5606 5601 5616 5617 6636 5614 5620 5662 5661 5619 5670 5641 5626 5618 5613 5600 6642 5612 5605 5611 5609 6640 5608 5621 6639 5607 5663 5659 5660 5644 6119 5628 5627 5629 5584
	}
	names = {
		name = "TRADE_COMPANY_SOUTH_YIKIKAKELI_Root_GetName"
	}
	names = {
		name = "TRADE_COMPANY_SOUTH_MELEKAFAR_South_Melekafar_Trade_Company"
	}
}

trade_company_haraagtesda_trade = {
	color = { 23 188 120 }

	provinces = {
		5442 5453 5454 5494 5493 5458 5460 5457 5452 5438 5459 5491 5492 5470 5664 5665 5490 5473 5474 5471 5468 5466 5469 5441 5440 5464 5462 5463 
	}
	names = {
		name = "TRADE_COMPANY_HARAAGTSEDA_TRADE_Root_GetName"
	}
	names = {
		name = "TRADE_COMPANY_HARAAGTSEDA_TRADE_Xhurrobix_Trade_Trade_Company"
	}
}

trade_company_keygas = {
	color = { 13 176 200 }

	provinces = {
		5444 5445 5446 5447 5448 5503 6651 5504 5505 5506 5507 6684 5509 6661 6653 5513 6660 5512 5510 6652 5511 5500 5686 5443 5449 5451 5450 5495 1347 1345 5455 5456 5691 6664 5501 6735 5502 5508 5516 6719 5593 5594 6727 5596 5515 5514 5517 6655 5521 5534 6641 5669 5595 5598 6662 6691 5498 5590 5688 5689 6741 6738 5497 5496 5499 5599 5615 6710
	}
	names = {
		name = "TRADE_COMPANY_Keygas_Root_GetName"
	}
	names = {
		name = "TRADE_COMPANY_KEYGAS_Keygas_Trade_Company"
	}
}

trade_company_zerat = {
	color = { 185 40 40 }

	provinces = {
		5956 5979 5983 5982 5981 5972 5971 5970 5975 5978 5980 5977 5976 5961 5960 5933 5963 5962 5931 5928 5907 5909 5906 5902 5904 5908 5912 5911 5913 5969 6062 5965 5967 5968 5966 5964 5918 5920 5921 5922 5925 6023 5924 5932 5915 5923 5927 3216 3217
	}
	names = {
		name = "TRADE_COMPANY_ZERAT_Root_GetName"
	}
	names = {
		name = "TRADE_COMPANY_ZERAT_Zerat_Trade_Company"
	}

}

trade_company_shalazar = {
	color = { 180 44 90 }

	provinces = {
		5652 5651 5650 5645 5642 5648 5649 5646 5658 5657 5639 5640 5643 5647 6005 5994 5995 5996 6001 5997 6002 5986 5984 5987 5999 5985 5974 5973 5988 5990 5989 5991 5998 5993 5992 
	}
	names = {
		name = "TRADE_COMPANY_SHALAZAR_Root_GetName"
	}
	names = {
		name = "TRADE_COMPANY_SHALAZAR_Shalazar_Trade_Company"
	}
}

trade_company_nomsyulhan = { 
	color = { 0 100 50 }

	provinces = { 6821 6822 6823 6824 6825 6826 6827 6829 6830 6831 6832 6833 6834 6835 6836 6837 6838 6839 6840 6841 6842 6844 6845 6847 6848 5384 5385 5386 5387 5388 5389 5390 5391 5392 5393 6828 6846
	}
	names = {
		name = "TRADE_COMPANY_NOMSYULHAN_Root_GetName"
	}
	names = {
		name = "TRADE_COMPANY_NOMSYULHAN_Nomsyulhan_Trade_Company"
	}
}