#coded by schwendigo#5662
mulen_1 = {
	slot = 1
	generic = no
	ai = yes
	potential = {
		tag = F50
	}
	has_country_shield = yes

	mulen_take_the_river = {
		icon = mission_advance_to_the_dnieper
		required_missions = { mulen_capture_the_highway }
		position = 3

		provinces_to_highlight = {
			OR = {
				area = jikarzax_area
				area = grixek_area
				area = azka_sur_area
				area = upper_suran_area
			}
			NOT = { country_or_subject_holds = ROOT }
		}

		trigger = {
			jikarzax_area = {
				type = all
				country_or_subject_holds = ROOT
			}
			grixek_area = {
				type = all
				country_or_subject_holds = ROOT
			}
			azka_sur_area = {
				type = all
				country_or_subject_holds = ROOT
			}
			upper_suran_area = {
				type = all
				country_or_subject_holds = ROOT
			}
		}

		effect = {
			645 = { #Grixek
				change_culture = siadunan_harpy
				change_religion = ROOT
				add_devastation = 30
			}
			far_bulwar_region = {
				limit = {
					NOT = { is_core = ROOT }
				}
				add_permanent_claim = ROOT
			}
			jixobix_area = {
				limit = {
					NOT = { is_core = ROOT }
				}
				add_permanent_claim = ROOT
			}
			grixekyr_area = {
				limit = {
					NOT = { is_core = ROOT }
				}
				add_permanent_claim = ROOT
			}
			garpix_tluukt_area = {
				limit = {
					NOT = { is_core = ROOT }
				}
				add_permanent_claim = ROOT
			}
			hidden_effect = {
				bulwar_superregion = {
					limit = {
						owner = { culture_group = gnollish }
						NOT = { is_core = ROOT }
						NOT = { is_claim = ROOT }
					}
					add_claim = ROOT
				}
			}
		}
	}

	mulen_repel_the_gnolls = {
		icon = mission_heated_battle
		required_missions = { mulen_take_the_river }
		position = 4

		provinces_to_highlight = {
			OR = {
				AND = {
					OR = {
						area = eastern_krahway_area
						area = garpix_zokka_area
						area = xhurgrum_area
						area = jixobix_area
						area = grixekyr_area
						area = garpix_tluukt_area
					}
					NOT = { country_or_subject_holds = ROOT }
				}
				AND = {
					region = bulwar_proper_region
					owner = { culture_group = gnollish }
				}
			}
		}

		trigger = {
			eastern_krahway_area = {
				type = all
				country_or_subject_holds = ROOT
			}
			garpix_zokka_area = {
				type = all
				country_or_subject_holds = ROOT
			}
			xhurgrum_area = {
				type = all
				country_or_subject_holds = ROOT
			}
			jixobix_area = {
				type = all
				country_or_subject_holds = ROOT
			}
			grixekyr_area = {
				type = all
				country_or_subject_holds = ROOT
			}
			garpix_tluukt_area = {
				type = all
				country_or_subject_holds = ROOT
			}
			bulwar_proper_region = {
				type = all
				owner = {
					NOT = { culture_group = gnollish }
				}
			}
		}

		effect = {
			sur_mountains_area = {
				limit = {
					NOT = { is_core = ROOT }
				}
				add_permanent_claim = ROOT
			}
			masusopot_area = {
				limit = {
					NOT = { is_core = ROOT }
				}
				add_permanent_claim = ROOT
			}
			add_country_modifier = {
				name = mulen_removed_gnolls
				duration = 3650
			}
		}
	}

	mulen_resurgence_of_the_shadnatu = {
		icon = mission_moon_moon
		required_missions = {
			mulen_promote_the_locals
		}
		position = 6
		
		provinces_to_highlight = {
			province_id = 596 #Zansap
		}

		trigger = {
			mil_power = 100
			high_tolerance_human_race_trigger = yes
			596 = {
				OR = {
					owned_by = ROOT
					owner = {
						custom_trigger_tooltip = {
							tooltip = mulen_most_improve_relations_tt
							has_opinion_modifier = {
								who = ROOT
								modifier = improved_relation
								value = 90
							}
						}
					}
				}
			}
		}

		effect = {
			add_mil_power = -100
			custom_tooltip = mulen_shadnatu_tt
			hidden_effect = {
				every_owned_province = {
					limit = {
						culture_group = gnollish
						OR = {
							area = jixobix_area
							area = grixekyr_area
							area = sur_mountains_area
							area = garpix_tluukt_area
							area = xhurgrum_area
						}
						OR = {
							has_terrain = mountain
							has_terrain = highlands
						}
						NOT = { province_id = 688 }
					}
					if = {
						limit = {
							trade_goods = slaves
						}
						change_trade_goods = unknown
					}
					change_culture = sadnatu
					if = {
						limit = {
							NOT = { religion = ROOT }
						}
						change_religion = bulwari_sun_cult
					}
					add_devastation = 25
				}
				every_subject_country = {
					every_owned_province = {
						limit = {
							OR = {
								area = jixobix_area
								area = grixekyr_area
								area = sur_mountains_area
								area = garpix_tluukt_area
								area = xhurgrum_area
							}
							OR = {
								has_terrain = mountain
								has_terrain = highlands
							}
							NOT = { province_id = 688 }
						}
						if = {
							limit = {
								trade_goods = slaves
							}
							change_trade_goods = unknown
						}
						change_culture = sadnatu
						if = {
							limit = {
								NOT = { religion = ROOT }
							}
							change_religion = bulwari_sun_cult
						}
						add_devastation = 25
					}
				}
			}
			688 = { #Grixekyr
				change_trade_goods = gems
				change_culture = siadunan_harpy
				change_religion = ROOT
				add_devastation = 50
			}
			small_decrease_of_gnollish_tolerance_effect = yes
			medium_increase_of_human_tolerance_effect = yes
			custom_tooltip = mulen_accept_sadnatu_culture_tt
			hidden_effect = { 
				add_country_modifier = { 
					name = mulen_sadnatu_culture_modifier
					duration = -1 
					hidden = yes 
				}
				add_accepted_culture = sadnatu
			}
			on_culture_promoted_estate_privileges_effect = yes
			hidden_effect = { country_event = { id = race_setup_events.6 } } #on promote culture
			add_country_modifier = {
				name = mulen_teachings_of_the_desert
				duration = -1
			}
		}
	}

	mulen_a_western_coast = {
		icon = mission_arabian_fort
		required_missions = { mulen_resurgence_of_the_shadnatu }
		position = 7

		provinces_to_highlight = {
			OR = {
				AND = {
					OR = {
						area = sur_mountains_area
						area = masusopot_area
					}
					NOT = { country_or_subject_holds = ROOT }
				}
				AND = {
					province_id = 501 #Nisoppirit
					NOT = {
						has_trade_building_trigger = yes
						has_shipyard_building_trigger = yes
					}
				}
			}
		}

		trigger = {
			sur_mountains_area = {
				type = all
				country_or_subject_holds = ROOT
			}
			masusopot_area = {
				type = all
				country_or_subject_holds = ROOT
			}
			501 = {
				has_trade_building_trigger = yes
				has_shipyard_building_trigger = yes
			}
		}

		effect = {
			501 = {
				add_province_modifier = {
					name = mulen_ship_rush
					duration = 3650
				}
				add_permanent_province_modifier = {
					name = mulen_trading_center
					duration = -1
				}
			}
		}
	}

	mulen_overtures_to_the_raheni = {
		icon = mission_indian_stateman
		required_missions = { mulen_overseeing_the_bulwari }
		position = 10

		provinces_to_highlight = {
			province_group = golden_highway_rahen_coast
			owner = {
				NOT = { tag = ROOT }
				OR = {
					AND = {
						OR = {
							is_enemy = ROOT
							is_rival = ROOT
						}
						NOT = {
							has_opinion_modifier = {
								who = ROOT
								modifier = improved_relation
								value = 90
							}
						}
					}
					AND = {
						is_subject = no
						NOT = {
							has_opinion_modifier = {
								who = ROOT
								modifier = improved_relation
								value = 50
							}
						}
					}
					AND = {
						is_subject = yes
						overlord = {
							NOT = { tag = ROOT }
							OR = {
								AND = {
									OR = {
										is_enemy = ROOT
										is_rival = ROOT
									}
									NOT = {
										has_opinion_modifier = {
											who = ROOT
											modifier = improved_relation
											value = 90
										}
									}
								}
								AND = {
									is_subject = no
									NOT = {
										has_opinion_modifier = {
											who = ROOT
											modifier = improved_relation
											value = 50
										}
									}
								}
							}
						}
					}
				}
			}
		}

		trigger = {
			custom_trigger_tooltip = {
				tooltip = mulen_raheni_overtures_tt
				all_known_country = {
					OR = {
						NOT = {
							any_owned_province = { province_group = golden_highway_rahen_coast }
						}
						AND = {
							NOT = {
								OR = {
									is_enemy = ROOT
									is_rival = ROOT
								}
							}
							has_opinion_modifier = {
								who = ROOT
								modifier = improved_relation
								value = 50
							}
						}
						AND = {
							is_subject = no
							has_opinion_modifier = {
								who = ROOT
								modifier = improved_relation
								value = 90
							}
						}
						AND = {
							is_subject = yes
							overlord = {
								OR = {
									AND = {
										NOT = {
											OR = {
												is_enemy = ROOT
												is_rival = ROOT
											}
										}
										has_opinion_modifier = {
											who = ROOT
											modifier = improved_relation
											value = 50
										}
									}
									has_opinion_modifier = {
										who = ROOT
										modifier = improved_relation
										value = 90
									}
								}
							}
						}
					}
				}
			}
		}

		effect = {
			2913 = { #Davharral
				add_province_modifier = {
					name = mulen_trade_influx
					duration = 5475
				}
			}
		}
	}

	mulen_contract_with_the_raheni = {
		icon = mission_cromandel_coast
		required_missions = { mulen_overtures_to_the_raheni }
		position = 12

		provinces_to_highlight = {
			province_id = 2913 #Davharral
			NOT = { development = 15 }
		}

		trigger = {
			dip_power = 100
			if = {
				limit = {
					golden_highway_rahen_coast = {
						NOT = {
							has_province_modifier = golden_highway_construction_stalled
							has_province_modifier = golden_highway_under_construction
							has_province_modifier = golden_highway
						}
					}
				}
				treasury = 2250
				adm_power = 200
			}
			2913 = { #Davharral
				development = 15
			}
		}

		effect = {
			if = {
				limit = {
					golden_highway_rahen_coast = {
						NOT = {
							has_province_modifier = golden_highway_construction_stalled
							has_province_modifier = golden_highway_under_construction
							has_province_modifier = golden_highway
						}
					}
				}
				golden_highway_start_construction = { section = rahen_coast }
			}
			2913 = { #Davharral
				add_permanent_province_modifier = {
					name = mulen_davharral_sez_1
					duration = -1
				}
				set_center_level_2_center_of_trade = yes
				change_culture = raghamidesh
			}
			2901 = { add_harimari_minority_size_effect = yes } #Baganas
			2921 = { add_harimari_minority_size_effect = yes } #Mermigan
			random_owned_province = {
				limit = {
					is_capital = no
					has_province_modifier = harpy_roost
					NOT = { has_province_flag = applied_effect }
				}
				add_harimari_minority_size_effect = yes
				set_province_flag = applied_effect
			}
			random_owned_province = {
				limit = {
					is_capital = no
					has_province_modifier = harpy_roost
					NOT = { has_province_flag = applied_effect }
				}
				add_harimari_minority_size_effect = yes
				set_province_flag = applied_effect
			}
			random_owned_province = {
				limit = {
					is_capital = no
					has_province_modifier = harpy_roost
					NOT = { has_province_flag = applied_effect }
				}
				add_harimari_minority_size_effect = yes
				set_province_flag = applied_effect
			}
			every_owned_province = {
				limit = { has_province_flag = applied_effect }
				clr_province_flag = applied_effect
			}
			medium_increase_of_harimari_tolerance_effect = yes
		}
	}

	mulen_free_flowing_trade = {
		icon = austria_prospers
		required_missions = { mulen_contract_with_the_raheni }
		position = 13

		provinces_to_highlight = {
			OR = {
				province_group = golden_highway_bulwar_proper
				province_group = golden_highway_far_bulwar
				province_group = golden_highway_far_salahad
				province_group = golden_highway_rahen_coast
			}
			NOT = { has_province_modifier = golden_highway }
		}

		trigger = {
			golden_highway_bulwar_proper = {
				type = all
				has_province_modifier = golden_highway
			}
			golden_highway_far_bulwar = {
				type = all
				has_province_modifier = golden_highway
			}
			golden_highway_far_salahad = {
				type = all
				has_province_modifier = golden_highway
			}
			golden_highway_rahen_coast = {
				type = all
				has_province_modifier = golden_highway
			}
		}

		effect = {
			remove_country_modifier = mulen_highway_2
			add_country_modifier = {
				name = mulen_highway_3
				duration = -1
			}
		}
	}

	mulen_pressurizing_the_flow = {
		icon = mission_unite_coromandel
		required_missions = { mulen_free_flowing_trade }
		position = 14

		provinces_to_highlight = {
			OR = {
				region = far_salahad_region
			}
			owned_by = ROOT
			has_port = yes
			NOT = { has_shipyard_building_trigger = yes }
		}

		trigger = {
			num_of_owned_provinces_with = {
				value = 6
				OR = {
					region = far_salahad_region
				}
				has_shipyard_building_trigger = yes
			}
			1361 = { #Gulf of Rahen
				trade_share = {
					country = ROOT
					share = 10
				}
			}
			2913 = { #Davharral
				OR = {
					has_building = trade_depot
					has_building = stock_exchange
				}
			}
		}

		effect = {
			2913 = { #Davharral
				remove_province_modifier = mulen_davharral_sez_1
				add_permanent_province_modifier = {
					name = mulen_davharral_sez_2
					duration = -1
				}
				add_province_modifier = {
					name = mulen_people_influx
					duration = 5475
				}
			}
			2923 = { #Edesukeru
				set_center_level_2_center_of_trade = yes
				add_province_modifier = {
					name = mulen_people_influx
					duration = 5475
				}
			}
			5434 = { #Akazferr
				remove_province_modifier = mulen_increased_trade
				add_permanent_province_modifier = {
					name = mulen_trading_center
					duration = -1
				}
				add_province_modifier = {
					name = mulen_people_influx
					duration = 5475
				}
			}
		}
	}
}

mulen_2 = {
	slot = 2
	generic = no
	ai = yes
	potential = {
		tag = F50
	}
	has_country_shield = yes

	mulen_capture_the_highway = {
		icon = mission_desert_rider
		required_missions = { mulen_reunite_the_flocks }
		position = 2

		provinces_to_highlight = {
			province_group = golden_highway_far_salahad
			NOT = { country_or_subject_holds = ROOT }
		}

		trigger = {
			golden_highway_far_salahad = {
				type = all
				country_or_subject_holds = ROOT
			}
		}

		effect = {
			jikarzax_area = {
				limit = {
					NOT = { is_core = ROOT }
				}
				add_permanent_claim = ROOT
			}
			grixek_area = {
				limit = {
					NOT = { is_core = ROOT }
				}
				add_permanent_claim = ROOT
			}
			azka_sur_area = {
				limit = {
					NOT = { is_core = ROOT }
				}
				add_permanent_claim = ROOT
			}
			upper_suran_area = {
				limit = {
					NOT = { is_core = ROOT }
				}
				add_permanent_claim = ROOT
			}
			saranza_area = {
				limit = {
					NOT = { is_core = ROOT }
				}
				add_permanent_claim = ROOT
			}
		}
	}

	mulen_begin_the_restoration = {
		icon = mission_early_game_buildings
		required_missions = { mulen_capture_the_highway }
		position = 3

		provinces_to_highlight = {
			province_group = golden_highway_far_salahad
			NOT = {
				OR = {
					has_province_modifier = golden_highway
					has_province_modifier = golden_highway_stage_1
					has_province_modifier = golden_highway_stage_2
					has_province_modifier = golden_highway_under_construction
					has_province_modifier = golden_highway_construction_stalled
				}
			}
		}

		trigger = {
			golden_highway_far_salahad = {
				OR = {
					has_province_modifier = golden_highway
					has_province_modifier = golden_highway_stage_1
					has_province_modifier = golden_highway_stage_2
					has_province_modifier = golden_highway_under_construction
					has_province_modifier = golden_highway_construction_stalled
				}
			}
		}

		effect = {
			2901 = { #Baganas
				add_province_modifier = {
					name = mulen_trade_influx
					duration = 5475
				}
			}
		}
	}

	mulen_avamezan_valley = {
		icon = mission_control_the_desh
		required_missions = { mulen_take_the_river }
		position = 4

		provinces_to_highlight = {
			OR = {
				AND = {
					OR = {
						area = panuses_area
						area = eduz_vacyn_area
						area = avamezan_area
						area = sareyand_area
					}
					OR = {
						NOT = { country_or_subject_holds = ROOT }
						AND = {
							local_autonomy = 25
							unrest = 0
						}
					}
				}
				AND = {
					province_id = 632
					NOT = { has_fort_building_trigger = yes }
				}
			}
		}

		trigger = {
			panuses_area = {
				type = all
				country_or_subject_holds = ROOT
				OR = {
					NOT = { local_autonomy = 25 }
					NOT = { unrest = 0 }
				}
			}
			eduz_vacyn_area = {
				type = all
				country_or_subject_holds = ROOT
				OR = {
					NOT = { local_autonomy = 25 }
					NOT = { unrest = 0 }
				}
			}
			avamezan_area = {
				type = all
				country_or_subject_holds = ROOT
				OR = {
					NOT = { local_autonomy = 25 }
					NOT = { unrest = 0 }
				}
			}
			sareyand_area = {
				type = all
				country_or_subject_holds = ROOT
				OR = {
					NOT = { local_autonomy = 25 }
					NOT = { unrest = 0 }
				}
			}
			632 = { #Erubas
				has_fort_building_trigger = yes
			}
		}

		effect = {
			632 = { #Erubas
				change_culture = siadunan_harpy
				change_religion = ROOT
				add_devastation = 30
			}
			hidden_effect = {
				far_bulwar_region = {
					limit = {
						OR = {
							area = panuses_area
							area = eduz_vacyn_area
							area = avamezan_area
							area = sareyand_area
						}
						OR = {
							has_terrain = drylands
							has_terrain = grasslands
							has_terrain = farmlands
						}
					}
					add_province_modifier = {
						name = mulen_restoring_order
						duration = 3650
					}
				}
			}
			custom_tooltip = mulen_avamezan_tt
			tooltip = {
				add_province_modifier = {
					name = mulen_restoring_order
					duration = 3650
				}
			}
		}
	}

	mulen_promote_the_locals = {
		icon = mission_desert_pilgrim
		required_missions = {
			mulen_repel_the_gnolls
			mulen_avamezan_valley
		}
		position = 5

		trigger = {
			mil_power = 100
			OR = {
				medium_tolerance_human_race_trigger = yes
				high_tolerance_human_race_trigger = yes
			}
		}

		effect = {
			add_mil_power = -100
			custom_tooltip = mulen_masnsih_tt
			hidden_effect = {
				every_owned_province = {
					limit = {
						culture_group = gnollish
						superregion = bulwar_superregion
						NOT = { area = dasmatus_area }
						NOT = { area = zallirkor_area }
						NOT = {
							OR = {
								has_terrain = mountain
								has_terrain = highlands
								has_terrain = hills
							}
						}
					}
					if = {
						limit = {
							trade_goods = slaves
						}
						change_trade_goods = unknown
					}
					if = {
						limit = {
							OR = {
								area = xhurgrum_area
								area = garpix_zokka_area
								area = eastern_krahway_area
								region = far_salahad_region
							}
						}
						change_culture = masnsih
						if = {
							limit = {
								NOT = { religion = ROOT }
							}
							change_religion = the_jadd
						}
					}
					else_if = {
						limit = {
							OR = {
								area = eduz_vacyn_area
								area = panuses_area
								area = upper_suran_area
								area = azka_sur_area
								area = grixek_area
							}
						}
						change_culture = surani
						if = {
							limit = {
								NOT = { religion = ROOT }
							}
							change_religion = bulwari_sun_cult
						}
					}
					else_if = {
						limit = {
							OR = {
								area = avamezan_area
								area = sareyand_area
								area = kumarkand_area
								area = bulwar_area
								area = harklum_area
								area = south_naza_area
								area = traz_buranun_area
								area = north_naza_area
								area = east_naza_area
								area = jixobix_area
							}
						}
						change_culture = zanite
						if = {
							limit = {
								NOT = { religion = ROOT }
							}
							change_religion = bulwari_sun_cult
						}
					}
					else = {
						change_culture = brasanni
						if = {
							limit = {
								NOT = { religion = ROOT }
							}
							change_religion = bulwari_sun_cult
						}
					}
					add_devastation = 25
				}
				every_owned_province = {
					limit = {
						culture_group = gnollish
						OR = {
							region = far_bulwar_region
							region = far_salahad_region
						}
						NOT = { area = dasmatus_area }
						NOT = { area = zallirkor_area }
						has_terrain = mountain
					}
					if = {
						limit = {
							trade_goods = slaves
						}
						change_trade_goods = unknown
					}
					change_culture = siadunan_harpy
					change_religion = ROOT
					add_devastation = 25
				}
				every_subject_country = {
					every_owned_province = {
						limit = {
							culture_group = gnollish
							superregion = bulwar_superregion
							NOT = { area = dasmatus_area }
							NOT = { area = zallirkor_area }
							NOT = {
								OR = {
									has_terrain = mountain
									has_terrain = highlands
									has_terrain = hills
								}
							}
						}
						if = {
							limit = {
								trade_goods = slaves
							}
							change_trade_goods = unknown
						}
						change_culture = masnsih
						if = {
							limit = {
								NOT = { religion = ROOT }
							}
							change_religion = bulwari_sun_cult
						}
						add_devastation = 50
					}
					every_owned_province = {
						limit = {
							culture_group = gnollish
							OR = {
								region = far_bulwar_region
								region = far_salahad_region
							}
							NOT = { area = dasmatus_area }
							NOT = { area = zallirkor_area }
							has_terrain = mountain
						}
						if = {
							limit = {
								trade_goods = slaves
							}
							change_trade_goods = unknown
						}
						change_culture = siadunan_harpy
						change_religion = ROOT
						add_devastation = 50
					}
				}
			}
			small_decrease_of_gnollish_tolerance_effect = yes
			medium_increase_of_human_tolerance_effect = yes
			custom_tooltip = mulen_accept_masnsih_culture_tt
			hidden_effect = { 
				add_country_modifier = { 
					name = mulen_masnsih_culture_modifier
					duration = -1 
					hidden = yes 
				}
				add_accepted_culture = masnsih
			}
			on_culture_promoted_estate_privileges_effect = yes
			hidden_effect = { country_event = { id = race_setup_events.6 } } #on promote culture
		}
	}

	mulen_second_link_in_the_chain = {
		icon = dalmatian_conquest
		required_missions = {
			mulen_promote_the_locals
			mulen_lets_get_down_to_business
		}
		position = 6

		provinces_to_highlight = {
			province_group = golden_highway_far_bulwar
			NOT = {	has_province_modifier = golden_highway }
		}

		trigger = {
			golden_highway_far_bulwar = {
				type = all
				has_province_modifier = golden_highway
			}
		}

		effect = {
			remove_country_modifier = mulen_highway_1
			add_country_modifier = {
				name = mulen_highway_2
				duration = -1
			}
		}
	}

	mulen_my_way_for_the_highway = {
		icon = mission_approach_throne
		required_missions = {
			mulen_resurgence_of_the_shadnatu
			mulen_second_link_in_the_chain
		}
		position = 7

		provinces_to_highlight = {
			province_group = golden_highway_bulwar_proper
			owner = {
				NOT = {
					OR = {
						is_enemy = ROOT
						is_rival = ROOT
					}
				}
				OR = {
					AND = {
						is_subject = no
						NOT = {
							has_opinion_modifier = {
								who = ROOT
								modifier = improved_relation
								value = 50
							}
						}
					}
					AND = {
						is_subject = yes
						NOT = { is_subject_of = ROOT }
						overlord = {
							NOT = {
								has_opinion_modifier = {
									who = ROOT
									modifier = improved_relation
									value = 50
								}
							}
							NOT = {
								OR = {
									is_enemy = ROOT
									is_rival = ROOT
								}
							}
						}
					}
				}
			}
			NOT = { country_or_subject_holds = ROOT }
		}

		trigger = {
			power_projection = 25
			prestige = 50
			diplomatic_reputation = 2
			all_known_country = {
				OR = {
					NOT = {
						any_owned_province = {
							province_group = golden_highway_bulwar_proper
						}
					}
					is_enemy = ROOT
					is_rival = ROOT
					AND = {
						is_subject = no
						custom_trigger_tooltip = {
							tooltip = mulen_half_improve_relations_tt
							has_opinion_modifier = {
								who = ROOT
								modifier = improved_relation
								value = 50
							}
						}
					}
					AND = {
						is_subject = yes
						OR = {
							is_subject_of = ROOT
							overlord = {
								OR = {
									custom_trigger_tooltip = {
										tooltip = mulen_half_improve_relations_tt
										has_opinion_modifier = {
											who = ROOT
											modifier = improved_relation
											value = 50
										}
									}
									is_enemy = ROOT
									is_rival = ROOT
								}
							}
						}
					}
				}
			}
		}

		effect = {
			custom_tooltip = mulen_ultimatum_tt
			hidden_effect = {
				every_known_country = {
					limit = {
						is_subject = no
						any_owned_province = {
							province_group = golden_highway_bulwar_proper
						}
					}
					country_event = {
						id = flavour_mulen.8
					}
				}
				every_known_country = {
					limit = {
						is_subject = yes
						any_owned_province = {
							province_group = golden_highway_bulwar_proper
						}
					}
					overlord = {
						if = {
							limit = {
								NOT = {
									any_owned_province = {
										province_group = golden_highway_bulwar_proper
									}
								}
							}
							country_event = {
								id = flavour_mulen.8
							}
						}
					}
				}
			}
		}
	}

	mulen_successful_venture = {
		icon = mission_rb_monopolize_the_channel
		required_missions = { mulen_a_western_coast mulen_my_way_for_the_highway }
		position = 8

		trigger = {
			601 = { #Bulwar node
				trade_share = {
					country = ROOT
					share = 20
				}
			}
			1309 = { #Brasan node
				trade_share = {
					country = ROOT
					share = 20
				}
			}
			if = {
				limit = {
					golden_highway_bulwar_proper = {
						type = any
						NOT = {
							OR = {
								has_province_modifier = golden_highway_construction_stalled
								has_province_modifier = golden_highway_under_construction
								has_province_modifier = golden_highway
							}
						}
					}
				}
				treasury = 1950
				adm_power = 200
			}
		}

		effect = {
			if = {
				limit = {
					golden_highway_bulwar_proper = {
						NOT = {
							OR = {
								has_province_modifier = golden_highway
								has_province_modifier = golden_highway_under_construction
								has_province_modifier = golden_highway_construction_stalled
							}
						}
					}
				}
				golden_highway_start_construction = { section = bulwar_proper }
			}
			every_known_country = {
				limit = {
					is_subject = no
					golden_highway_bulwar_proper = {
						type = any
						owned_by = PREV
					}
				}
				add_mercantilism = -5
			}
			add_power_projection = {
				type = mission_rewards_power_projection
				amount = 15
			}
			688 = { #Grixekyr
				add_permanent_province_modifier = {
					name = mulen_increased_trade
					duration = -1
				}
			}
		}
	}

	mulen_secure_the_northern_pass = {
		icon = fight_bosnian_heresies
		required_missions = { mulen_overseeing_the_bulwari }
		position = 10

		provinces_to_highlight = {
			province_id = 2922
		}

		trigger = {
			2922 = { #Chorfo
				has_fort_building_trigger = yes
				has_active_triggered_province_modifier = harpy_roost
				has_manpower_building_trigger = yes
				has_building = ramparts
			}
			treasury = 100
			manpower = 5
		}

		effect = {
			2922 = { #Chorfo
				add_province_modifier = {
					name = mulen_defensive_roost
					duration = -1
				}
			}
			country_event = {
				id = flavour_mulen.6
			}
		}
	}

	mulen_a_new_trade_route = {
		icon = mission_lit_harness_steppes
		required_missions = {
			mulen_secure_the_northern_pass
		}
		position = 11

		provinces_to_highlight = {
			is_capital = yes
			owner = {
				culture_group = triunic
			}
		}

		trigger = {
			OR = {
				any_known_country = {
					culture_group = triunic
					OR = {
						custom_trigger_tooltip = {
							tooltip = mulen_most_improve_relations_tt
							has_opinion_modifier = {
								who = ROOT
								modifier = improved_relation
								value = 90
							}
						}
						alliance_with = ROOT
					}
				}
				AND = {
					has_country_flag = fp_expedition_returned
					all_known_country = {
						NOT = { culture_group = triunic }
					}
				}
			}
		}

		effect = {
			irdu_ageeneas_area = {
				limit = {
					NOT = { is_core = ROOT }
				}
				add_permanent_claim = ROOT
			}
			shaenerlin_area = {
				limit = {
					NOT = { is_core = ROOT }
				}
				add_permanent_claim = ROOT
			}
			itorlan_area = {
				limit = {
					NOT = { is_core = ROOT }
				}
				add_permanent_claim = ROOT
			}
			aporlaen_area = {
				limit = {
					NOT = { is_core = ROOT }
				}
				add_permanent_claim = ROOT
			}
			godairzumh_area = {
				limit = {
					NOT = { is_core = ROOT }
				}
				add_permanent_claim = ROOT
			}
			jaratish_area = {
				limit = {
					NOT = { is_core = ROOT }
				}
				add_permanent_claim = ROOT
			}
			add_country_modifier = {
				name = mulen_plains_unforbidden
				duration = 18250
			}
			add_country_modifier = {
				name = mulen_fight_centaurs
				duration = 3650
			}
		}
	}

	mulen_secure_a_route = {
		icon = mission_nomad
		required_missions = { mulen_a_new_trade_route mulen_a_deal_with_the_matriarchs }
		position = 12

		provinces_to_highlight = {
			OR = {
				AND = {
					OR = {
						area = irdu_ageeneas_area
						area = shaenerlin_area
						area = itorlan_area
						area = aporlaen_area
						area = godairzumh_area
						area = jaratish_area
					}
					NOT = { country_or_subject_holds = ROOT }
					NOT = {
						ROOT = {
							num_of_owned_provinces_with = {
								OR = {
									area = irdu_ageeneas_area
									area = shaenerlin_area
									area = itorlan_area
									area = aporlaen_area
									area = godairzumh_area
									area = jaratish_area
								}
								value = 15
							}
						}
					}
				}
				AND = {
					province_id = 5157 #Arduuslodh
					NOT = {
						has_fort_building_trigger = yes
						has_building = ramparts
					}
				}
			}
		}

		trigger = {
			num_of_owned_provinces_with = {
				OR = {
					area = irdu_ageeneas_area
					area = shaenerlin_area
					area = itorlan_area
					area = aporlaen_area
					area = godairzumh_area
					area = jaratish_area
				}
				value = 15
			}
			owns = 5149 #Faanhosegh
			owns = 5157 #Arduuslodh
			owns = 5148 #Agelorgh
			5157 = { #Arduuslodh
				has_fort_building_trigger = yes
				has_building = ramparts
			}
			OR = {
				any_known_country = {
					has_reform = united_federation
				}
				calc_true_if = {
					amount = 3
					all_known_country = {
						culture_group = triunic
						is_subject = no
					}
				}
				any_ally = {
					culture_group = triunic
				}
			}
		}

		effect = {
			5149 = { #Faanhosegh
				add_province_modifier = {
					name = mulen_trade_influx
					duration = 5475
				}
			}
			5086 = { #Ageenoirgh
				add_province_modifier = {
					name = mulen_trade_influx
					duration = 5475
				}
			}
			5157 = { #Arduuslodh
				change_culture = siadunan_harpy
				change_religion = ROOT
				add_devastation = 50
			}
			hidden_effect = {
				every_owned_province = {
					limit = {
						OR = {
							area = irdu_ageeneas_area
							area = shaenerlin_area
							area = itorlan_area
							area = aporlaen_area
							area = godairzumh_area
							area = jaratish_area
						}
					}
					add_province_modifier = {
						name = mulen_people_influx
						duration = 5475
					}
				}
			}
			custom_tooltip = mulen_secure_a_route_tt
		}
	}

	mulen_facilitate_trade = {
		icon = mission_coromandel_trade
		required_missions = {
			mulen_secure_a_route
		}
		position = 13

		provinces_to_highlight = {
			OR = {
				AND = {
					province_id = 5149 #Faanhosegh
					OR = {
						NOT = { development = 10 }
						NOT = { has_trade_building_trigger = yes }
					}
				}
				AND = {
					province_id = 5086 #Ageenoirgh
					NOT = { has_trade_building_trigger = yes }
				}
				AND = {
					province_id = 5148 #Agelorgh
					NOT = { has_trade_building_trigger = yes }
				}
				AND = {
					province_id = 5157 #Arduuslodh
					NOT = {
						is_a_hanging_city = yes
					}
				}
			}
		}

		trigger = {
			5149 = { #Faanhosegh
				development = 10
				has_trade_building_trigger = yes
			}
			5086 = { #Ageenoirgh
				has_trade_building_trigger = yes
			}
			5148 = { #Agelorgh
				has_trade_building_trigger = yes
			}
			5157 = { #Arduuslodh
				is_a_hanging_city = yes
			}
			any_known_country = {
				culture_group = triunic
				OR = {
					custom_trigger_tooltip = {
						tooltip = mulen_most_improve_relations_tt
						has_opinion_modifier = {
							who = ROOT
							modifier = improved_relation
							value = 90
						}
					}
					alliance_with = ROOT
				}
			}
			mil_power = 100
		}

		effect = {
			5149 = { #Faanhosegh
				set_center_level_2_center_of_trade = yes
			}
			5148 = { #Agelorgh
				center_of_trade = 1
			}
			5157 = { #Arduuslodh
				add_province_modifier = {
					name = mulen_defensive_roost
					duration = -1
				}
			}
			add_mil_power = -100
			custom_tooltip = mulen_fp_flip_tt
			hidden_effect = {
				random_known_country = {
					limit = {
						culture_group = triunic
						OR = {
							custom_trigger_tooltip = {
								tooltip = mulen_most_improve_relations_tt
								has_opinion_modifier = {
									who = ROOT
									modifier = improved_relation
									value = 90
								}
							}
							alliance_with = ROOT
						}
					}
					trigger_switch = {
						on_trigger = dominant_religion
						kodave_followers = {
							forbidden_lands_superregion = {
								limit = {
									culture_group = centaur
									owned_by = ROOT
								}
								change_religion = kodave_followers
							}
						}
						enuuk_followers = {
							forbidden_lands_superregion = {
								limit = {
									culture_group = centaur
									owned_by = ROOT
								}
								change_religion = enuuk_followers
							}
						}
						yukel_followers = {
							forbidden_lands_superregion = {
								limit = {
									culture_group = centaur
									owned_by = ROOT
								}
								change_religion = yukel_followers
							}
						}
						kalyin_worshippers = {
							forbidden_lands_superregion = {
								limit = {
									culture_group = centaur
									owned_by = ROOT
								}
								change_religion = kalyin_worshippers
							}
						}
						kukatodic_religion = {
							forbidden_lands_superregion = {
								limit = {
									culture_group = centaur
									owned_by = ROOT
								}
								change_religion = kukatodic_religion
							}
						}
					}
					trigger_switch = {
						on_trigger = primary_culture
						khamgunai = {
							forbidden_lands_superregion = {
								limit = {
									culture_group = centaur
									owned_by = ROOT
								}
								change_culture = khamgunai
								add_devastation = 50
							}
						}
						metsamic = {
							forbidden_lands_superregion = {
								limit = {
									culture_group = centaur
									owned_by = ROOT
								}
								change_culture = metsamic
								add_devastation = 50
							}
						}
						zabatlari = {
							forbidden_lands_superregion = {
								limit = {
									culture_group = centaur
									owned_by = ROOT
								}
								change_culture = zabatlari
								add_devastation = 50
							}
						}
						kukatodic = {
							forbidden_lands_superregion = {
								limit = {
									culture_group = centaur
									owned_by = ROOT
								}
								change_culture = kukatodic
								add_devastation = 50
							}
						}
					}
				}
			}
			random_known_country = {
				limit = {
					culture_group = triunic
					OR = {
						has_opinion_modifier = {
							who = ROOT
							modifier = improved_relation
							value = 90
						}
						alliance_with = ROOT
					}
				}
				add_trust = {
					who = ROOT
					value = 50
					mutual = yes
				}
				add_historical_friend = ROOT
				ROOT = {
					add_historical_friend = PREV
				}
			}
			large_decrease_of_centaur_tolerance_effect = yes
			medium_increase_of_human_tolerance_effect = yes
		}
	}

	mulen_propose_joint_roads = {
		icon = mission_grand_trunk_road_mug
		required_missions = {
			mulen_free_flowing_trade
			mulen_facilitate_trade
		}
		position = 14

		provinces_to_highlight = {
			is_capital = yes
			owner = {
				culture_group = triunic
				NOT = {
					has_opinion_modifier = {
						who = ROOT
						modifier = improved_relation
						value = 90
					}
				}
			}
		}

		trigger = {
			dip_power = 100
			any_known_country = {
				culture_group = triunic
				custom_trigger_tooltip = {
					tooltip = mulen_most_improve_relations_tt
					has_opinion_modifier = {
						who = ROOT
						modifier = improved_relation
						value = 90
					}
				}
			}
			treasury = 1000
			all_owned_province = {
				OR = {
					NOT = {
						province_id = 5086 #Ageenoirgh
						province_id = 5149 #Faanhosegh
						province_id = 2922 #Chorfo
						province_id = 2918 #Tarnuthen
						province_id = 2921 #Mermigan
						province_id = 2919 #Kotidurnor
						province_id = 2916 #Harnio
						province_id = 2904 #Siadunaiun
						province_id = 2915 #Hero's Vale
						province_id = 2917 #Ianvireri
						province_id = 2920 #Garanias
					}
					NOT = { has_construction = building }
				}
			}
		}

		effect = {
			add_dip_power = -100
			set_country_flag = the_triunic_road
			every_owned_province = {
				limit = {
					is_core = ROOT
					NOT = { has_construction = building }
					NOT = { has_province_modifier = federation_triunic_road }
					OR = {
						province_group = triunic_road
						province_id = 5086 #Ageenoirgh
						province_id = 5149 #Faanhosegh
						province_id = 2922 #Chorfo
						province_id = 2918 #Tarnuthen
						province_id = 2921 #Mermigan
						province_id = 2919 #Kotidurnor
						province_id = 2916 #Harnio
						province_id = 2904 #Siadunaiun
						province_id = 2915 #Hero's Vale
						province_id = 2917 #Ianvireri
						province_id = 2920 #Garanias
					}
				}
				add_building_construction = {
					building = triunic_road
					cost = 1
					speed = 1
				}
			}
			2922 = { #Chorfo
				center_of_trade = 1
			}
		}
	}
}

mulen_3 = {
	slot = 3
	generic = no
	ai = yes
	potential = {
		tag = F50
	}
	has_country_shield = yes

	mulen_reunite_the_flocks = {
		icon = mission_native_build_army_mission
		required_missions = { }
		position = 1

		provinces_to_highlight = {
			OR = {
				province_id = 2916 #Harnio
				province_id = 4376 #Istartovo
				province_id = 2906 #Siphefireri
				area = sad_siadan_area
			}
			NOT = { country_or_subject_holds = ROOT }
		}

		trigger = {
			2916 = { #Harnio
				country_or_subject_holds = ROOT
			}
			4376 = { #Istartovo
				country_or_subject_holds = ROOT
			}
			2906 = { #Siphefireri
				country_or_subject_holds = ROOT
			}
			sad_siadan_area = {
				type = all
				country_or_subject_holds = ROOT
			}
		}

		effect = {
			add_country_modifier = {
				name = mulen_shock_defence
				duration = 3650
			}
			2904 = { #Siadunaiun
				add_permanent_claim = ROOT
			}
			baganash_area = {
				limit = {
					NOT = { is_core = ROOT }
				}
				add_permanent_claim = ROOT
			}
			far_east_salahad_area = {
				limit = {
					NOT = { is_core = ROOT }
				}
				add_permanent_claim = ROOT
			}
			lerfiror_area = {
				limit = {
					NOT = { is_core = ROOT }
				}
				add_permanent_claim = ROOT
			}
			keruhar_area = {
				limit = {
					NOT = { is_core = ROOT }
				}
				add_permanent_claim = ROOT
			}
			add_casus_belli = {
				target = F47
				type = cb_vassalize_mission
				months = 240
			}
		}
	}

	mulen_ghankedheni_relations = {
		icon = mission_marathi_fiefs
		required_missions = { mulen_reunite_the_flocks }
		position = 2

		provinces_to_highlight = {
			region = rakhadesh_region
			culture = ghankedhen
		}

		trigger = {
			OR = {
				high_tolerance_human_race_trigger = yes
				medium_tolerance_human_race_trigger = yes
			}
			OR = {
				accepted_culture = ghankedhen
				any_known_country = {
					primary_culture = ghankedhen
					has_opinion = {
						who = ROOT
						value = 1
					}
				}
			}
		}

		effect = {
			custom_tooltip = mulen_ghankedhen_tt
			hidden_effect = {
				every_owned_province = {
					limit = {
						OR = {
							trade_goods = wool
							trade_goods = livestock
							trade_goods = ivory
						}
					}
					add_province_modifier = {
						name = mulen_teachings_of_husbandry
						duration = 5475 #15 years
					}
				}
			}
			small_increase_of_human_tolerance_effect = yes
		}
	}

	mulen_szal_mehran_route = {
		icon = mission_bedouins
		required_missions = { mulen_capture_the_highway }
		position = 3

		provinces_to_highlight = {
			OR = {
				area = far_east_salahad_area
				area = saranza_area
				area = keruhar_area
			}
			island = no
			NOT = { country_or_subject_holds = ROOT }
		}

		trigger = {
			far_east_salahad_area = {
				type = all
				country_or_subject_holds = ROOT
			}
			saranza_area = {
				type = all
				country_or_subject_holds = ROOT
			}
			keruhar_area = {
				type = all
				OR = {
					country_or_subject_holds = ROOT
					island = yes
				}
			}
		}

		effect = {
			far_salahad_region = {
				limit = {
					NOT = { is_core = ROOT }
				}
				add_permanent_claim = ROOT
			}
			custom_tooltip = szal_mehran_tt
			hidden_effect = {
				set_country_flag = szal_mehran_discount
			}
		}
	}

	mulen_peace_in_the_desert = {
		icon = mission_sw_against_the_desert
		required_missions = { mulen_begin_the_restoration mulen_szal_mehran_route }
		position = 4

		trigger = {
			OR = {
				medium_tolerance_elven_race_trigger = yes
				high_tolerance_elven_race_trigger = yes
			}
		}

		effect = {
			add_country_modifier = {
				name = mulen_teachings_of_tolerance
				duration = -1
			}
			small_increase_of_human_tolerance_effect = yes
			medium_increase_of_elven_tolerance_effect = yes
		}
	}

	mulen_lets_get_down_to_business = {
		icon = mission_saharan_route
		required_missions = {
			mulen_peace_in_the_desert
			mulen_ruler_of_the_far_salahad
		}
		position = 5

		provinces_to_highlight = {
			province_group = golden_highway_far_salahad
			NOT = {	has_province_modifier = golden_highway }
		}

		trigger = {
			golden_highway_far_salahad = {
				type = all
				has_province_modifier = golden_highway
			}
			2901 = { #Baganas
				has_trade_building_trigger = yes
			}
			2913 = { #Davharral
				has_trade_building_trigger = yes
			}
		}

		effect = {
			add_country_modifier = {
				name = mulen_highway_1
				duration = -1
			}
		}
	}

	mulen_to_unseat_the_suns = {
		icon = mission_dominate_home_trade_node
		required_missions = { mulen_lets_get_down_to_business }
		position = 6

		provinces_to_highlight = {
			OR = {
				AND = {
					province_id = 2927 #Simlardu
					NOT = { has_trade_building_trigger = yes }
				}
				AND = {
					province_id = 2923 #Edesukeru
					NOT = { has_trade_building_trigger = yes }
				}
				AND = {
					owned_by = ROOT
					province_group = golden_highway_far_salahad
					NOT = { has_tax_building_trigger = yes }
				}
			}
		}

		trigger = {
			2927 = { #Simlardu
				has_trade_building_trigger = yes
			}
			2923 = { #Edesukeru
				has_trade_building_trigger = yes
			}
			2901 = { #Golden highway
				trade_share = {
					country = ROOT
					share = 60
				}
			}
			num_of_owned_provinces_with = {
				value = 4
				province_group = golden_highway_far_salahad
				has_tax_building_trigger = yes
			}
		}

		effect = {
			add_country_modifier = {
				name = mulen_trade_control
				duration = 3650
			}
		}
	}

	mulen_the_merchant_matriarchs = {
		icon = reform_the_state
		required_missions = { mulen_to_unseat_the_suns }
		position = 7

		trigger = {
			trade_income_percentage = 0.33
			NOT = { has_country_modifier = monstrous_nation }
			government = monarchy
			reform_level = 4
		}

		effect = {
			country_event = { id = flavour_mulen.31 }
		}
	}

	mulen_disrupting_the_slave_trade = {
		icon = mission_trade_with_cathay
		required_missions = { mulen_the_merchant_matriarchs mulen_search_for_new_trade }
		position = 8

		provinces_to_highlight = {
			OR = {
				AND = {
					trade_company_region = trade_company_keygas
					OR = {
						province_id = 5505
						AND = {
							area_for_scope_province = { has_port = yes }
							trade_goods = slaves
						}
					}
					NOT = { country_or_subject_holds = ROOT }
				}
				AND = {
					province_id = 1347
					1347 = { #Keygas node
						NOT = {
							trade_share = {
								country = ROOT
								share = 50
							}
						}
					}
				}
			}
		}

		trigger = {
			trade_company_keygas = {
				type = all
				OR = {
					AND = {
						trade_goods = slaves
						country_or_subject_holds = ROOT
					}
					area_for_scope_province = { type = all NOT = { has_port = yes } }
					NOT = { trade_goods = slaves }
				}
			}
			OR = {
				custom_trigger_tooltip = {
					tooltip = mulen_investment_tt
					any_owned_province = {
						is_owned_by_trade_company = yes
						trade_company_region = trade_company_keygas
						OR = {
							num_investments_in_trade_company_region = { 
								investment = brokers_office
								value = 3
							}
							num_investments_in_trade_company_region = { 
								investment = brokers_exchange
								value = 3
							}
							AND = {
								num_investments_in_trade_company_region = { 
									investment = brokers_office
									value = 2
								}
								num_investments_in_trade_company_region = { 
									investment = brokers_exchange
									value = 1
								}
							}
							AND = {
								num_investments_in_trade_company_region = { 
									investment = brokers_office
									value = 1
								}
								num_investments_in_trade_company_region = { 
									investment = brokers_exchange
									value = 2
								}
							}
						}
					}
				}
				calc_true_if = {
					amount = 5
					all_owned_province = {
						trade_company_region = trade_company_keygas
						NOT = { trade_goods = slaves }
						has_production_building_trigger = yes
					}
				}
			}
			5505 = { country_or_subject_holds = ROOT }
			1347 = { #Dakmender node
				trade_share = {
					country = ROOT
					share = 50
				}
			}
		}

		effect = {
			country_event = { id = flavour_mulen.36 }
			hidden_effect = {
				trade_company_keygas = {
					limit = {
						trade_goods = slaves
						country_or_subject_holds = ROOT
					}
					change_trade_goods = unknown
				}
			}
			custom_tooltip = mulen_dakmender_slaves_tt
			5505 = { change_trade_goods = gems }
			1347 = {
				add_trade_modifier = {
					who = ROOT
					duration = 18250
					power = 25
					key = mulen_disrupted_slavery
				}
			}
			bedaphire_area = {
				limit = {
					NOT = { is_core = ROOT }
				}
				add_permanent_claim = ROOT
			}
			irkan_eparta_area = {
				limit = {
					NOT = { is_core = ROOT }
				}
				add_permanent_claim = ROOT
			}
			add_casus_belli = {
				target = L55
				type = cb_vassalize_mission
				months = 360
			}
		}
	}

	mulen_overseeing_the_bulwari = {
		icon = mission_into_persia_2
		required_missions = {
			mulen_successful_venture
			mulen_disrupting_the_slave_trade
		}
		position = 9

		provinces_to_highlight = {
			province_id = 688 #Grixekyr
			OR = {
				NOT = { has_active_triggered_province_modifier = harpy_roost }
				NOT = {
					OR = {
						has_province_modifier = restored_ekluzagnu_fortress
						has_province_modifier = restored_ekluzagnu_palace
					}
				}
			}
		}

		trigger = {
			688 = { #Grixekyr
				OR = {
					has_province_modifier = restored_ekluzagnu_fortress
					has_province_modifier = restored_ekluzagnu_palace
				}
				has_active_triggered_province_modifier = harpy_roost
				owned_by = ROOT
			}
			estate_influence = {
				estate = estate_burghers
				influence = 50
			}
		}

		effect = {
			688 = { #Grixekyr
				remove_province_modifier = mulen_increased_trade
				add_province_modifier = {
					name = mulen_matriarch_hq
					duration = -1
				}
				hidden_effect = {
					if = {
						limit = {
							has_province_modifier = restored_ekluzagnu_fortress
						}
						remove_province_modifier = restored_ekluzagnu_fortress
						add_province_modifier = {
							name = restored_ekluzagnu_palace
							duration = -1
						}
					}
				}
			}
		}
	}

	mulen_a_deal_with_the_matriarchs = {
		icon = mission_princess_writing
		required_missions = {
			mulen_overseeing_the_bulwari
			mulen_linking_the_coffee_coasts
		}
		position = 11

		trigger = {
			estate_loyalty = {
				estate = estate_burghers
				loyalty = 60
			}
			estate_influence = {
				estate = estate_burghers
				influence = 60
			}
			if = {
				limit = { has_dlc = "Res Publica" }
				NOT = { statists_vs_orangists = 0.5 }
			}
		}

		effect = {
			unlock_estate_privilege = {
				estate_privilege = estate_burghers_matriarch_autonomy
			}
		}
	}

	mulen_the_southern_wing = {
		icon = overseas_empire
		required_missions = { mulen_a_deal_with_the_matriarchs mulen_four_corners_of_the_siadan_valley }
		position = 13

		trigger = {
			num_of_provinces_owned_or_owned_by_non_sovereign_subjects_with = {
				value = 2
				culture = naleni_harpy
				is_a_hanging_city = yes
			}
			1343 = { #Coffee coast node
				is_strongest_trade_power = ROOT
			}
			1366 = { #Arawkelin node
				has_merchant = ROOT
			}
		}

		effect = {
			add_country_modifier = {
				name = mulen_overseas_governance
				duration = -1
			}
			if = {
				limit = {
					L55 = {
						exists = yes
						is_subject_of = ROOT
						NOT = { num_of_cities = 30 }
					}
				}
				hidden_effect = {
					set_variable = { which = totalVassalDev value = 0 }
					every_subject_country = {
						limit = {
							tag = L55
							NOT = { num_of_cities = 30 }
						}
						ROOT = {
							export_to_variable = { which = tempVassalDev value = total_development who = PREV }
							change_variable = { which = totalVassalDev which = tempVassalDev }
							inherit = PREV
						}
					}
					while = { limit = { check_variable = { which = totalVassalDev value = 1 } }
						add_dip_power = -4
						change_variable = { which = totalVassalDev value = -1 }
					}
				}
				custom_tooltip = integrating_naleni_cost_4_dip_tt
			}
		}
	}

	mulen_creating_a_constitution = { #make it constitution of $year ?
		icon = reform_the_nomocanon
		required_missions = { mulen_facilitate_trade mulen_the_southern_wing mulen_gate_to_the_harpies }
		position = 14

		trigger = {
			estate_loyalty = {
				estate = estate_burghers
				loyalty = 60
			}
			estate_influence = {
				estate = estate_burghers
				influence = 50
			}
			if = {
				limit = { has_dlc = "Res Publica" }
				NOT = { statists_vs_orangists = 0.25 }
				statists_vs_orangists = -0.25
			}
			legitimacy = 95
			stability = 3
			OR = {
				reform_level = 9
				development_in_provinces = {
					value = 250
					has_province_modifier = harpy_roost
				}
			}
		}

		effect = {
			country_event = { id = flavour_mulen.30 }
		}
	}

	mulen_land_of_the_skies = {
		icon = mission_sunset
		required_missions = {
			mulen_propose_joint_roads
			mulen_creating_a_constitution
			mulen_heating_the_baths
		}
		position = 15

		provinces_to_highlight = {
			owned_by = ROOT
			has_province_modifier = harpy_roost
			NOT = { is_a_hanging_city = yes }
		}

		trigger = {
			num_of_owned_provinces_with = {
				value = 12
				is_a_hanging_city = yes
			}
		}

		effect = {
			country_event = { id = flavour_mulen.32 }
		}
	}
}

mulen_4 = {
	slot = 4
	generic = no
	ai = yes
	potential = {
		tag = F50
	}
	has_country_shield = yes

	mulen_charm_the_dwarves = {
		icon = mission_dwarf
		required_missions = { mulen_reunite_the_flocks }
		position = 2

		provinces_to_highlight = {
			OR = {
				province_id = 2915 #Hero's Vale
				province_id = 2914 #Verkal Gulan
			}
			NOT = { country_or_subject_holds = ROOT }
		}

		trigger = {
			F47 = { #Verkal Gulan
				is_subject_of = ROOT
			}
			2915 = { #Hero's Vale
				country_or_subject_holds = ROOT
			}
		}

		effect = {
			F47 = { #Verkal Gulan
				add_liberty_desire = -50
			}
			2915 = { #Hero's Vale
				cede_province = ROOT
				remove_core = F47
				add_permanent_claim = ROOT
			}
			2921 = { #Mermigan
				add_dwarven_minority_size_effect = yes
			}
			2922 = { #Chorfo
				add_dwarven_minority_size_effect = yes
			}
			small_increase_of_dwarven_tolerance_effect = yes
		}
	}

	mulen_restart_the_mines = {
		icon = mission_zambezi_gold
		required_missions = { mulen_charm_the_dwarves }
		position = 3

		provinces_to_highlight = {
			province_id = 2914 #Verkal Gulan
			OR = {
				NOT = { base_production = 10 }
				devastation = 0.01
			}
		}

		trigger = {
			2914 = { #Verkal Gulan
				base_production = 10
				NOT = { devastation = 0.01 }
			}
			F47 = { #Verkal Gulan
				is_subject_of = ROOT
			}
		}

		effect = {
			add_country_modifier = {
				name = mulen_gold_influx
				duration = 3650
			}
			add_country_modifier = {
				name = mulen_vassal_payment
				duration = -1
			}
			F47 = { #Verkal Gulan
				add_country_modifier = {
					name = mulen_vassal_fee
					duration = -1
				}
			}
			2915 = { #Hero's Vale
				add_base_tax = -1
				add_base_production = -1
				add_base_manpower = -1
				change_culture = siadunan_harpy
				change_religion = ROOT
			}
			2914 = { #Verkal Gulan
				add_base_tax = 1
				add_base_production = 1
				add_base_manpower = 1
			}
			small_increase_of_dwarven_tolerance_effect = yes
		}
	}

	mulen_ruler_of_the_far_salahad = {
		icon = mission_female_throne
		required_missions = { mulen_szal_mehran_route }
		position = 4

		provinces_to_highlight = {
			region = far_salahad_region
			NOT = { country_or_subject_holds = ROOT }
		}

		trigger = {
			far_salahad_region = {
				type = all
				country_or_subject_holds = ROOT
			}
		}

		effect = {
			add_prestige = 20
			add_country_modifier = {
				name = mulen_reduced_autonomy
				duration = 5475
			}
		}
	}

	mulen_liberate_the_maqeti = {
		icon = mission_mal_subjugate_zaf
		required_missions = { mulen_ruler_of_the_far_salahad }
		position = 5

		provinces_to_highlight = {
			province_id = 5667 #Xhogrix
			NOT = { has_fort_building_trigger = yes }
			NOT = {	has_manpower_building_trigger = yes }
		}

		trigger = {
			5667 = { #Xhogrix
				has_fort_building_trigger = yes
				has_manpower_building_trigger = yes
			}
			mil_power = 100
			OR = {
				medium_tolerance_human_race_trigger = yes
				high_tolerance_human_race_trigger = yes
			}
		}

		effect = {
			add_mil_power = -100
			custom_tooltip = mulen_maqeti_tt
			hidden_effect = {
				every_owned_province = {
					limit = {
						culture_group = gnollish
						OR = {
							area = dasmatus_area
							area = zallirkor_area
						}
						NOT = { province_id = 5667 }
					}
					if = {
						limit = {
							trade_goods = slaves
						}
						change_trade_goods = unknown
					}
					change_culture = maqeti
					if = {
						limit = {
							NOT = { religion = ROOT }
						}
						change_religion = old_bulwari_sun_cult
					}
					add_devastation = 50
				}
				every_subject_country = {
					every_owned_province = {
						limit = {
							culture_group = gnollish
							OR = {
								area = dasmatus_area
								area = zallirkor_area
							}
							NOT = { province_id = 5667 }
						}
						if = {
							limit = {
								trade_goods = slaves
							}
							change_trade_goods = unknown
						}
						change_culture = maqeti
						if = {
							limit = {
								NOT = { religion = ROOT }
							}
							change_religion = old_bulwari_sun_cult
						}
						add_devastation = 50
					}
				}
			}
			5667 = { #Xhogrix
				if = {
					limit = {
						trade_goods = slaves
					}
					change_trade_goods = unknown
				}
				change_culture = siadunan_harpy
				change_religion = ROOT
				add_devastation = 50
			}
			566 = { #Kograrzo
				if = {
					limit = { culture_group = gnollish }
					if = {
						limit = {
							trade_goods = slaves
						}
						change_trade_goods = unknown
					}
					change_culture = siadunan_harpy
					change_religion = ROOT
					add_devastation = 50
				}
			}
			small_decrease_of_gnollish_tolerance_effect = yes
			medium_increase_of_human_tolerance_effect = yes
			custom_tooltip = mulen_accept_maqeti_culture_tt
			hidden_effect = { 
				add_country_modifier = { 
					name = mulen_maqeti_culture_modifier
					duration = -1 
					hidden = yes 
				}
				add_accepted_culture = maqeti
			}
			on_culture_promoted_estate_privileges_effect = yes
			hidden_effect = { country_event = { id = race_setup_events.6 } } #on promote culture
		}
	}

	mulen_mending_the_coffee_coast = {
		icon = mission_shipyards_of_gujarat
		required_missions = { mulen_liberate_the_maqeti }
		position = 6

		provinces_to_highlight = {
			OR = {
				AND = {
					region = far_salahad_region
					trade_goods = coffee
					OR = {
						AND = {
							NOT = { has_production_building_trigger = yes }
							ROOT = {
								NOT = {
									num_of_provinces_owned_or_owned_by_non_sovereign_subjects_with = {
										region = far_salahad_region
										trade_goods = coffee
										has_production_building_trigger = yes
										value = 2
									}
								}
							}
						}
						NOT = { base_production = 5 }
					}
				}
				AND = {
					province_id = 5434 #Akazferr
					NOT = { has_trade_building_trigger = yes }
				}
				AND = {
					OR = {
						area = dasmatus_area
						area = zallirkor_area
					}
					devastation = 0.01
					NOT = {
						num_of_units_in_province = {
							amount = 5
							who = ROOT
						}
					}
				}
			}
		}

		trigger = {
			num_of_provinces_owned_or_owned_by_non_sovereign_subjects_with = {
				region = far_salahad_region
				trade_goods = coffee
				has_production_building_trigger = yes
				value = 2
			}
			far_salahad_region = {
				type = all
				OR = {
					NOT = { trade_goods = coffee }
					base_production = 5
				}
			}
			5434 = {
				has_trade_building_trigger = yes
			}
			dasmatus_area = {
				type = all
				OR = {
					NOT = { devastation = 0.01 }
					num_of_units_in_province = {
						amount = 5
						who = ROOT
					}
				}
			}
			zallirkor_area = {
				type = all
				OR = {
					NOT = { devastation = 0.01 }
					num_of_units_in_province = {
						amount = 5
						who = ROOT
					}
				}
			}
		}

		effect = {
			hidden_effect = {
				every_owned_province = {
					limit = {
						trade_goods = coffee
						region = far_salahad_region
					}
					add_permanent_province_modifier = {
						name = mulen_productive_farmers
						duration = -1
					}
				}
				every_subject_country = {
					every_owned_province = {
						limit = {
							trade_goods = coffee
							region = far_salahad_region
						}
						add_permanent_province_modifier = {
							name = mulen_productive_farmers
							duration = -1
						}
					}
				}
			}
			custom_tooltip = mulen_coffee_tt
			tooltip = {
				add_permanent_province_modifier = {
					name = mulen_productive_farmers
					duration = -1
				}
			}
			5434 = { #Akazferr
				add_permanent_province_modifier = {
					name = mulen_increased_trade
					duration = -1
				}
			}
			dasmatus_area = {
				add_devastation = -10
			}
			zallirkor_area = {
				add_devastation = -10
			}
			medium_increase_of_gnollish_tolerance_effect = yes
		}
	}

	mulen_search_for_new_trade = {
		icon = mission_establish_high_seas_navy
		required_missions = {
			mulen_to_unseat_the_suns
			mulen_mending_the_coffee_coast
			mulen_protect_the_heros_gate
		}
		position = 7

		provinces_to_highlight = {
			OR = {
				AND = {
					province_id = 1348
					NOT = {
						1348 = { #Davharral node
							trade_share = {
								country = ROOT
								share = 50
							}
						}
					}
				}
				AND = {
					province_id = 1347
					NOT = {
						1347 = { #Dakmender node
							trade_share = {
								country = ROOT
								share = 10
							}
						}
					}
				}
			}
		}

		trigger = {
			navy_tradition = 20
			1348 = { #Davharral node
				trade_share = {
					country = ROOT
					share = 50
				}
			}
			1347 = { #Dakmender node
				trade_share = {
					country = ROOT
					share = 10
				}
			}
			has_institution = new_world_i
		}

		effect = {
			country_event = {
				id = flavour_mulen.34
			}
		}
	}

	mulen_material_gains = {
		icon = mission_tear_down_spanish_strongholds
		required_missions = { mulen_search_for_new_trade }
		position = 8

		provinces_to_highlight = {
			OR = {
				AND = {
					province_id = 5442
					NOT = { country_or_subject_holds = ROOT }
					NOT = {
						owner = {
							NOT = { religion = xhazobkult }
							culture_group = gnollish
							alliance_with = ROOT
						}
					}
				}
				AND = {
					province_id = 5434
					OR = {
						NOT = { has_trade_building_trigger = yes }
						NOT = { has_dock_building_trigger = yes }
					}
				}
			}
		}

		trigger = {
			OR = {
				5442 = { country_or_subject_holds = ROOT }
				5442 = {
					owner = {
						NOT = { religion = xhazobkult }
						culture_group = gnollish
						alliance_with = ROOT
					}
				}
			}
			manpower = 10
			treasury = 250
			5434 = {
				has_trade_building_trigger = yes
				has_dock_building_trigger = yes
			}
		}

		effect = {
			add_manpower = -10
			add_treasury = -250
			large_increase_of_gnollish_tolerance_effect = yes
			if = {
				limit = {
					5442 = {
						country_or_subject_holds = ROOT
						owner = {
							NOT = { culture_group = gnollish }
						}
					}
				}
				5442 = {
					cede_province = F72
				}
				release = F72
				every_subject_country = {
					release = F72
				}
				create_subject = {
					subject_type = vassal
					subject = F72
				}
			}
			5442 = {
				owner = {
					largest_increase_of_harpy_tolerance_effect = yes
					largest_increase_of_goblin_tolerance_effect = yes
					add_historical_friend = F50
					add_trust = {
						who = F50
						value = 15
						mutual = yes
					}
					country_event = { id = flavour_mulen.37 }
				}
				add_goblin_minority_size_effect = yes
				add_harpy_minority_size_effect = yes
				if = {
					limit = {
						has_dlc = "Leviathan"
					}
					add_great_project_tier = {
						type = esuvrem
						tier = 1
					}
				}
				else = {
					add_province_modifier = {
						name = mulen_excavation_site
						duration = -1
					}
				}
			}
			hidden_effect = {
				5460 = { #Haraagtseda node
					add_trade_modifier = {
						who = ROOT
						duration = -1
						power = 50
						key = mulen_trade_from_kvangraak
					}
				}
			}
			custom_tooltip = mulen_material_gains_tt
			5434 = {
				add_permanent_province_modifier = {
					name = mulen_trade_from_kvangraak
					duration = -1
				}
			}
			5434 = {
				set_center_level_2_center_of_trade = yes
			}
		}
	}

	mulen_piracy_protection = {
		icon = mission_pirate_fleet
		required_missions = { mulen_material_gains mulen_disrupting_the_slave_trade }
		position = 9

		provinces_to_highlight = {
			OR = {
				area = bedaphire_area
				area = irkan_eparta_area
			}
			NOT = { country_or_subject_holds = ROOT }
		}

		trigger = {
			bedaphire_area = {
				type = all
				country_or_subject_holds = ROOT
			}
			irkan_eparta_area = {
				type = all
				OR = {
					country_or_subject_holds = ROOT
					is_island = yes
				}
			}
			OR = {
				custom_trigger_tooltip = {
					tooltip = mulen_piracy_dock_tt
					AND = {
						calc_true_if = {
							amount = 4
							telekenid_region = {
								type = all
								OR = {
									area = bedaphire_area
									area = irkan_eparta_area
								}
								has_dock_building_trigger = yes
							}
						}
						calc_true_if = {
							amount = 2
							telekenid_region = {
								type = all
								OR = {
									area = bedaphire_area
									area = irkan_eparta_area
								}
								has_shipyard_building_trigger = yes
							}
						}
					}
				}
				custom_trigger_tooltip = {
					tooltip = mulen_piracy_full_tt
					telekenid_region = {
						type = all
						OR = {
							AND = {
								NOT = { area = bedaphire_area }
								NOT = { area = irkan_eparta_area }
							}
							is_island = yes
							NOT = { has_port = yes }
							NOT = { num_free_building_slots = 1 }
						}
					}
				}
				AND = {
					custom_trigger_tooltip = {
						tooltip = mulen_piracy_investment_tt
						any_owned_province = {
							is_owned_by_trade_company = yes
							area = bedaphire_area
							OR = {
								has_trade_company_investment_in_area  = {
									investment = company_administration
									investor = ROOT
								}
								has_trade_company_investment_in_area  = {
									investment = military_administration
									investor = ROOT
								}
								has_trade_company_investment_in_area  = {
									investment = governor_general_mansion
									investor = ROOT
								}
							}
						}
						any_owned_province = {
							is_owned_by_trade_company = yes
							area = irkan_eparta_area
							OR = {
								has_trade_company_investment_in_area  = {
									investment = company_administration
									investor = ROOT
								}
								has_trade_company_investment_in_area  = {
									investment = military_administration
									investor = ROOT
								}
								has_trade_company_investment_in_area  = {
									investment = governor_general_mansion
									investor = ROOT
								}
							}
						}
					}
				}
			}
			5523 = { #Ofireri
				has_production_building_trigger = yes
				NOT = { has_construction = building }

			}
			6656 = { #Masphire
				has_production_building_trigger = yes
				NOT = { has_construction = building }
			}
			NOT = {
				any_country = {
					OR = {
						1348 = { #Davharral node
							privateer_power = {
								share = 3
								country = PREV
							}
						}
						1347 = { #Dakmender node
							privateer_power = {
								share = 3
								country = PREV
							}
						}
						1343 = { #Coffee Coast node
							privateer_power = {
								share = 3
								country = PREV
							}
						}
					}
				}
			}
		}

		effect = {
			6656 = { #Masphire
				change_trade_goods = naval_supplies
				add_building_construction = {
					building = impressment_offices
					speed = 1
					cost = 0.0
				}
			}
			5523 = { #Ofireri
				add_building_construction = {
					building = impressment_offices
					speed = 1
					cost = 0.0
				}
			}
			custom_tooltip = ---
			add_country_modifier = {
				name = mulen_aerial_shipwrights
				duration = -1
			}
			if = {
				limit = {
					telekenid_region = {
						type = all
						OR = {
							AND = {
								NOT = { area = bedaphire_area }
								NOT = { area = irkan_eparta_area }
							}
							is_island = yes
							NOT = { has_port = yes }
							NOT = { num_free_building_slots = 1 }
						}
					}
					NOT = {
						AND = {
							calc_true_if = {
								amount = 4
								telekenid_region = {
									type = all
									OR = {
										area = bedaphire_area
										area = irkan_eparta_area
									}
									has_dock_building_trigger = yes
								}
							}
							calc_true_if = {
								amount = 2
								telekenid_region = {
									type = all
									OR = {
										area = bedaphire_area
										area = irkan_eparta_area
									}
									has_shipyard_building_trigger = yes
								}
							}
						}
					}
					NOT = {
						AND = {
							any_owned_province = {
								is_owned_by_trade_company = yes
								area = bedaphire_area
								OR = {
									has_trade_company_investment_in_area  = {
										investment = company_administration
										investor = ROOT
									}
									has_trade_company_investment_in_area  = {
										investment = military_administration
										investor = ROOT
									}
									has_trade_company_investment_in_area  = {
										investment = governor_general_mansion
										investor = ROOT
									}
								}
							}
							any_owned_province = {
								is_owned_by_trade_company = yes
								area = irkan_eparta_area
								OR = {
									has_trade_company_investment_in_area  = {
										investment = company_administration
										investor = ROOT
									}
									has_trade_company_investment_in_area  = {
										investment = military_administration
										investor = ROOT
									}
									has_trade_company_investment_in_area  = {
										investment = governor_general_mansion
										investor = ROOT
									}
								}
							}
						}
					}
				}
				telekenid_region = {
					limit = {
						OR = {
							area = bedaphire_area
							area = irkan_eparta_area
						}
						country_or_subject_holds = ROOT
						has_port = yes
						is_island = no
					}
					if = {
						limit = { has_building = temple }
						remove_building = temple
						add_building = dock
					}
					else_if = {
						limit = { has_building = workshop }
						remove_building = workshop
						add_building = dock
					}
				}
			}
		}
	}

	mulen_linking_the_coffee_coasts = {
		icon = mission_bengal_entrepot
		required_missions = { mulen_overseeing_the_bulwari mulen_piracy_protection mulen_reunite_the_sisters }
		position = 10

		trigger = {
			6659 = { #Jezarpizu
				country_or_subject_holds = ROOT
				is_a_hanging_city = yes
				has_trade_building_trigger = yes
				has_production_building_trigger = yes
				OR = {
					has_trade_company_investment_in_area  = {
						investment = company_depot
						investor = ROOT
					}
					calc_true_if = {
						amount = 3
						area_for_scope_province = {
							type = all
							development = 10
						}
					}
				}
			}
		}

		effect = {
			6659 = {
				center_of_trade = 1
			}
			custom_tooltip = "Coffee producing provinces:"
			far_salahad_region = {
				limit = {
					culture = maqeti
					trade_goods = coffee
				}
				add_base_production = 1
			}
			trade_company_yetshelok= {
				limit = {
					trade_goods = coffee
				}
				add_base_production = 1
			}
			if = {
				limit = {
					5439 = {
						NOT = { has_province_modifier = harpy_roost }
						NOT = { has_province_modifier = harpy_roost_under_construction }
					}
				}
				5439 = {
					add_province_modifier = { name = harpy_roost_under_construction duration = 1825 }
					if = { limit = { culture_is_harpy = no }
						add_harpy_minority_size_effect = yes
						custom_tooltip = province_will_convert_to_harpy_tt
					}
					hidden_effect = {
						province_event = { id = harpy_events.3 days = 365 random = 180 }
						province_event = { id = harpy_events.4 days = 823 random = 180 }
						province_event = { id = harpy_events.4 days = 1279 random = 180 }
						province_event = { id = harpy_events.11 days = 1800 }
						owner = { update_roost_count = yes }
					}
				}
			}
			if = {
				limit = {
					5439 = {
						NOT = { has_fort_building_trigger = yes }
					}
				}
				5439 = {
					add_building = fort_15th
				}
			}
		}
	}

	mulen_four_corners_of_the_siadan_valley = {
		icon = alpine_fortifications
		required_missions = {
			mulen_a_deal_with_the_matriarchs
		}
		position = 12

		provinces_to_highlight = {
			OR = {
				province_id = 2915 #Hero's Vale
				province_id = 2921 #Mermigan
				province_id = 2904 #Siadunaiun
				province_id = 2922 #Chorfo
			}
			NOT = { is_a_hanging_city = yes }
		}

		trigger = {
			2915 = { #Hero's Vale
				is_a_hanging_city = yes
			}
			2921 = { #Mermigan
				is_a_hanging_city = yes
			}
			2904 = { #Siadunaiun
				is_a_hanging_city = yes
			}
			2922 = { #Chorfo
				is_a_hanging_city = yes
			}
		}

		effect = {
			2920 = { #Garanias
				add_province_modifier = {
					name = mulen_well_supplied_valley
					duration = -1
				}
			}
			2919 = { #Kotidurnor
				add_province_modifier = {
					name = mulen_well_supplied_valley
					duration = -1
				}
			}
			2918 = { #Tarnuthen
				add_province_modifier = {
					name = mulen_well_supplied_valley
					duration = -1
				}
			}
			2917 = { #Ianvireri
				add_province_modifier = {
					name = mulen_well_supplied_valley
					duration = -1
				}
			}
			2916 = { #Harnio
				add_province_modifier = {
					name = mulen_well_supplied_valley
					duration = -1
				}
			}
			2901 = { #Baganas
				add_province_modifier = {
					name = mulen_well_supplied_valley
					duration = -1
				}
			}
		}
	}

	mulen_gate_to_the_harpies = {
		icon = mission_discussion_arch
		required_missions = { mulen_four_corners_of_the_siadan_valley }
		position = 13

		provinces_to_highlight = {
			province_id = 2901 #Baganas
			NOT = {
				development = 15
				has_trade_building_trigger = yes
				has_courthouse_building_trigger = yes
				if = {
					limit = { has_dlc = "Mandate of Heaven" }
					is_prosperous = yes
				}
				else = {
					NOT = { devastation = 0.01 }
				}
				if = {
					limit = { has_dlc = "Dharma" }
					province_has_center_of_trade_of_level = 2
				}
			}
		}

		trigger = {
			2901 = { #Baganas
				development = 15
				has_trade_building_trigger = yes
				has_courthouse_building_trigger = yes
				if = {
					limit = { has_dlc = "Mandate of Heaven" }
					custom_trigger_tooltip = {
						tooltip = mulen_harpys_gate_tt
						is_prosperous = yes
					}
				}
				else = {
					NOT = { devastation = 0.01 }
				}
				if = {
					limit = { has_dlc = "Dharma" }
					province_has_center_of_trade_of_level = 2
				}
				else = {
					owner = { treasury = 200 }
				}
			}
		}

		effect = {
			2901 = { #Baganas
				if = {
					limit = { NOT = { has_dlc = "Dharma" } }
					set_center_level_2_center_of_trade = yes
					owner = { add_treasury = -200 }
				}
				change_culture = siadunan_harpy
				change_religion = ROOT
				add_province_modifier = {
					name = mulen_harpies_gate
					duration = -1
				}
			}
		}
	}
}

mulen_5 = {
	slot = 5
	generic = no
	ai = yes
	potential = {
		tag = F50
	}
	has_country_shield = yes

	mulen_finding_our_miners = {
		icon = mission_warrior_gold
		required_missions = { }
		position = 1

		trigger = {
			any_known_country = {
				primary_culture = undergrowth_goblin
				capital_scope = {
					region = tree_of_stone_region
				}
			}
		}

		effect = {
			if = {
				limit = { NOT = { has_discovered = 4267 } }
				anduz_area = { discover_country = ROOT }
				ambermine_alley_area = { discover_country = ROOT }
				earthseed_area = { discover_country = ROOT }
			}
			H88 = { #Ambersniffer
				if = {
					limit = { exists = yes }
					capital_scope = { discover_country = ROOT }
				}
			}
			H92 = { #Poisoned Rock
				if = {
					limit = { exists = yes }
					capital_scope = { discover_country = ROOT }
				}
			}
			H93 = { #Dirtwater
				if = {
					limit = { exists = yes }
					capital_scope = { discover_country = ROOT }
				}
			}
			every_known_country = {
				limit = {
					primary_culture = undergrowth_goblin
					capital_scope = {
						region = tree_of_stone_region
					}
				}
				reverse_add_casus_belli = {
					target = ROOT
					type = cb_vassalize_mission
					months = 360
				}
			}
		}
	}

	mulen_supply_the_mining_colony = {
		icon = mission_establish_mint_towns
		required_missions = { mulen_finding_our_miners }
		position = 2

		trigger = {
			any_subject_country = {
				primary_culture = undergrowth_goblin
				capital_scope = {
					region = tree_of_stone_region
				}
			}
			treasury = 200
		}

		effect = {
			random_subject_country = {
				limit = {
					primary_culture = undergrowth_goblin
					capital_scope = {
						region = tree_of_stone_region
					}
				}
				if = {
					limit = { has_dlc = "The Cossacks" }
					add_country_modifier = {
						name = mulen_mining_subsidies
						duration = 5475
					}
					if = {
						limit = { has_country_modifier = dwarovar_claimer }
						remove_country_modifier = dwarovar_claimer
					}
				}
				else = {
					add_country_modifier = {
						name = mulen_mining_subsidies_alt
						duration = 5475
					}
				}
				hidden_effect = {
					remove_country_modifier = dont_colonize_but_migrate
					anduz_area = {
						discover_country = PREV
					}
					ambermine_alley_area = {
						discover_country = PREV
					}
					earthseed_area = {
						discover_country = PREV
					}
					dwarovrod_45_48_area = {
						discover_country = PREV
						discover_country = ROOT
					}
					kanzad_area = {
						discover_country = PREV
						discover_country = ROOT
					}
					dwarovrod_51_53_area = {
						discover_country = PREV
						discover_country = ROOT
					}
					grozumdihr_area = {
						discover_country = PREV
						discover_country = ROOT
					}
					4995 = {
						discover_country = PREV
						discover_country = ROOT
					} #ToS wasteland
					bulwar_superregion = { discover_country = PREV }
				}
				custom_tooltip = mulen_tree_of_stone_tt
				anduz_area = {
					add_permanent_claim = PREV
				}
				ambermine_alley_area = {
					add_permanent_claim = PREV
				}
				earthseed_area = {
					add_permanent_claim = PREV
				}
				dwarovrod_45_48_area = {
					add_permanent_claim = PREV
				}
				kanzad_area = {
					add_permanent_claim = PREV
				}
				dwarovrod_51_53_area = {
					add_permanent_claim = PREV
				}
				grozumdihr_area = {
					add_permanent_claim = PREV
				}
			}
			add_treasury = -200
			2921 = { #Mermigan
				add_goblin_minority_size_effect = yes
			}
			random_owned_province = {
				limit = {
					is_capital = no
					has_terrain = mountain
					NOT = { has_province_flag = applied_effect }
				}
				add_goblin_minority_size_effect = yes
				set_province_flag = applied_effect
			}
			random_owned_province = {
				limit = {
					is_capital = no
					has_terrain = mountain
					NOT = { has_province_flag = applied_effect }
				}
				add_goblin_minority_size_effect = yes
				set_province_flag = applied_effect
			}
			random_owned_province = {
				limit = {
					is_capital = no
					has_terrain = mountain
					NOT = { has_province_flag = applied_effect }
				}
				add_goblin_minority_size_effect = yes
				set_province_flag = applied_effect
			}
			every_owned_province = {
				limit = { has_province_flag = applied_effect }
				clr_province_flag = applied_effect
			}
		}
	}

	mulen_mining_conditions = {
		icon = mission_kon_conquer_lub
		required_missions = { mulen_supply_the_mining_colony }
		position = 3

		provinces_to_highlight = {
			region = tree_of_stone_region
			OR = {
				NOT = { country_or_subject_holds = ROOT }
				NOT = { development = 5 }
			}
		}

		trigger = {
			num_of_provinces_owned_or_owned_by_non_sovereign_subjects_with = {
				development = 5
				region = tree_of_stone_region
				value = 6
			}
			num_of_provinces_owned_or_owned_by_non_sovereign_subjects_with = {
				has_fort_building_trigger = yes
				region = tree_of_stone_region
				value = 2
			}
		}

		effect = {
			if = {
				limit = {
					any_subject_country = {
						OR = {
							has_country_modifier = mulen_mining_subsidies
							has_country_modifier = mulen_mining_subsidies_alt
						}
					}
				}
				random_subject_country = {
					limit = {
						OR = {
							has_country_modifier = mulen_mining_subsidies
							has_country_modifier = mulen_mining_subsidies_alt
						}
					}
					if = {
						limit = { capital_scope = { has_fort_building_trigger = yes } }
						capital_scope = { 
							add_permanent_province_modifier = {
								name = mulen_trading_center
								duration = -1
							}
						}
					}
					else = {
						random_owned_province = {
							limit = {
								has_fort_building_trigger = yes
								region = tree_of_stone_region
							}
							add_permanent_province_modifier = {
								name = mulen_trading_center
								duration = -1
							}
						}
					}
					hidden_effect = {
						tree_of_stone_region = {
							discover_country = PREV
						}
						every_known_country = {
							limit = {
								primary_culture = undergrowth_goblin
								is_subject_of = ROOT
							}
							PREV = {
								inherit = PREV
							}
						}
					}
				}
			}
			else_if = {
				limit = {
					any_subject_country = {
						primary_culture = undergrowth_goblin
						capital_scope = {
							region = tree_of_stone_region
						}
						any_owned_province = {
							has_fort_building_trigger = yes
							region = tree_of_stone_region
						}
						num_of_colonies = 2
					}
				}
				random_subject_country = {
					limit = {
						primary_culture = undergrowth_goblin
						capital_scope = {
							region = tree_of_stone_region
						}
						any_owned_province = {
							has_fort_building_trigger = yes
							region = tree_of_stone_region
						}
						num_of_colonies = 2
					}
					if = {
						limit = { capital_scope = { has_fort_building_trigger = yes } }
						capital_scope = { 
							add_permanent_province_modifier = {
								name = mulen_trading_center
								duration = -1
							}
						}
					}
					else = {
						random_owned_province = {
							limit = {
								has_fort_building_trigger = yes
								region = tree_of_stone_region
							}
							add_permanent_province_modifier = {
								name = mulen_trading_center
								duration = -1
							}
						}
					}
					hidden_effect = {
						tree_of_stone_region = {
							discover_country = PREV
						}
						every_known_country = {
							limit = {
								primary_culture = undergrowth_goblin
								is_subject_of = ROOT
							}
							PREV = {
								inherit = PREV
							}
						}
					}
				}
			}
			else = {
				random_subject_country = {
					limit = {
						primary_culture = undergrowth_goblin
						capital_scope = {
							region = tree_of_stone_region
						}
						any_owned_province = {
							has_fort_building_trigger = yes
							region = tree_of_stone_region
						}
					}
					if = {
						limit = { capital_scope = { has_fort_building_trigger = yes } }
						capital_scope = { 
							add_permanent_province_modifier = {
								name = mulen_trading_center
								duration = -1
							}
						}
					}
					else = {
						random_owned_province = {
							limit = {
								has_fort_building_trigger = yes
								region = tree_of_stone_region
							}
							add_permanent_province_modifier = {
								name = mulen_trading_center
								duration = -1
							}
						}
					}
					hidden_effect = {
						tree_of_stone_region = {
							discover_country = PREV
						}
						every_known_country = {
							limit = {
								primary_culture = undergrowth_goblin
								is_subject_of = ROOT
							}
							PREV = {
								inherit = PREV
							}
						}
					}
				}
			}
			custom_tooltip = mulen_goblin_merge_tt
			2921 = { #Mermigan
				add_province_modifier = {
					name = mulen_extra_miners
					duration = -1
				}
			}
			small_increase_of_goblin_tolerance_effect = yes
		}
	}

	mulen_combined_mining = {
		icon = mission_mechanical_mining
		required_missions = {
			mulen_restart_the_mines
			mulen_mining_conditions
		}
		position = 4

		provinces_to_highlight = {
			country_or_non_sovereign_subject_holds = ROOT
			OR = {
				trade_goods = copper
				trade_goods = salt
				trade_goods = iron
				trade_goods = gems
				trade_goods = mithril
			}
			NOT = { has_production_building_trigger = yes }
		}

		trigger = {
			OR = {
				medium_tolerance_dwarven_race_trigger = yes
				high_tolerance_dwarven_race_trigger = yes
			}
			num_of_provinces_owned_or_owned_by_non_sovereign_subjects_with = {
				value = 5
				OR = {
					trade_goods = copper
					trade_goods = salt
					trade_goods = iron
					trade_goods = gems
					trade_goods = mithril
				}
				has_production_building_trigger = yes
			}
			dip_power = 50
		}

		effect = {
			add_dip_power = -50
			add_country_modifier = {
				name = mulen_teachings_of_production
				duration = -1
			}
			unlock_estate_privilege = {
				estate_privilege = estate_burghers_mountain_expansion
			}
			medium_increase_of_dwarven_tolerance_effect = yes
			medium_increase_of_goblin_tolerance_effect = yes
		}
	}

	mulen_protect_the_heros_gate = {
		icon = mission_dha_thatchil
		required_missions = { mulen_combined_mining }
		position = 6

		provinces_to_highlight = {
			province_id = 2915 #Hero's Vale
			NOT = {
				OR = {
					has_fort_building_trigger = yes
					development = 6
				}
			}
		}

		trigger = {
			2915 = { #Hero's Vale
				has_fort_building_trigger = yes
				development = 6
			}
			custom_trigger_tooltip = {
				tooltip = demonsterizing_tt
				OR = {
					has_country_flag = removing_monstrous
					has_country_flag = no_longer_monstrous
				}
			}
		}

		effect = {
			large_increase_of_dwarven_tolerance_effect = yes
			decrease_monstrous_5 = yes
			2915 = { #Hero's Vale
				add_province_modifier = {
					name = mulen_trade_influx
					duration = 5475
				}
			}
		}
	}

	mulen_recarve_the_heros_vale = {
		icon = mission_colonial
		required_missions = { mulen_protect_the_heros_gate }
		position = 7

		trigger = {
			high_tolerance_dwarven_race_trigger = yes
			custom_trigger_tooltip = {
				tooltip = semi_monstrous_tt
				OR = {
					has_country_flag = semi_monstrous
					has_country_flag = no_longer_monstrous
				}
			}
			adm_power = 50
			dip_power = 50
			owns = 2915 #Hero's Vale
		}

		effect = {
			add_adm_power = -50
			add_dip_power = -50
			2915 = { #Hero's Vale
				add_province_modifier = {
					name = mulen_cooperation_monument
					duration = -1
				}
			}
			set_country_flag = can_build_foundations
			custom_tooltip = mulen_foundations_tt
		}
	}

	mulen_refound_mermigan = {
		icon = mission_metropolis_of_the_deccan
		required_missions = { mulen_recarve_the_heros_vale }
		position = 8

		provinces_to_highlight = {
			province_id = 2921 #Mermigan
			NOT = {
				OR = {
					development = 30
					has_courthouse_building_trigger = yes
					if = {
						limit = { has_dlc = "Leviathan" }
						num_of_times_expanded_infrastructure = 1
						has_building = state_house
					}
					else = {
						has_manufactory_trigger = yes
					}
					has_tax_building_trigger = yes
					has_production_building_trigger = yes
					has_trade_building_trigger = yes
				}
			}
		}

		trigger = {
			2921 = { #Mermigan
				has_province_modifier = mulen_hanging_city_foundation
				development = 30
				has_courthouse_building_trigger = yes
				has_building = state_house
				has_tax_building_trigger = yes
				has_production_building_trigger = yes
				has_trade_building_trigger = yes
			}
		}

		effect = {
			add_country_modifier = {
				name = mulen_reduced_autonomy
				duration = 5475
			}
			2921 = { #Mermigan
				remove_province_modifier = mulen_hanging_city_foundation
				add_permanent_province_modifier = {
					name = mulen_hanging_city
					duration = -1
				}
			}
			set_country_flag = can_build_cheap_roosts
			custom_tooltip = mulen_cheap_roost_tt
		}
	}

	mulen_reunite_the_sisters = {
		icon = mission_city_prosperity
		required_missions = { mulen_refound_mermigan }
		position = 9

		provinces_to_highlight = {
			OR = {
				AND = {
					province_id = 2904 #Siadunaiun
					NOT = {
						development = 25
						has_province_modifier = mulen_hanging_city_foundation
					}
				}
				AND = {
					province_id = 2908 #Larfira
					NOT = {
						development = 25
						has_province_modifier = mulen_hanging_city_foundation
					}
				}
			}
		}

		trigger = {
			2904 = { #Siadunaiun
				has_province_modifier = mulen_hanging_city_foundation
				development = 25
			}
			2908 = { #Larfira
				has_province_modifier = mulen_hanging_city_foundation
				development = 25
			}
		}

		effect = {
			2904 = { #Siadunaiun
				remove_province_modifier = mulen_hanging_city_foundation
				add_permanent_province_modifier = {
					name = mulen_hanging_city
					duration = -1
				}
			}
			2908 = { #Larfira
				remove_province_modifier = mulen_hanging_city_foundation
				add_permanent_province_modifier = {
					name = mulen_hanging_city
					duration = -1
				}
			}
			set_country_flag = mulen_hanging_cities
			custom_tooltip = mulen_hanging_cities_tt
			hidden_effect = {
				every_owned_province = {
					limit = {
						has_province_modifier = mulen_hanging_city_foundation
						development = 25
					}
					province_event = { id = flavour_mulen.1 }
				}
			}
		}
	}

	mulen_sibling_rivalry = {
		icon = unify_piedmont
		required_missions = { mulen_reunite_the_sisters }
		position = 10

		provinces_to_highlight = {
			OR = {
				AND = {
					province_id = 2921 #Mermigan
					NOT = {
						development = 35
						is_a_hanging_city = yes
					}
				}
				AND = {
					province_id = 2904 #Siadunaiun
					NOT = {
						development = 35
						is_a_hanging_city = yes
						has_courthouse_building_trigger = yes
						has_building = state_house
						has_tax_building_trigger = yes
						has_production_building_trigger = yes
						has_trade_building_trigger = yes
					}
				}
			}
		}

		trigger = {
			2921 = { #Mermigan
				has_province_modifier = mulen_hanging_city
				development = 35
			}
			2904 = { #Siadunaiun
				has_province_modifier = mulen_hanging_city
				development = 35
				has_courthouse_building_trigger = yes
				has_building = state_house
				has_tax_building_trigger = yes
				has_production_building_trigger = yes
				has_trade_building_trigger = yes
			}
		}

		effect = {
			2921 = { #Mermigan
				remove_province_modifier = mulen_hanging_city
				add_permanent_province_modifier = {
					name = mulen_hanging_city_libraries
					duration = -1
				}
			}
			2904 = { #Siadunaiun
				remove_province_modifier = mulen_hanging_city
				add_permanent_province_modifier = {
					name = mulen_hanging_city_baths
					duration = -1
				}
			}
			set_country_flag = mulen_hanging_cities_specializations
			custom_tooltip = mulen_specialization_tt
			hidden_effect = {
				every_owned_province = {
					limit = {
						has_province_modifier = mulen_hanging_city
						development = 35
					}
					province_event = { id = flavour_mulen.2 }
				}
			}
		}
	}

	mulen_jewelry_industry = {
		icon = mission_rb_inland_india
		required_missions = { mulen_linking_the_coffee_coasts mulen_sibling_rivalry }
		position = 11

		provinces_to_highlight = {
			OR = {
				province_id = 2921 #Mermigan
				province_id = 2904 #Siadunaiun
				province_id = 2901 #Baganas
				province_id = 2913 #Davharral
				province_id = 5505 #Dakmender
				province_id = 688  #Ekluzagnu
			}
			NOT = { has_manufactory_trigger = yes }
		}

		trigger = {
			2921 = {
				has_manufactory_trigger = yes
			}
			2904 = {
				has_manufactory_trigger = yes
			}
			2901 = {
				has_manufactory_trigger = yes
			}
			2913 = {
				has_manufactory_trigger = yes
			}
			5505 = {
				has_manufactory_trigger = yes
			}
			688 = {
				has_manufactory_trigger = yes
			}
			OR = {
				trade_goods_produced_amount = {
					trade_goods = gold
					amount = 6
				}
				any_subject_country = {
					trade_goods_produced_amount = {
						trade_goods = gold
						amount = 6
					}
				}
			}
		}

		effect = {
			hidden_effect = {
				every_owned_province = {
					limit = {
						OR = {
							trade_goods = gems
							trade_goods = ivory
							trade_goods = copper
							trade_goods = wool
						}
					}
					add_province_modifier = {
						name = mulen_jewelry_line
						duration = -1
					}
				}
			}
			custom_tooltip = mulen_jewelry_tt
			tooltip = {
				add_province_modifier = {
					name = mulen_jewelry_line
					duration = -1
				}
			}
			if = {
				limit = {
					2914 = {
						culture_group = dwarven
						NOT = {
							OR = {
								has_province_modifier = verkalgulan_the_citadel_delve_1
								has_province_modifier = verkalgulan_the_citadel_delve_2
								has_province_modifier = verkalgulan_the_citadel_delve_3
							}
						}
						country_or_subject_holds = ROOT
					}
				}
				2914 = {
					add_base_production = -10
					add_permanent_province_modifier = {
						name = verkalgulan_the_citadel_delve_1
						duration = -1
					}
				}
			}
			if = {
				limit = {
					exists = F47
					F47 = {
						is_subject_of = ROOT
					}
				}
				add_country_modifier = {
					name = mulen_development_investment
					duration = 3650
				}
			}
		}
	}

	mulen_mulen_rouge = {
		icon = mission_harpy_diplomats
		required_missions = { mulen_a_deal_with_the_matriarchs mulen_jewelry_industry }
		position = 12

		provinces_to_highlight = {
			province_id = 2908 #Larfira
			NOT = { has_province_modifier = mulen_hanging_city_gardens }
		}

		trigger = {
			2908 = { #Larfira
				has_province_modifier = mulen_hanging_city_gardens
			}
			custom_trigger_tooltip = {
				tooltip = mulen_rouge_tt
				calc_true_if = {
					amount = 5
					OR = {
						medium_tolerance_centaur_race_trigger = yes
						high_tolerance_centaur_race_trigger = yes
					}
					OR = {
						medium_tolerance_dwarven_race_trigger = yes
						high_tolerance_dwarven_race_trigger = yes
					}
					OR = {
						medium_tolerance_elven_race_trigger = yes
						high_tolerance_elven_race_trigger = yes
					}
					OR = {
						medium_tolerance_gnollish_race_trigger = yes
						high_tolerance_gnollish_race_trigger = yes
					}
					OR = {
						medium_tolerance_gnomish_race_trigger = yes
						high_tolerance_gnomish_race_trigger = yes
					}
					OR = {
						medium_tolerance_goblin_race_trigger = yes
						high_tolerance_goblin_race_trigger = yes
					}
					OR = {
						medium_tolerance_half_elven_race_trigger = yes
						high_tolerance_half_elven_race_trigger = yes
					}
					OR = {
						medium_tolerance_halfling_race_trigger = yes
						high_tolerance_halfling_race_trigger = yes
					}
					OR = {
						medium_tolerance_half_orcish_race_trigger = yes
						high_tolerance_half_orcish_race_trigger = yes
					}
					OR = {
						medium_tolerance_harimari_race_trigger = yes
						high_tolerance_harimari_race_trigger = yes
					}
					OR = {
						medium_tolerance_hobgoblin_race_trigger = yes
						high_tolerance_hobgoblin_race_trigger = yes
					}
					OR = {
						medium_tolerance_human_race_trigger = yes
						high_tolerance_human_race_trigger = yes
					}
					OR = {
						medium_tolerance_kobold_race_trigger = yes
						high_tolerance_kobold_race_trigger = yes
					}
					OR = {
						medium_tolerance_ogre_race_trigger = yes
						high_tolerance_ogre_race_trigger = yes
					}
					OR = {
						medium_tolerance_orcish_race_trigger = yes
						high_tolerance_orcish_race_trigger = yes
					}
					OR = {
						medium_tolerance_ruinborn_race_trigger = yes
						high_tolerance_ruinborn_race_trigger = yes
					}
					OR = {
						medium_tolerance_troll_race_trigger = yes
						high_tolerance_troll_race_trigger = yes
					}
				}
			}

		}

		effect = {
			2908 = { #Larfira
				add_province_modifier = {
					name = mulen_mulen_rouge
					duration = -1
				}
			}
			536 = { #Aqatbar
				add_claim = ROOT
			}
			4411 = { #Dhenijansar
				add_claim = ROOT
			}
			4417 = { #Ghundagar
				add_claim = ROOT
			}
		}
	}

	mulen_filling_the_library = {
		icon = bibliotheca_corviana
		required_missions = { mulen_mulen_rouge }
		position = 13

		provinces_to_highlight = {
			OR = {
				AND = {
					province_id = 536 #Aqatbar
					ROOT = { NOT = { has_country_flag = books_from_aqatbar } }
				}
				AND = {
					province_id = 4411 #Dhenijansar
					ROOT = { NOT = { has_country_flag = books_from_dhenijansar } }
				}
				AND = {
					province_id = 4417 #Ghundagar
					ROOT = { NOT = { has_country_flag = books_from_ghundagar } }
				}
				AND = {
					province_id = 2921 #Mermigan
					NOT = { has_building = university }
				}
			}
		}

		trigger = {
			if = {
				limit = { 2921 = { has_building = university } } # Mermigan
				treasury = 400
			}
			else = {
				treasury = 500
			}
			custom_trigger_tooltip = {
				tooltip = get_books_aqatbar_tt
				has_country_flag = books_from_aqatbar
			}
			custom_trigger_tooltip = {
				tooltip = get_books_dhenijansar_tt
				has_country_flag = books_from_dhenijansar
			}
			custom_trigger_tooltip = {
				tooltip = get_books_ghundagar_tt
				has_country_flag = books_from_ghundagar
			}
		}

		effect = {
			if = {
				limit = { 2921 = { has_building = university } } #Mermigan
				add_treasury = -400
			}
			else = {
				2921 = { add_building = university }
				add_treasury = -500
			}
			2921 = { #Mermigan
				add_province_modifier = {
					name = mulen_great_library
					duration = -1
				}
			}
		}
	}

	mulen_heating_the_baths = {
		icon = mission_rb_central_belt_coal_mining
		required_missions = { mulen_filling_the_library }
		position = 14

		provinces_to_highlight = {
			province_id = 2904 #Siadunaiun
			NOT = {
				has_manufactory_trigger = yes
				base_production = 20
			}
		}

		trigger = {
			2904 = { #Siadunaiun
				base_production = 20
				has_production_building_trigger = yes
				if = {
					limit = { has_dlc = "Leviathan" }
					num_of_times_expanded_infrastructure = 1
					has_building = weapons
				}
				else = {
					has_manufactory_trigger = yes
				}
			}
			adm_power = 100
			treasury = 200
		}

		effect = {
			add_adm_power = -100
			add_treasury = -200
			2904 = { #Siadunaiun
				add_province_modifier = {
					name = mulen_hot_springs
					duration = -1
				}
			}
		}
	}
}
