
#amezatany branch
vyzemby_1 = {
	slot = 1
	generic = no
	ai = yes
	potential = {
		primary_culture = amezatany
	}
	has_country_shield = yes
	
	vyzemby_amezatany_league = {
		icon = mission_arabian_fort
		position = 1
		required_missions = { }
		provinces_to_highlight = {
			OR = {
				province_id = 6598
				province_id = 5714
				province_id = 6608
				area = nafalofimapo_area
				area = tanfandoro_area
			}
			NOT = {
				country_or_non_sovereign_subject_holds = ROOT
			}
		}
		
		trigger = {
			6598 = {
				country_or_non_sovereign_subject_holds = ROOT
			}
			6608 = {
				country_or_non_sovereign_subject_holds = ROOT
			}
			5714 = {
				country_or_non_sovereign_subject_holds = ROOT
			}
			nafalofimapo_area = {
				country_or_non_sovereign_subject_holds = ROOT
				type = all
			}
			tanfandoro_area = {
				country_or_non_sovereign_subject_holds = ROOT
				type = all
			}
			navy_size_percentage = 0.90
		}
		
		effect = {
			if = {
				add_country_modifier = { 
					name = vyzemby_expedition_to_mainland
					duration = 18250
				}
				
			}
			else = {
				amezatany_colonisation_provinces = {
					add_permanent_claim = ROOT
				}
			}
		}
	}
	
	vyzemby_first_setlement = {
		icon = mission_colonial
		position = 2
		required_missions = { vyzemby_amezatany_league }
		provinces_to_highlight = {
			OR = {
				province_group = amezatany_colonisation_provinces
			}
			NOT = {
				country_or_non_sovereign_subject_holds = ROOT
			}
		}
		
		trigger = {
			amezatany_colonisation_provinces = {
				is_city = yes
				owned_by = ROOT
			}
		}
		
		effect = {
			add_country_modifier = { 
				name = vyzemby_colonial_fervour
				duration = 9125
	
			}
			custom_tooltip = vyzemby_cheaper_colonies_tooltip
			add_prestige = 20
			kunolo_area = {
				add_permanent_claim = ROOT
			}
			zuvavim_area = {
				add_permanent_claim = ROOT
			}
			zugvuma_area = {
				add_permanent_claim = ROOT
			}
		}
	}
	
	vyzemby_settle_the_coast = {
		icon = mission_settlers_north_america
		position = 3
		required_missions = { vyzemby_first_setlement }
		provinces_to_highlight = {
			province_group = amezatany_colonisation_provinces
			NOT = {
				country_or_non_sovereign_subject_holds = ROOT
			}
		}
		
		trigger = {
			amezatany_colonisation_provinces = {
				type = all
				owned_by = ROOT
				is_city = yes
			}
		}
		
		effect = {
			country_event = { id = fahvanosy.11 }
		}
	}
	
	vyzemby_reclaim_mainland = {
		icon = mission_unite_home_region
		position = 4
		required_missions = {
			vyzemby_settle_the_coast
			vyzemby_liberate_kolo_s_shrine
		}
		provinces_to_highlight = {
			OR = {
				area = kunolo_area
				area = zuvavim_area
				area = zugvuma_area
			}
			NOT = {
				country_or_non_sovereign_subject_holds = ROOT
			}
		}
		
		trigger = {
			zugvuma_area = {
				type = all
				owned_by = ROOT
				NOT = { unrest = 0.1 }
			}
			kunolo_area = {
				type = all
				owned_by = ROOT
				NOT = { unrest = 0.1 }
			}
			zuvavim_area = {
				type = all
				owned_by = ROOT
				NOT = { unrest = 0.1 }
			}
			num_of_owned_provinces_with = {
				value = 5
				OR = {
					area = zugvuma_area
					area = kunolo_area
					area = zuvavim_area
				}
				religion = ROOT
			}
		}
		
		effect = {
			narawan_jigin_area = {
				add_permanent_claim = ROOT
			}
			zenavuma_area = {
				add_permanent_claim = ROOT
			}
		}
	}
	
	vyzemby_restore_the_ananoma = {
		icon = mission_city_of_victory_vij
		position = 5
		required_missions = { vyzemby_reclaim_mainland }
		provinces_to_highlight = {
			province_group = halfling_ruins
			NOT = {
				has_province_modifier = ananoma_construction
				has_province_modifier = ananoma_improved
				has_province_modifier = ananoma_standart
			}
		}
		
		trigger = {
			halfling_ruins = {
				type = all
				OR = {
					has_province_modifier = ananoma_standart
					has_province_modifier = ananoma_improved
				}	
			}
		}
		
		effect = {
			add_country_modifier = { 
				name = vyzemby_secrets_of_the_past
				duration = 9125	
			}
			add_country_modifier = { 
				name = vyzemby_preparing_for_return
				duration = 1825	
			}
			
		}
	}
	
	vyzemby_the_great_return = {
		icon = mission_empire
		position = 6
		required_missions = { vyzemby_restore_the_ananoma }
		provinces_to_highlight = {
			region = horashesh_region
			NOT = {
				country_or_non_sovereign_subject_holds = ROOT
			}
		}
		
		trigger = {
			NOT  = { has_country_modifier = vyzemby_preparing_for_return }
			narawan_jigin_area {
				type = all
				owned_by = ROOT
			}
			5710 = { is_state = yes }
			num_of_owned_provinces_with = {
				value = 30
				OR = {
					region = horashesh_region
					superregion = fangaula_superregion
				}
			}

		}
		
		effect = {
			add_country_modifier = { 
				name = vyzemby_halfling_revanchism
				duration = -1
			}
			hidden_effect = {			
				every_owned_province = {
					if = {
						limit = { culture = amezatany }
						add_province_modifier = { 
							name = vyzemby_depopulation
							duration = 9125  
						}
					}
				}
			}
			custom_tooltip = depopulation_tooltip
			kunolo_area = {
				change_culture = ROOT
			}
			zuvavim_area = {
				change_culture = ROOT
			}
			zugvuma_area = {
				change_culture = ROOT
			}
			narawan_jigin_area = {
				change_culture = ROOT
			}
			amezatany_colonisation_provinces = {
				change_culture = ROOT
			}
			
		}
	}
}

#vyzemby branch
vyzemby_2 = {
	slot = 1
	generic = no
	ai = yes
	potential = {
		NOT = { primary_culture = amezatany }
		is_vyzemby_primary_culture = yes
		
	}
	has_country_shield = yes
	
	vyzemby_assemble_the_tribes = {
		icon = mission_african_soldier
		position = 1
		required_missions = { }
		
		trigger = {
			employed_advisor = {
				category = ADM				
			}
			employed_advisor = {
				category = DIP				
			}
			employed_advisor = {
				category = MIL				
			}
			if = {
				limit = { has_estate = estate_burghers }
				estate_loyalty = {
					estate = estate_burghers
					loyalty = 60
				}
			}
			if = {
				limit = { has_estate = estate_church }
				estate_loyalty = {
					estate = estate_church
					loyalty = 60
				}
			}
			if = {
				limit = { has_estate = estate_nobles }
				estate_loyalty = {
					estate = estate_nobles
					loyalty = 60
				}
			}
			if = {
				limit = {
					NOT = { has_estate = estate_burghers }
					NOT = { has_estate = estate_church }
					NOT = { has_estate = estate_nobles }
				}
				crown_land_share = 70
			}
		}
		
		effect = {
			add_country_modifier = { 
				name = vyzemby_tribal_cohesion
				duration = 3650 
	
			}
			if = {
				limit = { tag = L39 }
				6599 = {
					add_permanent_claim = ROOT
				}
				6611 = {
					add_permanent_claim = ROOT
				}
				6613 = {
					add_permanent_claim = ROOT
				}
			}
			else_if = {
				limit = { tag = L47 }
				6625 = {
					add_permanent_claim = ROOT
				}
			}
			else = {
				hidden_effect = {
					every_neighbor_province = {
						add_permanent_claim = ROOT
					}
				
				}
				custom_tooltip = permanent_claim_tooltip
			}
		}
	}
	
	vyzemby_mboala_war_dogs = {
		icon = mission_marwari_horses
		position = 2
		required_missions = { vyzemby_assemble_the_tribes }
		provinces_to_highlight = {
			culture = mboala
			NOT = {
				country_or_non_sovereign_subject_holds = ROOT
			}
			region = fahvanosy_region
		}
		
		trigger = {
			custom_trigger_tooltip = {
				tooltip = mboala_all_culture_tooltip
				NOT = {
					fahvanosy_region = {
						culture = mboala
						NOT = { owned_by = ROOT }
						is_city = yes
					}
				}
			}
			custom_trigger_tooltip = {
				tooltip = mboala_no_autonomy_tooltip
				NOT = {
					any_owned_province = {
						culture = mboala
						local_autonomy = 30
						unrest = 1
					}
				}
			}
		}
		
		effect = {
			unlock_merc_company = {
				merc_company = merc_mboala_war_dogs
				free_merc = yes
			}
			hidden_effect = {
				add_accepted_culture_or_dip_power = {
					culture = mboala
				}
			}
			custom_tooltip = mboala_accepted_culture_tooltip
		}
	}
	
	vyzemby_fomarati_bards = {
		icon = mission_arts_and_letters
		position = 3
		required_missions = { vyzemby_mboala_war_dogs }
		provinces_to_highlight = {
			culture = fomarati
			NOT = {
				country_or_non_sovereign_subject_holds = ROOT
			}
			is_city = yes
			region = fahvanosy_region
		}
		
		trigger = {
			custom_trigger_tooltip = {
				tooltip = fomarati_all_provinces_tooltip
				NOT = {
					fahvanosy_region = {
						culture = fomarati
						NOT = { owned_by = ROOT }
						is_city = yes
					}				
				}
			}
			custom_trigger_tooltip = {
				tooltip = fomarati_no_unrest_tooltip
				NOT = {
					any_owned_province = {
						culture = fomarati
						unrest = 1
					}
				}
			}
			OR = {			
				employed_advisor = {
					type = artist
				}
				has_adm_advisor_2 = yes
			}
		}
		
		effect = {
			hidden_effect = {
				add_accepted_culture_or_dip_power = {
					culture = fomarati
				}
			}
			custom_tooltip = fomarati_accepted_culture_tooltip
			if = {
				limit = { ai = no }
				hidden_effect = {
					3240 = {
						add_core = ROOT
						cede_province = ROOT
						add_base_tax = 1
						add_base_production = 1
						add_base_manpower = 1
					}
					3241 = {
						add_core = ROOT
						cede_province = ROOT
						add_base_tax = 1
						add_base_production = 1
						add_base_manpower = 1
					}
					3242 = {
						add_core = ROOT
						cede_province = ROOT
						add_base_tax = 1
						add_base_production = 1
						add_base_manpower = 1
					}
					3243 = {
						add_core = ROOT
						cede_province = ROOT
						add_base_tax = 1
						add_base_production = 1
						add_base_manpower = 1
					}				
				}
				custom_tooltip = colonize_fomarati_provinces_tooltip
			}
		}
	}
	
	vyzemby_northern_cities = {
		icon = renaissance_city
		position = 4
		required_missions = { vyzemby_fomarati_bards }
		provinces_to_highlight = {
			culture = amezatany
			NOT = {
				country_or_non_sovereign_subject_holds = ROOT
			}
			is_city = yes
			region = fahvanosy_region
		}
		
		trigger = {
			custom_trigger_tooltip = {
				tooltip = amazatany_all_provinces_tooltip
				NOT = {
					fahvanosy_region = {
						culture = amezatany
						NOT = { owned_by = ROOT }
						is_city = yes
					}				
				}
			}
			custom_trigger_tooltip = {
				tooltip = amezatany_devastation_tooltip
				NOT = {
					any_owned_province = {
						culture = amezatany
						devastation = 1
					}
				}
			}
			if = {
				limit = { has_estate = estate_nobles }
				estate_loyalty = {
					estate = estate_nobles
					loyalty = 60
				}
			}
			else = {
				crown_land_share = 70
			}

		}
		
		effect = {
			hidden_effect = {
				add_accepted_culture_or_dip_power = {
					culture = amezatany
				}
			}
			custom_tooltip = amezatany_accepted_culture_tooltip
			if = {
				limit = { has_estate = estate_nobles }
				change_estate_land_share = {
					estate = estate_nobles
					share = 3
				}
			}
			else = {
				add_prestige = 10
			}
			hidden_effect = {
				every_owned_province = {
					if = {
						limit = { culture = amezatany }
						add_local_autonomy = -50
					}
				}
			}
			custom_tooltip = amezatany_autonomy_tooltip
		}
	}
	
	vyzemby_prosperity_for_all = {
		icon = mission_war_chest
		position = 5
		required_missions = { 
			vyzemby_northern_cities
		}
		
		trigger = {
			if = {
				limit = { has_dlc = "Mandate of Heaven" }
				num_of_owned_provinces_with = {
					value = 45
					is_prosperous = yes
				}
			}
			else = {
				calc_true_if = {
				desc = vyzemby_manufactories_mission_tooltip
					all_owned_province = {
						OR = {
							has_building = mills
							has_building = farm_estate
							has_building = tradecompany
							has_building = plantations
							has_building = textile
							has_building = weapons
							has_building = wharf
							has_building = furnace
						}
					}
					amount = 20
				}
			}
			stability = 3
			is_at_war = no
		}
		
		effect = {
			add_country_modifier = { 
				name = vyzemby_summer_prosperity
				duration = -1  
			}
			if = {
				limit = { has_dlc = "Mandate of Heaven" }
				hidden_effect = {
					every_owned_province = {
						if = {
							limit = { 
								is_prosperous = yes
								NOT = { local_autonomy = 10 }
							}
							add_splendor = 10
						}
					}
				}
				custom_tooltip = summer_prosperity_tooltip
			}
			else = {
				add_treasury = 250
			}
			
		}
	}
}



#Mazava
vyzemby_4 = {
	slot = 2
	generic = no
	ai = yes
	potential = {
		OR = {
			primary_culture = mazava
		}
	}
	has_country_shield = yes
	
	vyzemby_centralize_clove_production = {
		icon = mission_rb_colonise_spice_islands
		position = 1
		required_missions = { }
		provinces_to_highlight = {
			trade_goods = cloves
			NOT = {
				owned_by = ROOT
			}
		}
		
		trigger = {
			NOT = {
				fahvanosy_region = {
					trade_goods = cloves
					NOT = { owned_by = ROOT }
				}				
            }
			NOT = {
				any_owned_province = {
					trade_goods = cloves
					local_autonomy = 25

				}
			}
		}
		
		effect = {
			every_owned_province = {
				if = {
					limit = { trade_goods = cloves}
					add_permanent_province_modifier = { 
						name = vyzemby_standardized_clove_farming_techniques
						duration = -1  
					}
				}
			}	
		}
	}
	
	vyzemby_clove_monopoly = {
		icon = mission_rb_monopolize_the_channel
		position = 2
		required_missions = { vyzemby_centralize_clove_production }
		provinces_to_highlight = {
			trade_goods = cloves
			NOT = {
				country_or_non_sovereign_subject_holds = ROOT
			}
		}
		
		trigger = {
			NOT = {
				any_owned_province = {
					trade_goods = cloves
					NOT = { has_building = workshop }
				}
			}
			3082 = { #Clovesight
				trade_share = {
					country = ROOT
					share = 50
				}
			}
		}
		
		effect = {
			hidden_effect = {
				random_owned_province = {
					limit = { trade_goods = cloves }
					add_building_construction = {
						building = counting_house
						speed = 1
						cost = 0
					}
				}
			}
			custom_tooltip = vyzemby_mazava_counting_house_tooltip
			add_country_modifier = { 
				name = vyzemby_monopolization_of_cloves
				duration = 7300  
			}
		}
	}
	
	vyzemby_the_clove_must_flow = {
		icon = mission_mnd_maj_cloves
		position = 3
		required_missions = { vyzemby_clove_monopoly }
		
		trigger = {
			
			fahvanosy_region = {
                type = all
                OR = {
                  AND = {
                    trade_goods = cloves
                    base_production = 6
                    if = {
                        limit = { has_dlc = "Mandate of Heaven" }
                        is_prosperous = yes
                    }
                  }
                  NOT = { trade_goods = cloves } 
                }
            } 				
			if = { 
				limit = { has_dlc = "Leviathan" }
				6632 = { has_great_project = { type = lizzardfolk_port tier = 2 } }
			}
			else = {
				trade_income_percentage = 0.25
			}
		}
		
		effect = {
			add_country_modifier = { 
				name = vyzemby_clove_monopoly_modifier
				duration = -1 
			}
		}
	}
}

#shrines
vyzemby_5 = {
	slot = 2
	generic = no
	ai = yes
	potential = {
		is_vyzemby_primary_culture = yes
		NOT = { primary_culture = mazava }
	}
	has_country_shield = yes
	
	vyzemby_sponsor_shrines = {
		icon = mission_hands_praying
		position = 1
		required_missions = { }
		provinces_to_highlight = {
			province_group = shrine_provinces
		}
		
		trigger = {
			shrine_provinces = {
				owned_by = ROOT
				OR = {
					AND = {
						has_building = temple
						base_tax = 7 
					}
					custom_trigger_tooltip = {
						tooltip = shrine_trigger_tooltip
						OR = {
							has_province_modifier = lel_shrine_province_active
							has_province_modifier = kolo_shrine_province_active
							has_province_modifier = the_nakazy_shrine_province_active
							has_province_modifier = turozi_shrine_province_active
							has_province_modifier = yuye_shrine_province_active
							has_province_modifier = ozamdi_shrine_province_active
							has_province_modifier = jyva_shrine_province_active
							has_province_modifier = ytrai_shrine_province_active
							has_province_modifier = drongray_shrine_province_active
							has_province_modifier = elinao_shrine_province_active
							has_province_modifier = begga2_shrine_province_active
							has_province_modifier = nakinta_shrine_province_active
						}
						owned_by = ROOT
					}
	
				}
			}
			
		}
		
		effect = {
			hidden_effect = {
				if = {
					limit = {
						has_country_modifier = lel_shrine
					}
					add_ruler_modifier = { 
						name = lel_shrine_2
						duration = -1  
					}
					remove_country_modifier = lel_shrine
				}
				if = {
					limit = {
						has_country_modifier = kolo_shrine
					}
					add_ruler_modifier = { 
						name = kolo_shrine_2
						duration = -1  
					}
					remove_country_modifier = kolo_shrine
				}
				if = {
					limit = {
						has_country_modifier = the_nakazy_shrine
					}
					add_ruler_modifier = { 
						name = the_nakazy_shrine_2
						duration = -1  
					}
					remove_country_modifier = the_nakazy_shrine
				}
				if = {
					limit = {
						has_country_modifier = turozi_shrine
					}
					add_ruler_modifier = { 
						name = turozi_shrine_2
						duration = -1  
					}
					remove_country_modifier = turozi_shrine
				}
				if = {
					limit = {
						has_country_modifier = yuye_shrine
					}
					add_ruler_modifier = { 
						name = yuye_shrine_2
						duration = -1  
					}
					remove_country_modifier = yuye_shrine
				}
				if = {
					limit = {
						has_country_modifier = ozamdi_shrine
					}
					add_ruler_modifier = { 
						name = ozamdi_shrine_2
						duration = -1  
					}
					remove_country_modifier = ozamdi_shrine
				}
				if = {
					limit = {
						has_country_modifier = jyva_shrine
					}
					add_ruler_modifier = { 
						name = jyva_shrine_2
						duration = -1  
					}
					remove_country_modifier = jyva_shrine
				}
				if = {
					limit = {
						has_country_modifier = ytrai_shrine
					}
					add_ruler_modifier = { 
						name = ytrai_shrine_2
						duration = -1  
					}
					remove_country_modifier = ytrai_shrine
				}
				if = {
					limit = {
						has_country_modifier = drongray_shrine
					}
					add_ruler_modifier = { 
						name = drongray_shrine_2
						duration = -1  
					}
					remove_country_modifier = drongray_shrine
				}
				if = {
					limit = {
						has_country_modifier = elinao_shrine
					}
					add_ruler_modifier = { 
						name = elinao_shrine_2
						duration = -1  
					}
					remove_country_modifier = elinao_shrine
				}
				if = {
					limit = {
						has_country_modifier = begga2_shrine
					}
					add_ruler_modifier = { 
						name = begga2_shrine_2
						duration = -1  
					}
					remove_country_modifier = begga2_shrine
				}
				if = {
					limit = {
						has_country_modifier = nakinta_shrine
					}
					add_ruler_modifier = { 
						name = nakinta_shrine_2
						duration = -1  
					}
					remove_country_modifier = nakinta_shrine
				}
				else = {
					add_country_modifier = { 
						name = vyzemby_shrine_loyality
						duration = 7300
					}
					add_prestige = 50
				}
			}
			custom_tooltip = double_modifier_tooltip
		}
	}
	
	vyzemby_protect_the_shrines = {
		icon = mission_cannons_firing
		position = 2
		required_missions = { vyzemby_sponsor_shrines }
		provinces_to_highlight = {
			province_group = shrine_provinces
			NOT = {
				country_or_non_sovereign_subject_holds = ROOT
			}
			NOT = { province_id = 5710 }
		}
		
		trigger = {
			custom_trigger_tooltip = {
				tooltip = vyzemby_shrine_provinces_tooltip
				owns_core_province = 6599
				owns_core_province = 5823
				owns_core_province = 6634
				owns_core_province = 5825
				owns_core_province = 6626
				owns_core_province = 6610
				owns_core_province = 6632
				owns_core_province = 6608
				owns_core_province = 5821
				owns_core_province = 5829
			}
			if = {
				limit = {
					NOT = { has_reform = pirate_republic_reform }
				}
				OR = {
					has_reform = shrine_guardians_reform
					has_reform = religious_societies_reform
				}
			}
			else = {
				crown_land_share = 50
			}
		}
		
		effect = {
			add_country_modifier = { 
				name = vyzemby_guardians_of_shrines
				duration = -1
			}
			hidden_effect = {
				shrine_provinces = {
					if = {
						limit = {
							OR = {
								has_tax_building_trigger = yes
								has_fort_building_trigger = yes
								has_manpower_building_trigger = yes
							}
						}
						add_base_manpower = 1
					}
				}
			}
			custom_tooltip = shrine_manpower_bonus_tooltip
		}
	}
	
	vyzemby_liberate_kolo_s_shrine = {
		icon = mission_assemble_an_army
		position = 3
		required_missions = { vyzemby_protect_the_shrines }
		provinces_to_highlight = {
			province_id = 5710
			NOT = {
				country_or_non_sovereign_subject_holds = ROOT
			}
		}
		
		trigger = {
			5710 = {
				owned_by = ROOT
				religion = ROOT
				has_building = temple
				num_of_times_improved = 5
			}
		}
		
		effect = {
			
			add_ruler_modifier = { 
				name = vyzemby_kolovadoy
				duration = -1  
			}
			hidden_effect = {
				5710 = { 
					if = {
						limit = {
							NOT = { has_province_modifier = ananoma_standart }
							NOT = { has_province_modifier = ananoma_improved }
							NOT = { has_province_modifier = ananoma_construction }
						}
						province_event = { 
							id = fahvanosy.8
							days = 3650
						}
						add_permanent_province_modifier = {
							name = ananoma_construction
							duration = -1
						}
					}
					else = {
						add_permanent_province_modifier = {
							name = vyzemby_kolonoma_restoration
							duration = 7300
						}
					}
				}
			}
			custom_tooltip = ananoma_mission_tooltip
			#need something 
		}
	}
}

#Mihipha
vyzemby_6 = {
	slot = 4
	generic = no
	ai = yes
	potential = {
		is_vyzemby_primary_culture = yes
	}
	has_country_shield = yes
	
	vyzemby_wandering_mihipha = {
		icon = mission_arabian_fort
		position = 1
		required_missions = { }
		
		trigger = {
			stability = 1
			has_estate_privilege = estate_mages_cast_spells
			OR = {
				employed_advisor = {
					type = natural_scientist
				}
				employed_advisor = {
					type = artist
				}
				employed_advisor = {
					type = court_mage
				}
			}
		}
		
		effect = {
			add_estate_influence_modifier = { estate = estate_mages influence = 10 duration = 3650 desc = wandeing_mihipha_influence_modifier }
			add_prestige = 20
			add_country_modifier = { 
				name = vyzemby_wandering_mihipha
				duration = 9125
			}
		}
	}
	
	vyzemby_mihipha_mages_mission = {
		icon = mission_delighted_mage
		position = 2
		required_missions = { vyzemby_wandering_mihipha }
		
		trigger = {
			capital_scope = { has_building = mage_tower }
			estate_influence = {
				estate = estate_mages
				influence = 35
			}
			estate_loyalty = {
				estate = estate_mages
				loyalty = 50
			}
		}
		
		effect = {
			capital_scope = {
				add_base_tax = 2
			}
			add_country_modifier = { 
				name = vyzemby_mihipha_mages
				duration = -1
				
			}
			
		}
	}
	
	vyzemby_cultivate_the_art = {
		icon = mission_patronize_art_and_religion
		position = 3
		required_missions = { 
			vyzemby_mihipha_mages_mission
			vyzemby_mihipha_bards_mission
			vyzemby_mihipha_scholars_mission
			
		}
		
		trigger = {
			6612 = {
				has_building = temple
			}
			num_of_owned_provinces_with = {
				value = 5
				has_building = mage_tower
			}
			any_owned_province = {
				trade_goods = incense
				has_building = workshop
			}
		}
		
		effect = {
			define_advisor = {
				type = court_mage
				skill = 3
				cost_multiplier = 0.25
			}
			if = {
				limit = {
					OR = {
						ruler_has_max_personalities = yes
						ruler_has_personality = patron_of_arts_personality
					}
				}
				add_ruler_modifier = { 
					name = vyzemby_patron_of_arts
					duration = -1  
				}
			}
			else = {
				add_ruler_personality = patron_of_arts_personality
			}
			
		}
	}
	
	vyzemby_formalize_the_art = {
		icon = mission_magy
		position = 4
		required_missions = { vyzemby_cultivate_the_art }
		
		trigger = {
			6612 = { 
				has_great_project = { type = first_mihipha_college tier = 1 }
				development = 25
			}
			estate_loyalty = {
				estate = estate_mages
				loyalty = 65
			}
		}
		
		effect = {
			remove_country_modifier = vyzemby_mihipha_bards
			remove_country_modifier = vyzemby_mihipha_mages
			remove_country_modifier = vyzemby_mihipha_scholars
			set_estate_privilege = estate_mages_organization_proffesional_mihipha
			custom_tooltip = mage_organization_vyzemby_tooltip
		}
	}
}

vyzemby_7 = {
	slot = 3
	generic = no
	ai = yes
	potential = {
		is_vyzemby_primary_culture = yes
	}
	has_country_shield = yes
	
	vyzemby_mihipha_bards_mission = {
		icon = sponsor_the_arts
		position = 2
		required_missions = { vyzemby_wandering_mihipha }
		
		trigger = {
			num_of_cities = 20
			capital_scope = {
				has_building = temple
			}
		}
		
		effect = {
			if = {
				limit = { has_dlc = "Mandate of Heaven" }
				hidden_effect = {
					every_owned_province = {
						if = {
							limit = {
								is_prosperous = yes
							}
							owner = {
								add_treasury = 10
							}
						}
					}
				}
				custom_tooltip = vyzemby_money_tooltip
			}
			else = {
				add_treasury = 200
			}
			add_country_modifier = { 
				name = vyzemby_mihipha_bards
				duration = -1
			}
		}
	}
}

vyzemby_8 = {
	slot = 5
	generic = no
	ai = yes
	potential = {
		is_vyzemby_primary_culture = yes
	}
	has_country_shield = yes
	
	vyzemby_mihipha_scholars_mission = {
		icon = mission_scholar_officials
		position = 2
		required_missions = { vyzemby_wandering_mihipha }
		provinces_to_highlight = {
			province_id = 6612
			NOT = {
				country_or_non_sovereign_subject_holds = ROOT
			}
		}
		
		trigger = {
			6612 = {
				owned_by = ROOT
			}
			has_institution = renaissance
			custom_trigger_tooltip = {
				tooltip = vyzemby_advisor_tooltip
				OR = {
					AND = {
						has_mil_advisor_2 = yes 
						has_adm_advisor_2 = yes 
					}
					AND = {
						has_mil_advisor_2 = yes 
						has_dip_advisor_2 = yes 
					}
					AND = {
						has_adm_advisor_2 = yes 
						has_dip_advisor_2 = yes 
					}
			
				}
			}
		}
		
		effect = {
			change_innovativeness = 7.5
			add_country_modifier = { 
				name = vyzemby_mihipha_scholars
				duration = -1
			}
		}
	}
}

vyzemby_9 = {
	slot = 2
	generic = no
	ai = yes
	potential = {
		NOT = { primary_culture = amezatany }
		NOT = { primary_culture = mazava }
		is_vyzemby_primary_culture = yes
	}
	has_country_shield = yes
	
	vyzemby_cloves_of_tsamanosy = {
		icon = mission_mnd_maj_cloves
		position = 4
		required_missions = { vyzemby_fomarati_bards }
		provinces_to_highlight = {
			trade_goods = cloves
		}
		
		trigger = {
			num_of_owned_provinces_with = {
				value = 2
				trade_goods = cloves
				has_building = workshop
				NOT = { has_construction = any }				
			}
			trading_bonus = {
				trade_goods = cloves
				value = yes
			}
			custom_trigger_tooltip = {
				tooltip = clovesight_trade_vyzemby_tooltip
				3082 = { #Fahvanosy
					trade_share = {
						country = ROOT
						share = 50
					}
				}
			}			
		}
		
		
		effect = {
			hidden_effect = {
				add_accepted_culture_or_dip_power = {
					culture = mazava
				}
			}
			custom_tooltip = mazava_accepted_culture_tooltip
			add_years_of_income = 1
			hidden_effect = {
				random_owned_province = {
					limit = {
						trade_goods = cloves
						has_building = workshop
						NOT = { has_construction = any }
					}
					add_building_construction = {
						building = counting_house
						speed = 1
						cost = 0
					}
				}
				random_owned_province = {
					limit = {
						trade_goods = cloves
						has_building = workshop
						NOT = { has_construction = any }
					}
					add_building_construction = {
						building = counting_house
						speed = 1
						cost = 0
					}
				}
			}
			custom_tooltip = vyzemby_builds_counting_houses_tooltip
		}
	}
}
