country_decisions = {
	taychend_hire_ships = {
		potential = {
			religion = gods_of_the_taychend
			NOT = { government = tribal }
			any_owned_province = { has_port = yes }
			NOT = { has_country_flag = taychend_shipping }
			OR = {
				ai = no
				NOT = { navy_size_percentage = 1 }
				NOT = { sailors_percentage = 0.50 }
			}
		}
		
		provinces_to_highlight = {
			owned_by = ROOT
			has_port = yes
		}
		
		allow = {
			hidden_trigger = {
				religion = gods_of_the_taychend
			}
			any_owned_province = { has_port = yes }
			treasury = 10
			NOT = { has_country_modifier = taychend_hired_ships }
		}
		
		effect = {
			set_country_flag = taychend_shipping
			country_event = { id = taychendi.5 }
		}
	}
	taychend_kingdom = {
		potential = {
			religion = gods_of_the_taychend
			NOT = { government_rank = 2 }
			custom_trigger_tooltip = {
				tooltip = gods_of_the_taychend_reform_2_buy
				has_country_flag = got_reform_1
			}
		}
		
		provinces_to_highlight = {
			NOT = { owned_by = ROOT }
			if = {
				limit = { ROOT = { capital_scope = { region = larankarha_highlands_region } } }
				region = larankarha_highlands_region
			}
			else_if = {
				limit = { ROOT = { capital_scope = { region = yodhanchend_region } } }
				region = yodhanchend_region
			}
			else_if = {
				limit = { ROOT = { capital_scope = { region = southern_coast_region } } }
				region = southern_coast_region
			}
			else_if = {
				limit = { ROOT = { capital_scope = { region = kalavend_region } } }
				region = kalavend_region
			}
			else_if = {
				limit = { ROOT = { capital_scope = { region = gauraddhi_region } } }
				region = gauraddhi_region
			}
			else = { superregion = taychend_superregion }
		}
		
		allow = {
			hidden_trigger = {
				religion = gods_of_the_taychend
			}
			if = {
				limit = { capital_scope = { region = larankarha_highlands_region } }
				num_of_provinces_owned_or_owned_by_subjects_with = {
					value = 24
					region = larankarha_highlands_region
				}
			}
			else_if = {
				limit = { capital_scope = { region = yodhanchend_region } }
				num_of_provinces_owned_or_owned_by_subjects_with = {
					value = 24
					region = yodhanchend_region
				}
			}
			else_if = {
				limit = { capital_scope = { region = southern_coast_region } }
				num_of_provinces_owned_or_owned_by_subjects_with = {
					value = 16
					region = southern_coast_region
				}
			}
			else_if = {
				limit = { capital_scope = { region = kalavend_region } }
				num_of_provinces_owned_or_owned_by_subjects_with = {
					value = 23
					region = kalavend_region
				}
			}
			else_if = {
				limit = { capital_scope = { region = gauraddhi_region } }
				num_of_provinces_owned_or_owned_by_subjects_with = {
					value = 19
					region = gauraddhi_region
				}
			}
			else = { capital_scope = { superregion = taychend_superregion } }
			if = {
				limit = { tag = G68 }
				G69 = {
					OR = {
						exists = no
						is_subject_of = G68
					}
				}
				G70 = {
					OR = {
						exists = no
						is_subject_of = G68
					}
				}
			}
			else_if = {
				limit = { tag = G69 }
				G68 = {
					OR = {
						exists = no
						is_subject_of = G69
					}
				}
				G70 = {
					OR = {
						exists = no
						is_subject_of = G69
					}
				}
			}
			else_if = {
				limit = { tag = G70 }
				G69 = {
					OR = {
						exists = no
						is_subject_of = G70
					}
				}
				G69 = {
					OR = {
						exists = no
						is_subject_of = G70
					}
				}
			}
		}
		
		effect = {
			change_government_to_monarchy = yes
			add_government_reform = taychend_kingdom
			every_subject_country = {
				limit = { primary_culture = ROOT }
				add_liberty_desire = -25
			}
		}
	}
	move_court_to_kottar_orenkoraim = {
		major = yes
	
		potential = {
			tag = G71
			NOT = { has_country_flag = moved_court_to_kottar_orenkoraim_flag }
		}
		
		provinces_to_highlight = {
			OR = {
				province_id = 6559	# Kottar Orenkoraim
				AND = {
					province_id = 2509    # Palaya Orenkoraim
					NOT = { owned_by = ROOT }
				}
				AND = {
					province_id = 2510    # Ursibamkq
					NOT = { owned_by = ROOT }
				}
			}
		}
		
		allow = {
			owns_core_province = 6559    # Kottar Orenkoraim
			owns_core_province = 2509    # Palaya Orenkoraim
			owns_core_province = 2510    # Ursibamkq
			OR = {
				adm_power = 200
				6559 =  {
					development = 14
				}
			}
			OR = {
				treasury = 200
				6559 =  {
					has_building = fort_15th
				}
			}
			is_at_war = no #would mess things up
		}
	
		effect = {
			set_capital = 6559
			6559 = {
				center_of_trade = 2
				change_trade_goods = slaves
				add_province_modifier = {
					name = growth_of_capital
					duration = 3650 #10 years
				}
			}
			if = { #populate the island or have the decision move your people there for you
				limit = {
					NOT = { 6559 = { development = 14 } }
				}
				add_adm_power = -200
				6559 = {
					add_base_tax = 3
					add_base_production = 3
					add_base_manpower = 3
				}
				2509 = {
					add_base_tax = -2
					add_base_production = -2
					add_base_manpower = -2
				}
				2510 = {
					add_base_tax = -1
					add_base_production = -1
					add_base_manpower = -1
				}
			}
			if = { #build a fort yourself or pay for it through the decision
				limit = {
					NOT = { 6559 = { fort_level = 2 } }
				}
				6559 = {
					add_building_construction = {
						building = fort_15th
						speed = 0.75
						cost = 1.5
					}
				}
			}
			2509 = {
				change_trade_goods = tea
			}
			set_country_flag = moved_court_to_kottar_orenkoraim_flag
		}
		
		ai_will_do = {
			factor = 1
		}
	}

	taychend_empire_nation = { #form taychend empire
		major = yes
		potential = {
			religion = gods_of_the_taychend_reformed
			custom_trigger_tooltip = {
				tooltip = gods_of_the_taychend_empire_reform_own_tt
				has_country_flag = got_reform_1
				has_country_flag = got_reform_2
				has_country_flag = got_reform_3
				has_country_flag = got_reform_4
				has_country_flag = got_reform_5
			}
			NOT = { has_country_flag = formed_taychend_empire_flag }
			NOT = { exists = J84 } #Taychend Empire
			was_never_end_game_tag_trigger = yes
		}
		
		provinces_to_highlight = {
		}
		
		allow = {
			religion = gods_of_the_taychend_reformed
			development_in_provinces = {
				value = 900
				superregion = taychend_superregion
			}
			stability = 1
			is_at_war = no
			is_free_or_tributary_trigger = yes
		}
		
		effect = {
			change_tag = J84
			hidden_effect = { restore_country_name = yes }
			if = {
				limit = {
					NOT = { government_rank = 3 }
				}
				set_government_rank = 3
			}
			taychend_superregion = {
				limit = {
					NOT = { owned_by = ROOT }
				}
				add_permanent_claim = J84
			}
			if = {
				limit = { has_custom_ideas = no }
				country_event = { id = ideagroups.1 } #Swap Ideas
			}
			add_prestige = 50
			add_country_modifier = {
				name = "centralization_modifier"
				duration = 7300
			}
			set_country_flag = formed_taychend_empire_flag
			change_government_to_monarchy = yes
			add_government_reform = autocracy_reform
			hidden_effect = {
				if = {
					limit = {
						OR = {
							culture = advakhalla
							culture = larankarha
						}
					}
					override_country_name = AMARAYAM
				}
				else_if = {
					limit = {
						culture = yodhanpir
					}
					override_country_name = CAKRAYOCHEND
				}
				else_if = {
					limit = {
						culture = sarihaddi
					}
					override_country_name = AXEYOCHAEND
				}
				else_if = {
					limit = {
						culture = kalavendhi
					}
					override_country_name = CAMRAYAMAI
				}
				else_if = {
					limit = {
						culture = thekvrystana
					}
					override_country_name = ADHIVAGAM
				}
				else_if = {
					limit = {
						culture = chendhyan
					}
					override_country_name = ASAEDZUDAR
				}
			}
		}
		ai_will_do = {
			factor = 1
		}
		ai_importance = 400
	}

	nanru_nakar_nation = {
		major = yes
		potential = {
			culture = kalavendhi
			NOT = { has_country_flag = formed_nanru_nakar_flag}
			NOT = { exists = J85 } #Nanru Nakar
			OR = {
				tag = G68
				tag = G69
				tag = G70
			}
		}
		
		provinces_to_highlight = {
		}
		
		allow = {
			culture = kalavendhi
			owns_core_province = 2497
			owns_core_province = 2496
			owns_core_province = 2495
			is_at_war = no
			custom_trigger_tooltip = {
				tooltip = nanru_nakar_exist_trigger_tt
				if = {
					limit = { tag = G68 }
					NOT = {
						exists = G69
						exists = G70
					}
				}
				else_if = {
					limit = { tag = G69 }
					NOT = {
						exists = G68
						exists = G70
					}
				}
				else_if = {
					limit = { tag = G70 }
					NOT = {
						exists = G68
						exists = G69
					}
				}
			}
		}
		
		effect = {
			change_tag = J85
			hidden_effect = { restore_country_name = yes }
			parahechend_area = {
				add_permanent_claim = J85
			}
			varampiraya_area = {
				add_permanent_claim = J85
			}
			vettakaramai_area = {
				add_permanent_claim = J85
			}
			if = {
				limit = { has_custom_ideas = no }
				country_event = { id = ideagroups.1 } #Swap Ideas
			}
			add_prestige = 50
			add_country_modifier = {
				name = "centralization_modifier"
				duration = 7300
			}
			set_country_flag = formed_nanru_nakar_flag
		}
	}
}
