namespace = aw_orcs

#The Adventurers Wanted uses a strict ID system to make the system easier to author content for
#The IDs below 100 are core utility systems that are usually straight copies or modifications of how the AW system works, such as monsters being able to migrate and be defeated by adventurers.
#The IDs above 100 are more unique situations for the specific encounter, but they should correlate with the numbers from above: if ID 10s deal with migration, then ID 110s should be the unique events to do with migration - for example bribing a Thieves Guild to GTFO your country
#Crazy and more uniques ones that dont conform to the utilities should be ID 200

#USE THE anb_aw_orcs TO SEE A SIMPLE COPY-PASTABLE FORMAT IN ADDITION TO STUFF LIKE MIGRATION STYLES ETC
#Search for CHANGEABLE for the criteria you should change in that file and this one

#################################################################
# Welcome to the master file for the Adventurers Wanted System. In the comments below you'll see copy-pastable events for you to choose, different migration styles as well as prebuilt events to handle stuff like spawning rebellions
#################################################################

#0 - spawn in province
province_event = {
	id = aw_orcs.0
	title = aw_orcs.0.t
	desc = aw_orcs.0.d
	picture = COMET_SIGHTED_eventPicture
	goto = ROOT
	
	is_triggered_only = yes
	#hidden = yes
	
	#yup thats happening
	option = {
		name = aw_basic.0.a
		ai_chance = { 
			factor = 1 
		}
		add_permanent_province_modifier  = {
			name = aw_orcs_1
			duration = -1  
		}

		custom_tooltip = aw_how_to_get_more_adventurer_removal_chance_tooltip
	}
}


#1 - event manager, called by on_actions. This happens ONCE per pulse. If you have 7 of these, it still only fires the manager once
country_event = {
	id = aw_orcs.1
	title = aw_orcs.1.t
	desc = aw_orcs.1.d
	picture = COMET_SIGHTED_eventPicture
	
	hidden = yes
	is_triggered_only = yes
	
	trigger = {
		any_owned_province = {
			OR = { 
				has_province_modifier = aw_orcs_1
				has_province_modifier = aw_orcs_2
				has_province_modifier = aw_orcs_3
			}
		}
	}


	mean_time_to_happen = {
		days = 1
		modifier = {
			factor = 2
			num_of_owned_provinces_with = {
				value = 3
				OR = { 
					has_province_modifier = aw_orcs_1
					has_province_modifier = aw_orcs_2
					has_province_modifier = aw_orcs_3
				}
			}
		}
	}

	immediate = {
		random_owned_province = {
			limit = {
				OR = { 
					has_province_modifier = aw_orcs_1
					has_province_modifier = aw_orcs_2
					has_province_modifier = aw_orcs_3
				}
			}
			save_event_target_as = aw_orcs_target
		}
	}
	
	
	option = {
		event_target:aw_orcs_target = {
			random_list = {
				#10 - Base migration - MODIFIED: for tier 1-2 only
				5 = {
					#Specific modifiers
					modifier = {
						factor = 2
						is_looted = yes
					}
					modifier = {
						factor = 3
						devastation = 50
					}
					province_event = { id = aw_orcs.10 }
				}


				#20 - natural removal
				7 = {
					province_event = { id = aw_orcs.20 }	#Natural removal
				}

				#21 - adventurer removal
				15 = {
					#Base modifiers

					#more likely if generous quest rewards/adverturer nation
					modifier = {
						factor = 2
						OR = {
							owner = { has_estate_privilege = estate_adventurers_generous_quest_rewards }
							owner = { has_adventurer_reform = yes }
							owner = { has_estate_privilege = estate_ahati_support_south }
							owner = { has_estate_privilege = estate_ahati_support_brotherhoods }
						}
					}

					#more likely if loyal
					modifier = {
						factor = 2
						owner = {
							estate_loyalty = {
								estate = estate_adventurers
								loyalty = 60
							}
						}
					}

					#more likely if high influence
					modifier = {
						factor = 2
						owner = {
							estate_influence = {
								estate = estate_adventurers
								influence = 60
							}
						}
					}
					#small influence boost at 30
					modifier = {
						factor = 1.5
						owner = {
							estate_influence = {
								estate = estate_adventurers
								influence = 30
							}
						}
					}
					province_event = { id = aw_orcs.21 }
				}

				#22 - natural tier down
				10 = {
					province_event = { id = aw_orcs.22 } 
				}

				#23 - adventurer tier down
				20 = {
					#Base modifiers

					#more likely if generous quest rewards/adverturer nation
					modifier = {
						factor = 2
						OR = {
							owner = { has_estate_privilege = estate_adventurers_generous_quest_rewards }
							owner = { has_adventurer_reform = yes }
							owner = { has_estate_privilege = estate_ahati_support_south }
							owner = { has_estate_privilege = estate_ahati_support_brotherhoods }
						}
					}

					#more likely if loyal
					modifier = {
						factor = 2
						owner = {
							estate_loyalty = {
								estate = estate_adventurers
								loyalty = 60
							}
						}
					}

					#more likely if high influence
					modifier = {
						factor = 2
						owner = {
							estate_influence = {
								estate = estate_adventurers
								influence = 60
							}
						}
					}
					#small influence boost at 30
					modifier = {
						factor = 1.5
						owner = {
							estate_influence = {
								estate = estate_adventurers
								influence = 30
							}
						}
					}
					#adventurer type sponsorships
					modifier = {
						factor = 2
						owner = {
							has_estate_privilege = estate_adventurers_sponsor_sellswords
						}
					}
					province_event = { id = aw_orcs.23 }
				}

				#24 - monstrous nation removal
				50 = {
					modifier = {
						#only want this to ever be part of the equation if you are monstrous
						factor = 0
						NOT = { owner = { has_country_modifier = monstrous_nation } }
					}
					#Base modifiers
					province_event = { id = aw_orcs.24 }
				}

				#25 - monstrous natural tier down.
				50 = {
					#Base modifiers
					modifier = {
						#only want this to ever be part of the equation if you are monstrous
						factor = 0
						NOT = { owner = { has_country_modifier = monstrous_nation } }
					}
					province_event = { id = aw_orcs.25 }   
				}

				#30 - natural tier up
				10 = {
					province_event = { id = aw_orcs.30 }   
				}

				#40 - convert to pop if tolerating
				2 = {
					modifier = {
						factor = 3
						owner = {
							medium_tolerance_orcish_race_trigger = yes
						}
					}
					modifier = {
						factor = 4
						owner = {
							high_tolerance_orcish_race_trigger = yes
						}
					}
					#adventurer type sponsorships
					modifier = {
						factor = 5
						owner = {
							has_estate_privilege = estate_adventurers_sponsor_do_gooders
						}
					}
					province_event = { id = aw_orcs.40 }  
				}

				#41 - convert to pop, monstrous subjugation
				33 = {
					modifier = {
						#only want this to ever be part of the equation if you are monstrous
						factor = 0
						NOT = { owner = { has_country_modifier = monstrous_nation } }
					}
					province_event = { id = aw_orcs.41 }  
				}

				#100 - Migratory Clan Spawn
				20 = {
					#Base modifiers
					modifier = {
						factor = 2.5
						devastation = 60
					}
					province_event = { id = aw_orcs.100 }
				}

				#110 - Migratory Clan base migration
				10 = {
					modifier = {
						factor = 2.0
						development = 10
					}
					modifier = {
						factor = 1.5
						development = 20
					}


					#Base modifiers
					province_event = { id = aw_orcs.110 }
				}

				#120 - Adventurers defeat higher tier ones with honour. Either tier down once for +tolerance (making pop conversion easier), or remove monster completely
				5 = {
					modifier = {
						factor = 0
						owner = { has_country_modifier = monstrous_nation }
					}
					modifier = {
						factor = 0
						owner = {
							NOT = {
								OR = {
									has_country_modifier = dwarven_administration
									has_country_modifier = dwarven_military
								}
							}
						}
					}
					#Base modifiers
					#more likely if generous quest rewards/adverturer nation
					modifier = {
						factor = 2
						OR = {
							owner = { has_estate_privilege = estate_adventurers_generous_quest_rewards }
							owner = { has_adventurer_reform = yes }
							owner = { has_estate_privilege = estate_ahati_support_south }
							owner = { has_estate_privilege = estate_ahati_support_brotherhoods }
						}
					}

					#more likely if loyal
					modifier = {
						factor = 2
						owner = {
							estate_loyalty = {
								estate = estate_adventurers
								loyalty = 60
							}
						}
					}

					#more likely if high influence
					modifier = {
						factor = 2
						owner = {
							estate_influence = {
								estate = estate_adventurers
								influence = 60
							}
						}
					}
					#small influence boost at 30
					modifier = {
						factor = 1.5
						owner = {
							estate_influence = {
								estate = estate_adventurers
								influence = 30
							}
						}
					}
					#adventurer type sponsorships
					modifier = {
						factor = 2
						owner = {
							has_estate_privilege = estate_adventurers_sponsor_do_gooders
						}
					}
					province_event = { id = aw_orcs.120 }
				}

				#121 - Migratory Clan absorbed by orcs. Remove modifier and add some dev to province
				10 = {
					modifier = {
						factor = 0
						owner = { has_country_modifier = monstrous_nation }
					}
					modifier = {
						factor = 0
						owner = {
							NOT = {
								OR = {
									has_country_modifier = orcish_administration
									has_country_modifier = orcish_military
								}
							}
						}
					}
					#Base modifiers
					province_event = { id = aw_orcs.121 }
				}

				#122 - Tier 2 orcs become mercs. Go to tier 1. Gain tolerance if you accept
				10 = {
					modifier = {
						factor = 0
						owner = {
							NOT = {
								OR = {
									primary_culture = green_orc
									primary_culture = gray_orc
									primary_culture = black_orc
									primary_culture = emerald_orc
									primary_culture = grombar_orc
									primary_culture = rugan_orc
									primary_culture = ungulan_orc
									primary_culture = barumand_orc
									primary_culture = brown_orc
									primary_culture = karashari_orc
									primary_culture = redtusk_orc
								}
							}
						}
					}
					modifier = {
						factor = 0
						owner = {
							NOT = {
								OR = {
									has_country_modifier = dwarven_administration
									has_country_modifier = dwarven_military
								}
							}
						}
					}
					#Base modifiers
					province_event = { id = aw_orcs.122 }
				}

				#123 - If you're Corinite, a corinite priest converts them and they turn into a pop
				5 = {
					modifier = {
						factor = 0
						NOT = { owner = { religion = corinite } }
					}
					modifier = {
						factor = 0
						owner = {
							NOT = {
								OR = {
									has_country_modifier = dwarven_administration
									has_country_modifier = dwarven_military
								}
							}
						}
					}
					modifier = {
						factor = 1.5
						NOT = {
							owner = {
								num_of_missionaries = 1
								NOT = { num_of_missionaries = 2 }
							}
						}
					}
					
					#Base modifiers
					province_event = { id = aw_orcs.123 }
				}

				#124 - Orc country can Ozarm'Chadash to absorb them.
				5 = {
					modifier = {
						factor = 0
						owner = {
							NOT = {
								OR = {
									has_country_modifier = orcish_administration
									has_country_modifier = orcish_military
								}
							}
						}
					}
					modifier = {
						factor = 0.9
						NOT = { owner = { stability = 0 } }
					}
					modifier = {
						factor = 0.8
						NOT = { owner = { stability = -1 } }
					}
					modifier = {
						factor = 0.7
						NOT = { owner = { stability = -2 } }
					}
					modifier = {
						factor = 0.8
						NOT = { owner = { mil = 3 } }
					}
					modifier = {
						factor = 0.8
						NOT = { owner = { mil = 2 } }
					}
					modifier = {
						factor = 0.8
						NOT = { owner = { mil = 1 } }
					}
					modifier = {
						factor = 0.8
						NOT = { owner = { prestige = -25 } }
					}
					modifier = {
						factor = 0.8
						NOT = { owner = { prestige = -50 } }
					}
					modifier = {
						factor = 0.8
						NOT = { owner = { prestige = -75 } }
					}
					modifier = {
						factor = 0.5
						NOT = { owner = { legitimacy = 50 } }
					}
					modifier = {
						factor = 1.2
						owner = { full_idea_group = aristocracy_ideas }
					}
					modifier = {
						factor = 1.25
						is_year = 1600
					}
					modifier = {
						factor = 1.25
						is_year = 1700
					}
					modifier = {
						factor = 1.25
						owner = { mil = 4 }
					}
					modifier = {
						factor = 1.25
						owner = { mil = 5 }
					}
					modifier = {
						factor = 1.5
						owner = { mil = 6 }
					}
					modifier = {
						factor = 2
						owner = { full_idea_group = innovativeness_ideas }
					}
					modifier = {
						factor = 2
						owner = { full_idea_group = administrative_ideas }
					}
					modifier = {
						factor = 2
						owner = { full_idea_group = diplomatic_ideas }
					}
					modifier = {
						factor = 2
						owner = { full_idea_group = spy_ideas }
					}
					modifier = {
						factor = 2
						owner = { NOT = { religion_group = orcish } }
					}
					province_event = { id = aw_orcs.124 }
				}

				#130 - Warband "settles" and becomes Migratory Clan
				10 = {
					modifier = {
						factor = 0
						owner = { has_country_modifier = monstrous_nation }
					}
					modifier = {
						factor = 1.5
						NOT = { development = 10 }
					}
					#Base modifiers
					province_event = { id = aw_orcs.130 }
				}

				#141 - Orc Migratory Clan forcibly settles low dev province. Culture converts and removes monster modifier
				10 = {
					modifier = {
						factor = 0
						owner = { has_country_modifier = monstrous_nation }
					}
					#Base modifiers
					province_event = { id = aw_orcs.141 }
				}

				#142 - Orcish Warband raises host. Spawn rebel army
				7 = {
					modifier = {
						factor = 0
						owner = { has_country_modifier = monstrous_nation }
					}
					#Base modifiers
					province_event = { id = aw_orcs.142 }
				}

				#200 - classic orcish raid really, though we could say that Raiding parties and warbands do this anyway. But nice to remind people
				20 = {
					modifier = {
						factor = 0
						owner = { has_country_modifier = monstrous_nation }
					}
					modifier = {
						factor = 0.5
						has_province_modifier = aw_orcs_1
					}
					modifier = {
						factor = 0.25
						has_province_modifier = aw_orcs_3
					}
					#Base modifiers
					province_event = { id = aw_orcs.200 }
				}
				
				#201 - 
				15 = {
					
					#Base modifiers
					province_event = { id = aw_orcs.201 }
				}

				#202 - raid massacre
				10 = {
					modifier = {
						factor = 0
						NOT = { owner = { stability = 1 } }
					}
					#Base modifiers
					province_event = { id = aw_orcs.202 }
				}

				#203 - adventurers steal dwarven weapons cache from the orcs
				5 = {
					modifier = {
						factor = 1.5
						owner = {
							OR = {
								has_country_modifier = dwarven_administration
								has_country_modifier = dwarven_military
							}
						}
					}
					#Base modifiers
					#more likely if generous quest rewards/adverturer nation
					modifier = {
						factor = 2
						OR = {
							owner = { has_estate_privilege = estate_adventurers_generous_quest_rewards }
							owner = { has_adventurer_reform = yes }
							owner = { has_estate_privilege = estate_ahati_support_south }
							owner = { has_estate_privilege = estate_ahati_support_brotherhoods }
						}
					}

					#more likely if loyal
					modifier = {
						factor = 2
						owner = {
							estate_loyalty = {
								estate = estate_adventurers
								loyalty = 60
							}
						}
					}

					#more likely if high influence
					modifier = {
						factor = 2
						owner = {
							estate_influence = {
								estate = estate_adventurers
								influence = 60
							}
						}
					}
					#small influence boost at 30
					modifier = {
						factor = 1.5
						owner = {
							estate_influence = {
								estate = estate_adventurers
								influence = 30
							}
						}
					}
					#adventurer type sponsorships
					modifier = {
						factor = 2
						owner = {
							has_estate_privilege = estate_adventurers_sponsor_rogues
						}
					}
					province_event = { id = aw_orcs.203 }
				}
			}
		}
	}
}


#2 - notification of advanturers wanted spawning

############## 10s - Migration and Propagation ###################

#10 - Base migration
province_event = {
	id = aw_orcs.10
	title = aw_orcs.10.t
	desc = aw_orcs.10.d
	picture = COMET_SIGHTED_eventPicture
	goto = ROOT
	
	is_triggered_only = yes
	
	trigger = {
		OR = {
			has_province_modifier = aw_orcs_1
			has_province_modifier = aw_orcs_2
		}

		#MAKE SURE TO ADD A any_neighbor_province or relevant check - aka make sure that the immediate = { } effects can even occur before doing the event!
		any_neighbor_province = {
			is_city = yes
			owner = { NOT = { has_country_modifier = monstrous_nation } }

			NOT = { has_province_modifier = aw_orcs_1 }
			NOT = { has_province_modifier = aw_orcs_2 }
			NOT = { has_province_modifier = aw_orcs_3 }
		}
	}
	
	immediate = {
		hidden_effect = {

			######################################################################
			#Here's a list of all migration types for you to copy and paste
			#Note: you may need to add something in the trigger = { } above, for example for random_neighbour_province, as you might want to check if this valid province even has a neighbour you can migrate to!
			######################################################################

			#CHANGEABLE - MIGRATION TYPE - Any adjacent province
			random_neighbor_province = {
				limit = {
					#Base Conditions
					is_city = yes

					NOT = { has_province_modifier = aw_orcs_1 }
					NOT = { has_province_modifier = aw_orcs_2 }
					NOT = { has_province_modifier = aw_orcs_3 }


					#Specific Conditions
				   
				}
				save_event_target_as = aw_orcs_migration_target
			}
			owner = { save_event_target_as = aw_orcs_migration_origin_owner }
		}
	}

	#If migration is within country
	option = {  
		name = aw_orcs.10.a
		ai_chance = { factor = 100 }
		goto = aw_orcs_migration_target
		trigger = {
			event_target:aw_orcs_migration_target = {
				owned_by = event_target:aw_orcs_migration_origin_owner
			}
		}
		
		#It's migration, so remove modifier from previous province
		tooltip = { #this is fake. the real one happens below
			remove_province_modifier = aw_orcs_1
			remove_province_modifier = aw_orcs_2
			remove_province_modifier = aw_orcs_3
		}
		
		event_target:aw_orcs_migration_target = {
			# if = {
				# limit = {
					# owned_by = ROOT #you need this as this is only for provinces you own. option 10.b is for others
				# }
				#CHANGEABLE - SPREAD TYPE: Tier makes Tier of the same at target
				if = {
					limit = {
						ROOT = { has_province_modifier = aw_orcs_1 }
					}
					add_permanent_province_modifier = { 
						name = aw_orcs_1
						duration = -1
					}
				}
				else_if = {
					limit = {
						ROOT = { has_province_modifier = aw_orcs_2 }
					}
					add_permanent_province_modifier = { 
						name = aw_orcs_2
						duration = -1
					}
				}
				else_if = {
					limit = {
						ROOT = { has_province_modifier = aw_orcs_3 }
					}
					add_permanent_province_modifier = { 
						name = aw_orcs_3
						duration = -1
					}
				}
				hidden_effect = {
					ROOT = { #real removal. the other real one is in the called event in the else
						remove_province_modifier = aw_orcs_1
						remove_province_modifier = aw_orcs_2
						remove_province_modifier = aw_orcs_3
					}
				}
			# }
		}
	}

	#If migration is sent to OTHER country
	option = {  
		name = aw_orcs.10.b
		ai_chance = { factor = 100 }
		goto = aw_orcs_migration_target
		trigger = {
			event_target:aw_orcs_migration_target = {
				NOT = { owned_by = event_target:aw_orcs_migration_origin_owner }   #if the target isnt in your country, then send an event to them that notifies + adds it on their end
			}
		}

		#It's migration, so remove modifier from previous province
		tooltip = { #this is fake. the real one happens via the event
			remove_province_modifier = aw_orcs_1
			remove_province_modifier = aw_orcs_2
			remove_province_modifier = aw_orcs_3
		}

		custom_tooltip = aw_orcs_migrate_to_other_country_tt
		hidden_effect = {
			event_target:aw_orcs_migration_target = {
				province_event = {
					id = aw_orcs.11
				}
			}
		}
	}
}

#11 - migration target notification if it goes to other country
province_event = {
	id = aw_orcs.11
	title = aw_orcs.11.t
	desc = aw_orcs.11.d
	picture = COMET_SIGHTED_eventPicture
	goto = ROOT
	
	is_triggered_only = yes
	
	option = {
		# deal with it ourselves
		name = aw_basic.0.a
		ai_chance = { 
			factor = 20 
		}

		custom_tooltip = aw_how_to_get_more_adventurer_removal_chance_tooltip

		owner = {
			add_opinion = {
				who = event_target:aw_orcs_migration_origin_owner
				modifier = aw_crossed_border
			}
		}

		#CHANGEABLE - SPREAD TYPE: Tier makes Tier of the same at target ---(NOTE: THIS USUALLY SHOULD BE THE SAME AS id.10 above)----
		if = {
			limit = {
				FROM = { has_province_modifier = aw_orcs_1 }
			}
			add_permanent_province_modifier = { 
				name = aw_orcs_1
				duration = -1
			}
		}
		else_if = {
			limit = {
				FROM = { has_province_modifier = aw_orcs_2 }
			}
			add_permanent_province_modifier = { 
				name = aw_orcs_2
				duration = -1
			}
		}
		else_if = {
			limit = {
				FROM = { has_province_modifier = aw_orcs_3 }
			}
			add_permanent_province_modifier = { 
				name = aw_orcs_3
				duration = -1
			}
		}

	}

	after = {
		FROM = {	#cleanup event to remove the modifiers from the original province
			remove_province_modifier = aw_orcs_1
			remove_province_modifier = aw_orcs_2
			remove_province_modifier = aw_orcs_3
		}
	}
}

#13 - Base propagation - nah


#14 - propagation target notification - nah


#15 - Migrate to non monstrous if monstrous nation is owner (if its applicable to monsters, like wyverns etc, then this is fine to remove, else keep)


############## 20s - Removal/Tier Down ###################

#20 - natural removal
province_event = {
	id = aw_orcs.20
	title = aw_orcs.20.t
	desc = aw_orcs.20.d
	picture = COMET_SIGHTED_eventPicture
	goto = ROOT
	
	is_triggered_only = yes
	
	trigger = {
		OR = {
			has_province_modifier = aw_orcs_1
			has_province_modifier = aw_orcs_2
			has_province_modifier = aw_orcs_3
		}
	}
	
	option = {
 
		name = aw_orcs.20.a
		ai_chance = { factor = 100 }

		remove_province_modifier = aw_orcs_1
		remove_province_modifier = aw_orcs_2
		remove_province_modifier = aw_orcs_3

	}
}

#21 - adventurer removal
province_event = {
	id = aw_orcs.21
	title = aw_orcs.21.t
	desc = aw_orcs.21.d
	picture = COMET_SIGHTED_eventPicture
	goto = ROOT
	
	is_triggered_only = yes
	
	trigger = {
		owner = { OR = { has_estate = estate_adventurers has_adventurer_reform = yes  } }
		OR = {
			has_province_modifier = aw_orcs_1
			has_province_modifier = aw_orcs_2
			has_province_modifier = aw_orcs_3
		}
	}
	
	option = {
		# oh, thank goodness
		name = aw_orcs.21.a
		ai_chance = { factor = 100 }

		remove_province_modifier = aw_orcs_1
		remove_province_modifier = aw_orcs_2
		remove_province_modifier = aw_orcs_3

		owner = {
			add_estate_influence_modifier = {
				estate = estate_adventurers
				desc = EST_VAL_AW_RESOLVED_ADVENTURERS_WANTED_ENCOUNTER
				duration = 3650
				influence = 5
			}
		}

		owner = { add_prestige_excess_to_splendour_effect = { VAL=3} }

	}
}

#22 - natural tier down - MODIFIED: only for tier 1-2 as tier 3 is special for orcs
province_event = {
	id = aw_orcs.22
	title = aw_orcs.22.t
	desc = aw_orcs.22.d
	picture = COMET_SIGHTED_eventPicture
	goto = ROOT
	
	is_triggered_only = yes
	
	trigger = {
		OR = { 
			has_province_modifier = aw_orcs_1 
			has_province_modifier = aw_orcs_2
		}
	}
	option = {
		name = aw_orcs.22.a
		ai_chance = { factor = 100 }
		if = {
			limit = { 
				has_province_modifier = aw_orcs_3 
			}
			remove_province_modifier = aw_orcs_3
			add_permanent_province_modifier  = {
				name = aw_orcs_2
				duration = -1  
			}
		}
		else_if = {
			limit = { 
				has_province_modifier = aw_orcs_2
			}
			remove_province_modifier = aw_orcs_2
			add_permanent_province_modifier  = {
				name = aw_orcs_1
				duration = -1  
			}
		}
		else_if = {
			limit = { 
				has_province_modifier = aw_orcs_1
			}
			remove_province_modifier = aw_orcs_1
		}
	}
}

#23 - adventurer tier down - MODIFIED: only for tier 1-2 as tier 3 is special for orcs
province_event = {
	id = aw_orcs.23
	title = aw_orcs.23.t
	desc = aw_orcs.23.d
	picture = COMET_SIGHTED_eventPicture
	goto = ROOT
	
	is_triggered_only = yes
	
	trigger = {
		owner = { OR = { has_estate = estate_adventurers has_adventurer_reform = yes  } }
		OR = { 
			has_province_modifier = aw_orcs_1 
			has_province_modifier = aw_orcs_2
		}
	}
	option = {
		name = aw_orcs.23.a
		ai_chance = { factor = 100 }
		if = {
			limit = { 
				has_province_modifier = aw_orcs_3 
			}
			remove_province_modifier = aw_orcs_3
			add_permanent_province_modifier  = {
				name = aw_orcs_2
				duration = -1  
			}
		}
		else_if = {
			limit = { 
				has_province_modifier = aw_orcs_2
			}
			remove_province_modifier = aw_orcs_2
			add_permanent_province_modifier  = {
				name = aw_orcs_1
				duration = -1  
			}
		}
		else_if = {
			limit = { 
				has_province_modifier = aw_orcs_1
			}
			remove_province_modifier = aw_orcs_1
			owner = { add_prestige_excess_to_splendour_effect = { VAL=3} }
		}

		owner = {
			add_estate_influence_modifier = {
				estate = estate_adventurers
				desc = EST_VAL_AW_RESOLVED_ADVENTURERS_WANTED_ENCOUNTER
				duration = 3650
				influence = 5
			}
		}
	}
}

#24 - monstrous nation removal
province_event = {
	id = aw_orcs.24
	title = aw_orcs.24.t
	desc = aw_orcs.24.d
	picture = COMET_SIGHTED_eventPicture
	goto = ROOT
	
	is_triggered_only = yes
	
	trigger = {
		owner = { has_country_modifier = monstrous_nation }

		OR = {
			has_province_modifier = aw_orcs_1
			has_province_modifier = aw_orcs_2
			has_province_modifier = aw_orcs_3
		}
	}
	
	option = {
 
		name = aw_orcs.20.a
		ai_chance = { factor = 100 }

		remove_province_modifier = aw_orcs_1
		remove_province_modifier = aw_orcs_2
		remove_province_modifier = aw_orcs_3

		owner = { add_prestige_excess_to_splendour_effect = { VAL=3} }

	}
}

#25 - monstrous natural tier down. keep if you want, or just rely on removal - MODIFIED: only for tier 1-2 as tier 3 is special for orcs
province_event = {
	id = aw_orcs.25
	title = aw_orcs.25.t
	desc = aw_orcs.25.d
	picture = COMET_SIGHTED_eventPicture
	goto = ROOT
	
	is_triggered_only = yes
	
	trigger = {
		owner = { has_country_modifier = monstrous_nation }

		OR = { 
			has_province_modifier = aw_orcs_1 
			has_province_modifier = aw_orcs_2
		}
	}
	option = {
		name = aw_orcs.25.a
		ai_chance = { factor = 100 }
		if = {
			limit = { 
				has_province_modifier = aw_orcs_3 
			}
			remove_province_modifier = aw_orcs_3
			add_permanent_province_modifier  = {
				name = aw_orcs_2
				duration = -1  
			}
		}
		else_if = {
			limit = { 
				has_province_modifier = aw_orcs_2
			}
			remove_province_modifier = aw_orcs_2
			add_permanent_province_modifier  = {
				name = aw_orcs_1
				duration = -1  
			}
		}
		else_if = {
			limit = { 
				has_province_modifier = aw_orcs_1
			}
			remove_province_modifier = aw_orcs_1
		}
	}
}

############## 30s - Tier Up ###################

#30 - natural tier up - MODIFIED: only for tier 1-2 as tier 3 is special for orcs
province_event = {
	id = aw_orcs.30
	title = aw_orcs.30.t
	desc = aw_orcs.30.d
	picture = COMET_SIGHTED_eventPicture
	goto = ROOT
	
	is_triggered_only = yes
	
	trigger = {
		has_province_modifier = aw_orcs_1
	}
	
	option = {
		name = aw_orcs.30.a
		ai_chance = { factor = 100 }
		if = {
			limit = { 
				has_province_modifier = aw_orcs_1
			}
			remove_province_modifier = aw_orcs_1
			add_permanent_province_modifier  = {
				name = aw_orcs_2
				duration = -1  
			}
		}
		custom_tooltip = aw_how_to_get_more_adventurer_removal_chance_tooltip   #should be added for each increase of level
	}
}

############## 40s - Other Utility ###################

#40 - convert to pop if tolerating
province_event = {
	id = aw_orcs.40
	title = aw_orcs.40.t
	desc = aw_orcs.40.d
	picture = COMET_SIGHTED_eventPicture
	goto = ROOT
	
	is_triggered_only = yes
	
	trigger = {

		OR = {
			has_province_modifier = aw_orcs_1
			has_province_modifier = aw_orcs_2
			has_province_modifier = aw_orcs_3
		}

		owner = { medium_tolerance_orcish_race_trigger = yes }  #obviously change this for the relevant. Note that you'll need some events that can increase tolerance for this to even fire

	}
	option = {
		name = aw_orcs.40.a
		ai_chance = { factor = 100 }

		remove_province_modifier = aw_orcs_1
		remove_province_modifier = aw_orcs_2
		remove_province_modifier = aw_orcs_3

		add_orcish_minority_size_effect = yes

	}
	option = {
		name = aw_orcs.40.b
		ai_chance = { factor = 25 }

		owner = { large_decrease_of_orcish_tolerance_effect = yes }

	}
}

#41 - convert to pop, monstrous subjugation
province_event = {
	id = aw_orcs.41
	title = aw_orcs.41.t
	desc = aw_orcs.41.d
	picture = COMET_SIGHTED_eventPicture
	goto = ROOT
	
	is_triggered_only = yes
	
	trigger = {

		OR = {
			has_province_modifier = aw_orcs_1
			has_province_modifier = aw_orcs_2
			has_province_modifier = aw_orcs_3
		}

		owner = { has_country_modifier = monstrous_nation }

	}
	option = {
		name = aw_orcs.41.a
		ai_chance = { factor = 100 }

		remove_province_modifier = aw_orcs_1
		remove_province_modifier = aw_orcs_2
		remove_province_modifier = aw_orcs_3

		add_orcish_minority_size_effect = yes

	}
	option = {
		name = aw_orcs.41.b
		ai_chance = { factor = 25 }

		owner = { add_prestige = 5 }

	}
}

############## 100s - Special Spawn ###################

#100 - Migratory Clan Spawn
province_event = {
	id = aw_orcs.100
	title = aw_orcs.100.t
	desc = aw_orcs.100.d
	picture = EUROPEAN_REFUGEES_eventPicture
	goto = ROOT
	
	is_triggered_only = yes
	#hidden = yes
	
	#yup thats happening
	option = {
		name = aw_orcs.100.a
		ai_chance = { 
			factor = 1 
		}
		add_permanent_province_modifier  = {
			name = aw_orcs_3
			duration = -1  
		}

		custom_tooltip = aw_how_to_get_more_adventurer_removal_chance_tooltip
	}
}


############## 110s - Special Migration & Propagation ###################

#110 - Migratory Clan base migration
province_event = {
	id = aw_orcs.110
	title = aw_orcs.110.t
	desc = aw_orcs.110.d
	picture = EUROPEAN_REFUGEES_eventPicture
	goto = ROOT
	
	is_triggered_only = yes
	
	trigger = {
		has_province_modifier = aw_orcs_3

		#MAKE SURE TO ADD A any_neighbor_province or relevant check - aka make sure that the immediate = { } effects can even occur before doing the event!
		any_neighbor_province = {
			is_city = yes
			owner = { NOT = { has_country_modifier = monstrous_nation } }

			NOT = { has_province_modifier = aw_orcs_1 }
			NOT = { has_province_modifier = aw_orcs_2 }
			NOT = { has_province_modifier = aw_orcs_3 }
		}
	}
	
	immediate = {
		hidden_effect = {

			######################################################################
			#Here's a list of all migration types for you to copy and paste
			#Note: you may need to add something in the trigger = { } above, for example for random_neighbour_province, as you might want to check if this valid province even has a neighbour you can migrate to!
			######################################################################

			#CHANGEABLE - MIGRATION TYPE - Any adjacent province
			random_neighbor_province = {
				limit = {
					#Base Conditions
					is_city = yes

					NOT = { has_province_modifier = aw_orcs_1 }
					NOT = { has_province_modifier = aw_orcs_2 }
					NOT = { has_province_modifier = aw_orcs_3 }


					#Specific Conditions
				   
				}
				save_event_target_as = aw_orcs_migration_target
			}
			owner = { save_event_target_as = aw_orcs_migration_origin_owner }
		}
	}

	#If migration is within country
	option = {  
		name = aw_orcs.110.a
		ai_chance = { factor = 100 }
		goto = aw_orcs_migration_target
		trigger = {
			event_target:aw_orcs_migration_target = {
				owned_by = event_target:aw_orcs_migration_origin_owner
			}
		}

		#It's migration, so remove modifier from previous province
		tooltip = { #this is fake. the real one happens below
			remove_province_modifier = aw_orcs_1
			remove_province_modifier = aw_orcs_2
			remove_province_modifier = aw_orcs_3
		}

		event_target:aw_orcs_migration_target = {
			# if = {
				# limit = {
					# owned_by = ROOT #you need this as this is only for provinces you own. option 10.b is for others
				# }
				#CHANGEABLE - SPREAD TYPE: Tier makes Tier of the same at target
				if = {
					limit = {
						ROOT = { has_province_modifier = aw_orcs_1 }
					}
					add_permanent_province_modifier = { 
						name = aw_orcs_1
						duration = -1
					}
				}
				else_if = {
					limit = {
						ROOT = { has_province_modifier = aw_orcs_2 }
					}
					add_permanent_province_modifier = { 
						name = aw_orcs_2
						duration = -1
					}
				}
				else_if = {
					limit = {
						ROOT = { has_province_modifier = aw_orcs_3 }
					}
					add_permanent_province_modifier = { 
						name = aw_orcs_3
						duration = -1
					}
				}
				hidden_effect = {
					ROOT = { #real removal. the other real one is in the called event in the else
						remove_province_modifier = aw_orcs_1
						remove_province_modifier = aw_orcs_2
						remove_province_modifier = aw_orcs_3
					}
				}
			# }
		}
	}

	#If migration is sent to OTHER country
	option = {  
		name = aw_orcs.110.b
		ai_chance = { factor = 100 }
		goto = aw_orcs_migration_target
		trigger = {
			event_target:aw_orcs_migration_target = {
				NOT = { owned_by = event_target:aw_orcs_migration_origin_owner }   #if the target isnt in your country, then send an event to them that notifies + adds it on their end
			}
		}

		#It's migration, so remove modifier from previous province
		tooltip = { #this is fake. the real one happens via the event
			remove_province_modifier = aw_orcs_1
			remove_province_modifier = aw_orcs_2
			remove_province_modifier = aw_orcs_3
		}

		custom_tooltip = aw_orcs_migrate_to_other_country_tt
		hidden_effect = {
			event_target:aw_orcs_migration_target = {
				province_event = {
					id = aw_orcs.111
				}
			}
		}
	}
}

#111 - Migratory Clan migration notification
province_event = {
	id = aw_orcs.111
	title = aw_orcs.111.t
	desc = aw_orcs.111.d
	picture = EUROPEAN_REFUGEES_eventPicture
	goto = ROOT
	
	is_triggered_only = yes
	
	option = {
		# deal with it ourselves
		name = aw_basic.0.a
		ai_chance = { 
			factor = 20 
		}

		custom_tooltip = aw_how_to_get_more_adventurer_removal_chance_tooltip

		owner = {
			add_opinion = {
				who = event_target:aw_orcs_migration_origin_owner
				modifier = aw_crossed_border
			}
		}

		#CHANGEABLE - SPREAD TYPE: Tier makes Tier of the same at target ---(NOTE: THIS USUALLY SHOULD BE THE SAME AS id.10 above)----
		if = {
			limit = {
				FROM = { has_province_modifier = aw_orcs_1 }
			}
			add_permanent_province_modifier = { 
				name = aw_orcs_1
				duration = -1
			}
		}
		else_if = {
			limit = {
				FROM = { has_province_modifier = aw_orcs_2 }
			}
			add_permanent_province_modifier = { 
				name = aw_orcs_2
				duration = -1
			}
		}
		else_if = {
			limit = {
				FROM = { has_province_modifier = aw_orcs_3 }
			}
			add_permanent_province_modifier = { 
				name = aw_orcs_3
				duration = -1
			}
		}

	}

	after = {
		FROM = {	#cleanup event to remove the modifiers from the original province
			remove_province_modifier = aw_orcs_1
			remove_province_modifier = aw_orcs_2
			remove_province_modifier = aw_orcs_3
		}
	}
}



############## 120s - Special Removal/Tier Down ###################

#120 - Adventurers defeat higher tier ones with honour. Either tier down once for +tolerance (making pop conversion easier), or remove monster completely
province_event = {
	id = aw_orcs.120
	title = aw_orcs.120.t
	desc = aw_orcs.120.d
	picture = BATTLE_eventPicture
	goto = ROOT
	
	is_triggered_only = yes
	
	trigger = {
		OR = {
			has_province_modifier = aw_orcs_2
			has_province_modifier = aw_orcs_3
		}
		owner = {
			NOT = {
				OR = {
					has_country_modifier = dwarven_administration
					has_country_modifier = dwarven_military
				}
			}
		}
	}

	option = {
		name = aw_orcs.120.a
		ai_chance = { factor = 100 }

		owner = {
			add_estate_influence_modifier = {
				estate = estate_adventurers
				desc = EST_VAL_AW_RESOLVED_ADVENTURERS_WANTED_ENCOUNTER
				duration = 3650
				influence = 5
			}
		}
		if = {
			limit = { has_province_modifier = aw_orcs_2 }
			owner = { small_increase_of_orcish_tolerance_effect = yes }
			add_permanent_province_modifier = { 
				name = aw_orcs_1
				duration = -1
			}
			remove_province_modifier = aw_orcs_2
		}
		else_if = {
			limit = { has_province_modifier = aw_orcs_3 }
			owner = { small_increase_of_orcish_tolerance_effect = yes }
			add_permanent_province_modifier = { 
				name = aw_orcs_1
				duration = -1
			}
			remove_province_modifier = aw_orcs_3
		}
	}

	option = {
		name = aw_orcs.120.b
		ai_chance = { factor = 100 }

		owner = {
			add_estate_influence_modifier = {
				estate = estate_adventurers
				desc = EST_VAL_AW_RESOLVED_ADVENTURERS_WANTED_ENCOUNTER
				duration = 3650
				influence = 5
			}
		}
		remove_province_modifier = aw_orcs_2
		remove_province_modifier = aw_orcs_3
	}
}

#121 - Migratory Clan absorbed by orcs. Remove modifier and add some dev to province
province_event = {
	id = aw_orcs.121
	title = aw_orcs.121.t
	desc = aw_orcs.121.d
	picture = FARMING_eventPicture
	goto = ROOT
	
	is_triggered_only = yes
	
	trigger = {
		has_province_modifier = aw_orcs_3
		owner = {
			OR = {
				has_country_modifier = orcish_administration
				has_country_modifier = orcish_military
			}
		}
	}
	option = {
		name = aw_orcs.121.a
		ai_chance = { factor = 100 }

		remove_province_modifier = aw_orcs_3
		random_list = {
			3 = {
				add_base_tax = 2
			}
			3 = {
				add_base_production = 2
			}
			3 = {
				add_base_manpower = 2
			}
		}
	}
}

#122 - Tier 2 orcs become mercs. Go to tier 1. Gain tolerance if you accept
province_event = {
	id = aw_orcs.122
	title = aw_orcs.122.t
	desc = aw_orcs.122.d
	picture = MILITARY_CAMP_eventPicture
	goto = ROOT
	
	is_triggered_only = yes
	
	trigger = {
		has_province_modifier = aw_orcs_2
		owner = {
			NOT = {
				OR = {
					has_country_modifier = dwarven_administration
					has_country_modifier = dwarven_military
				}
			}
		}
	}

	option = { #hire them
		name = aw_orcs.122.a
		ai_chance = { factor = 100 }

		remove_province_modifier = aw_orcs_2
		add_permanent_province_modifier = { 
			name = aw_orcs_1
			duration = -1
		}
		owner = {
			add_treasury = -100
			small_increase_of_orcish_tolerance_effect = yes
		}
	}

	option = { #pay them to leave
		name = aw_orcs.122.b
		ai_chance = { factor = 100 }

		remove_province_modifier = aw_orcs_2
		add_permanent_province_modifier = { 
			name = aw_orcs_1
			duration = -1
		}
		owner = { add_treasury = -50 }
	}
}

#123 - If you're Corinite, a corinite priest converts them and they turn into a pop
province_event = {
	id = aw_orcs.123
	title = aw_orcs.123.t
	desc = aw_orcs.123.d
	picture = AFRICAN_CARAVAN_eventPicture
	goto = ROOT
	
	is_triggered_only = yes
	
	trigger = {
		owner = { religion = corinite }
		OR = {
			has_province_modifier = aw_orcs_1
			has_province_modifier = aw_orcs_2
			has_province_modifier = aw_orcs_3
		}
		owner = {
			NOT = {
				OR = {
					has_country_modifier = orcish_administration
					has_country_modifier = orcish_military
					has_country_modifier = dwarven_administration
					has_country_modifier = dwarven_military
				}
			}
		}
	}
	option = {
		name = aw_orcs.123.a
		ai_chance = { factor = 100 }

		if = {
			limit = {
				OR = {
					has_province_modifier = aw_orcs_1
					has_province_modifier = aw_orcs_2
				}
			}
			add_orcish_minority_size_effect = yes
		}
		else_if = {
			limit = { has_province_modifier = aw_orcs_3 }
			add_orcish_minority_size_effect = yes
			add_orcish_minority_size_effect = yes
		}

		remove_province_modifier = aw_orcs_1
		remove_province_modifier = aw_orcs_2
		remove_province_modifier = aw_orcs_3
	}
}

#124 - Orc country can Ozarm'Chadash to absorb them. Similar result as 121. LEAVE FOR NOW UNTIL OTHER INFESTATIONS ARE DONE

# Ozarm'chadash
province_event = {
	id = aw_orcs.124
	title = aw_orcs.124.t
	desc = aw_orcs.124.d
	picture = ACCUSATION_eventPicture
	goto = ROOT

	is_triggered_only = yes

	trigger = {
		OR = {
			has_province_modifier = aw_orcs_1
			has_province_modifier = aw_orcs_2
			has_province_modifier = aw_orcs_3
		}
		owner = {
			OR = {
				has_country_modifier = orcish_administration
				has_country_modifier = orcish_military
			}
		}
	}

	# Acutally this is a bad idea
	option = {
		name = aw_orcs.124.a
		ai_chance = {
			factor = 30 
			modifier = {
				factor = 0
				owner = {
					OR = {
						ruler_has_personality = intricate_web_weaver_personality
						ruler_has_personality = charismatic_negotiator_personality
						full_idea_group = diplomatic_ideas
						full_idea_group = spy_ideas
						dip = 5
					}
				}
			}
		}
		owner = {
			add_prestige = -20
			add_legitimacy = -20
		}
	}

	# Persuade the pretender
	option = {
		name = aw_orcs.124.b
		trigger = {
			owner = {
				OR = {
					ruler_has_personality = intricate_web_weaver_personality
					ruler_has_personality = charismatic_negotiator_personality
					full_idea_group = diplomatic_ideas
					full_idea_group = spy_ideas
					dip = 5
				}
			}
		}
		ai_chance = {
			factor = 65 
		}
		random_list = {
			33 = {
				owner = { add_prestige = -10 }

				custom_tooltip = aw_orcs_lets_fight_tooltip
				hidden_effect = {
					if = {
						limit = { owner = { NOT = { mil = 1 } } }
						random_list = {
							90 = {
								owner = { country_event = { id = orc_flavor.2 } }	# Fight lost
								remove_province_modifier = aw_orcs_1
								remove_province_modifier = aw_orcs_2
								remove_province_modifier = aw_orcs_3
							}
							10 = {
								owner = { country_event = { id = orc_flavor.3 } }	# Fight won
								remove_province_modifier = aw_orcs_1
								remove_province_modifier = aw_orcs_2
								remove_province_modifier = aw_orcs_3
							}
						}
					}
					if = {
						limit = { owner = { mil = 1 NOT = { mil = 2 } } }
						random_list = {
							75 = {
								owner = { country_event = { id = orc_flavor.2 } }	# Fight lost
								remove_province_modifier = aw_orcs_1
								remove_province_modifier = aw_orcs_2
								remove_province_modifier = aw_orcs_3
							}
							25 = {
								owner = { country_event = { id = orc_flavor.3 } }	# Fight won
								remove_province_modifier = aw_orcs_1
								remove_province_modifier = aw_orcs_2
								remove_province_modifier = aw_orcs_3
							}
						}
					}
					if = {
						limit = { owner = { mil = 2 NOT = { mil = 3 } } }
						random_list = {
							66 = {
								owner = { country_event = { id = orc_flavor.2 } }	# Fight lost
								remove_province_modifier = aw_orcs_1
								remove_province_modifier = aw_orcs_2
								remove_province_modifier = aw_orcs_3
							}
							33 = {
								owner = { country_event = { id = orc_flavor.3 } }	# Fight won
								remove_province_modifier = aw_orcs_1
								remove_province_modifier = aw_orcs_2
								remove_province_modifier = aw_orcs_3
							}
						}
					}
					if = {
						limit = { owner = { mil = 3 NOT = { mil = 4 } } }
						random_list = {
							50 = {
								owner = { country_event = { id = orc_flavor.2 } }	# Fight lost
								remove_province_modifier = aw_orcs_1
								remove_province_modifier = aw_orcs_2
								remove_province_modifier = aw_orcs_3
							}
							50 = {
								owner = { country_event = { id = orc_flavor.3 } }	# Fight won
								remove_province_modifier = aw_orcs_1
								remove_province_modifier = aw_orcs_2
								remove_province_modifier = aw_orcs_3
							}
						}
					}
					if = {
						limit = { owner = { mil = 4 NOT = { mil = 5 } } }
						random_list = {
							33 = {
								owner = { country_event = { id = orc_flavor.2 } }	# Fight lost
								remove_province_modifier = aw_orcs_1
								remove_province_modifier = aw_orcs_2
								remove_province_modifier = aw_orcs_3
							}
							66 = {
								owner = { country_event = { id = orc_flavor.3 } }	# Fight won
								remove_province_modifier = aw_orcs_1
								remove_province_modifier = aw_orcs_2
								remove_province_modifier = aw_orcs_3
							}
						}
					}
					if = {
						limit = { owner = { mil = 5 NOT = { mil = 6 } } }
						random_list = {
							25 = {
								owner = { country_event = { id = orc_flavor.2 } }	# Fight lost
								remove_province_modifier = aw_orcs_1
								remove_province_modifier = aw_orcs_2
								remove_province_modifier = aw_orcs_3
							}
							75 = {
								owner = { country_event = { id = orc_flavor.3 } }	# Fight won
								remove_province_modifier = aw_orcs_1
								remove_province_modifier = aw_orcs_2
								remove_province_modifier = aw_orcs_3
							}
						}
					}
					if = {
						limit = { owner = { mil = 6 } }
						random_list = {
							5 = {
								owner = { country_event = { id = orc_flavor.2 } }	# Fight lost
								remove_province_modifier = aw_orcs_1
								remove_province_modifier = aw_orcs_2
								remove_province_modifier = aw_orcs_3
							}
							95 = {
								owner = { country_event = { id = orc_flavor.3 } }	# Fight won
								remove_province_modifier = aw_orcs_1
								remove_province_modifier = aw_orcs_2
								remove_province_modifier = aw_orcs_3
							}
						}
					}
				}
			}
			66 = {
				owner = {
					add_stability_or_adm_power = yes
					increase_ruler_dip_effect = yes
				}
				remove_province_modifier = aw_orcs_1
				remove_province_modifier = aw_orcs_2
				remove_province_modifier = aw_orcs_3
			}
		}
	}

	#Fight!
	option = {
		name = aw_orcs.124.c
		ai_chance = {
			factor = 70 
			modifier = {
				factor = 0.5
				owner = {
					OR = {
						ruler_has_personality = intricate_web_weaver_personality
						ruler_has_personality = charismatic_negotiator_personality
						full_idea_group = diplomatic_ideas
						full_idea_group = spy_ideas
						dip = 5
					}
				}
			}
		}
		custom_tooltip = aw_orcs_lets_fight_tooltip
		hidden_effect = {
			if = {
				limit = { owner = { NOT = { mil = 1 } } }
				random_list = {
					90 = {
						owner = { country_event = { id = orc_flavor.2 } }	# Fight lost
						remove_province_modifier = aw_orcs_1
						remove_province_modifier = aw_orcs_2
						remove_province_modifier = aw_orcs_3
					}
					10 = {
						owner = { country_event = { id = orc_flavor.3 } }	# Fight won
						remove_province_modifier = aw_orcs_1
						remove_province_modifier = aw_orcs_2
						remove_province_modifier = aw_orcs_3
					}
				}
			}
			if = {
				limit = { owner = { mil = 1 NOT = { mil = 2 } } }
				random_list = {
					75 = {
						owner = { country_event = { id = orc_flavor.2 } }	# Fight lost
						remove_province_modifier = aw_orcs_1
						remove_province_modifier = aw_orcs_2
						remove_province_modifier = aw_orcs_3
					}
					25 = {
						owner = { country_event = { id = orc_flavor.3 } }	# Fight won
						remove_province_modifier = aw_orcs_1
						remove_province_modifier = aw_orcs_2
						remove_province_modifier = aw_orcs_3
					}
				}
			}
			if = {
				limit = { owner = { mil = 2 NOT = { mil = 3 } } }
				random_list = {
					66 = {
						owner = { country_event = { id = orc_flavor.2 } }	# Fight lost
						remove_province_modifier = aw_orcs_1
						remove_province_modifier = aw_orcs_2
						remove_province_modifier = aw_orcs_3
					}
					33 = {
						owner = { country_event = { id = orc_flavor.3 } }	# Fight won
						remove_province_modifier = aw_orcs_1
						remove_province_modifier = aw_orcs_2
						remove_province_modifier = aw_orcs_3
					}
				}
			}
			if = {
				limit = { owner = { mil = 3 NOT = { mil = 4 } } }
				random_list = {
					50 = {
						owner = { country_event = { id = orc_flavor.2 } }	# Fight lost
						remove_province_modifier = aw_orcs_1
						remove_province_modifier = aw_orcs_2
						remove_province_modifier = aw_orcs_3
					}
					50 = {
						owner = { country_event = { id = orc_flavor.3 } }	# Fight won
						remove_province_modifier = aw_orcs_1
						remove_province_modifier = aw_orcs_2
						remove_province_modifier = aw_orcs_3
					}
				}
			}
			if = {
				limit = { owner = { mil = 4 NOT = { mil = 5 } } }
				random_list = {
					33 = {
						owner = { country_event = { id = orc_flavor.2 } }	# Fight lost
						remove_province_modifier = aw_orcs_1
						remove_province_modifier = aw_orcs_2
						remove_province_modifier = aw_orcs_3
					}
					66 = {
						owner = { country_event = { id = orc_flavor.3 } }	# Fight won
						remove_province_modifier = aw_orcs_1
						remove_province_modifier = aw_orcs_2
						remove_province_modifier = aw_orcs_3
					}
				}
			}
			if = {
				limit = { owner = { mil = 5 NOT = { mil = 6 } } }
				random_list = {
					25 = {
						owner = { country_event = { id = orc_flavor.2 } }	# Fight lost
						remove_province_modifier = aw_orcs_1
						remove_province_modifier = aw_orcs_2
						remove_province_modifier = aw_orcs_3
					}
					75 = {
						owner = { country_event = { id = orc_flavor.3 } }	# Fight won
						remove_province_modifier = aw_orcs_1
						remove_province_modifier = aw_orcs_2
						remove_province_modifier = aw_orcs_3
					}
				}
			}
			if = {
				limit = { owner = { mil = 6 } }
				random_list = {
					10 = {
						owner = { country_event = { id = orc_flavor.2 } }	# Fight lost
						remove_province_modifier = aw_orcs_1
						remove_province_modifier = aw_orcs_2
						remove_province_modifier = aw_orcs_3
					}
					90 = {
						owner = { country_event = { id = orc_flavor.3 } }	# Fight won
						remove_province_modifier = aw_orcs_1
						remove_province_modifier = aw_orcs_2
						remove_province_modifier = aw_orcs_3
					}
				}
			}
		}
	}
}

############## 130s - Special Tier Up ###################

#130 - Warband "settles" and becomes Migratory Clan
province_event = {
	id = aw_orcs.130
	title = aw_orcs.130.t
	desc = aw_orcs.130.d
	picture = EUROPEAN_REFUGEES_eventPicture
	goto = ROOT
	
	is_triggered_only = yes
	
	trigger = {
		has_province_modifier = aw_orcs_2
	}
	option = {
		name = aw_orcs.130.a
		ai_chance = { factor = 100 }

		remove_province_modifier = aw_orcs_2
		add_permanent_province_modifier = { 
			name = aw_orcs_3
			duration = -1
		}
	}
}

############## 140s - Other Special Utility ###################

#140 - Adventurers win in that Orcish duel. Orcs stand down and want to be pops
province_event = {
	id = aw_orcs.140
	title = aw_orcs.140.t
	desc = aw_orcs.140.d
	picture = FARMING_eventPicture
	goto = ROOT
	
	is_triggered_only = yes
	
	trigger = {
		has_province_modifier = aw_orcs_1
		has_province_modifier = aw_orcs_2
		has_province_modifier = aw_orcs_3
		owner = { OR = { has_estate = estate_adventurers has_adventurer_reform = yes  } }
	}

	option = {
		name = aw_orcs.140.a
		ai_chance = { factor = 100 }

		owner = {
			add_estate_influence_modifier = {
				estate = estate_adventurers
				desc = EST_VAL_AW_RESOLVED_ADVENTURERS_WANTED_ENCOUNTER
				duration = 3650
				influence = 5
			}
		}

		if = {
			limit = { has_province_modifier = aw_orcs_1 }
			add_orcish_minority_size_effect = yes
		}
		else_if = {
			limit = {
				OR = {
					has_province_modifier = aw_orcs_2
					has_province_modifier = aw_orcs_3
				}
			}
			add_orcish_minority_size_effect = yes
			add_orcish_minority_size_effect = yes
		}

		remove_province_modifier = aw_orcs_1
		remove_province_modifier = aw_orcs_2
		remove_province_modifier = aw_orcs_3
	}
}

#141 - Orc Migratory Clan forcibly settles low dev province. Culture converts and removes monster modifier
province_event = {
	id = aw_orcs.141
	title = aw_orcs.141.t
	desc = aw_orcs.141.d
	picture = FARMING_eventPicture
	goto = ROOT
	
	is_triggered_only = yes
	
	trigger = {
		has_province_modifier = aw_orcs_3
		NOT = { development = 10 }
	}
	option = {
		name = aw_orcs.141.a
		ai_chance = { factor = 100 }
		if = {
			limit = {
				OR = {
					has_terrain = dwarven_hold
					has_terrain = dwarven_hold_surface
					has_terrain = dwarven_road
					has_terrain = cavern
				}
			}
			change_culture = black_orc
		}
		else = { change_culture = green_orc }
		remove_province_modifier = aw_orcs_3
		hidden_effect = {
			random_list = {
				50 = {
					random_list = {
						3 = {
							add_base_tax = -1
						}
						3 = {
							add_base_production = -1
						}
						3 = {
							add_base_manpower = -1
						}
					}
				}
				50 = {
					random_list = {
						3 = {
							add_base_tax = 1
						}
						3 = {
							add_base_production = 1
						}
						3 = {
							add_base_manpower = 1
						}
					}
				}
			}
		}
	}
}

#142 - Orcish Warband raises host. Spawn rebel army
province_event = {
	id = aw_orcs.142
	title = aw_orcs.142.t
	desc = aw_orcs.142.d
	picture = COMET_SIGHTED_eventPicture
	goto = ROOT
	
	is_triggered_only = yes
	
	trigger = {
		has_province_modifier = aw_orcs_2
	}

	option = {
		name = aw_orcs.142.a
		ai_chance = { factor = 100 }

		spawn_rebels = {
			type = aw_orcs_rebels
			size = 1
		}
	}
}


############## 200s - Special Flavour ###################

#200 - classic orcish raid really, though we could say that Raiding parties and warbands do this anyway. But nice to remind people
province_event = {
	id = aw_orcs.200
	title = aw_orcs.200.t
	desc = aw_orcs.200.d
	picture = BORDER_TENSION_eventPicture
	goto = ROOT
	
	is_triggered_only = yes
	
	trigger = {
		OR = {
			has_province_modifier = aw_orcs_1
			has_province_modifier = aw_orcs_2
			has_province_modifier = aw_orcs_3
		}
		NOT = { devastation = 71 }
	}

	option = {
		name = aw_orcs.200.a
		ai_chance = { factor = 100 }

		add_devastation = 30
	}
}

#201 - 
province_event = {
	id = aw_orcs.201
	title = aw_orcs.201.t
	desc = aw_orcs.201.d
	picture = COUNTRY_COLLAPSE_eventPicture
	goto = ROOT
	
	is_triggered_only = yes
	
	trigger = {
		has_province_modifier = aw_orcs_2
		NOT = { devastation = 81 }
	}

	option = {
		name = aw_orcs.201.a
		ai_chance = { factor = 100 }

		add_devastation = 20
		owner = { add_treasury = -50 }

	}
}

#202 - raid massacre

province_event = {
	id = aw_orcs.202
	title = aw_orcs.202.t
	desc = aw_orcs.202.d
	picture = PLAGUE_eventPicture
	goto = ROOT
	
	is_triggered_only = yes
	
	trigger = {
		has_province_modifier = aw_orcs_2
		NOT = { devastation = 61 }
		owner = { stability = -2 }
	}

	option = { #commit resources to recovery
		name = aw_orcs.202.a
		ai_chance = { factor = 100 }

		owner = {
			add_adm_power = -40
			add_dip_power = -40
			add_mil_power = -40
		}
		add_devastation = 40
	}

	option = { #shit happens
		name = aw_orcs.202.a
		ai_chance = { factor = 100 }

		owner = { add_stability = -1 }
	}
}

#203 - adventurers steal dwarven weapons cache from the orcs
province_event = {
	id = aw_orcs.203
	title = aw_orcs.203.t
	desc = aw_orcs.203.d
	picture = TRADEGOODS_eventPicture
	goto = ROOT
	
	is_triggered_only = yes
	
	trigger = {
		OR = {
			has_province_modifier = aw_orcs_1
			has_province_modifier = aw_orcs_2
			has_province_modifier = aw_orcs_3
		}
	}

	option = {
		name = aw_orcs.203.a
		ai_chance = { factor = 100 }

		if = {
			limit = { has_province_modifier = aw_orcs_1 }
			owner = {
				add_mil_power = 25
				add_years_of_income = 0.1
			}
		}
		else_if = {
			limit = {
				OR = {
					has_province_modifier = aw_orcs_2
					has_province_modifier = aw_orcs_3
				}
			}
			owner = {
				add_mil_power = 50
				add_years_of_income = 0.2
			}
		}
	}
}