# teleportation cb: 
# change wargoal to the province (dur vazhatun) itself + other benefit (power projection) CHECK

# tower:
# test if -1 admin is working



namespace = verkaldromak


#--------------------------------------------------------------------
#--------------------------------------------------------------------
# Add new missions - hidden events
#--------------------------------------------------------------------
#--------------------------------------------------------------------
country_event = {
	id = verkaldromak.500
	title = verkaldromak.500.t
	desc = verkaldromak.500.d
	picture = WAR_OF_THE_ROSES_eventPicture
	
	# fire_only_once = yes
	hidden = yes
	is_triggered_only = yes

	immediate = {
		swap_non_generic_missions = yes
	}
	
	option = {
		name = verkaldromak.500.a
	}
}

country_event = {
	id = verkaldromak.501
	title = verkaldromak.501.t
	desc = verkaldromak.501.d
	picture = WAR_OF_THE_ROSES_eventPicture
	
	# fire_only_once = yes
	hidden = yes
	is_triggered_only = yes

	immediate = {
		set_country_flag = I25_first_sleeper_research_completed
		swap_non_generic_missions = yes
	}
	
	option = {
		name = verkaldromak.500.a
	}
}

country_event = {
	id = verkaldromak.502
	title = verkaldromak.502.t
	desc = verkaldromak.502.d
	picture = WAR_OF_THE_ROSES_eventPicture
	
	# fire_only_once = yes
	hidden = yes
	is_triggered_only = yes

	immediate = {
		set_country_flag = I25_second_sleeper_research_completed
		swap_non_generic_missions = yes
	}
	
	option = {
		name = verkaldromak.500.a
	}
}

country_event = {
	id = verkaldromak.503
	title = verkaldromak.503.t
	desc = verkaldromak.503.d
	picture = WAR_OF_THE_ROSES_eventPicture
	
	# fire_only_once = yes
	hidden = yes
	is_triggered_only = yes

	immediate = {
		set_country_flag = I25_third_sleeper_research_completed
		swap_non_generic_missions = yes
	}
	
	option = {
		name = verkaldromak.500.a
	}
}

country_event = {
	id = verkaldromak.504
	title = verkaldromak.504.t
	desc = verkaldromak.504.d
	picture = WAR_OF_THE_ROSES_eventPicture
	
	# fire_only_once = yes
	hidden = yes
	is_triggered_only = yes

	immediate = {
		set_country_flag = I25_fourth_sleeper_research_completed
		swap_non_generic_missions = yes
	}
	
	option = {
		name = verkaldromak.500.a
	}
}


#--------------------------------------------------------------------
#--------------------------------------------------------------------
# Event chain 1 - throw away mages, accept sleepers
#--------------------------------------------------------------------
#--------------------------------------------------------------------

country_event = {
	id = verkaldromak.1
	title = verkaldromak.1.t
	desc = verkaldromak.1.d
	picture = WAR_OF_THE_ROSES_eventPicture
	
	# fire_only_once = yes
	# hidden = yes
	is_triggered_only = yes
	
	option = {
		name = verkaldromak.1.a

		add_country_modifier = {
			name = I25_allow_sleepers_1
			duration = -1
		}
		hidden_effect = {
			country_event = { id = verkaldromak.3 days = 300 }
		}
	}

	option = {
		name = verkaldromak.1.b
		
		add_country_modifier = {
			name = I25_disallow_sleepers_1
			duration = -1
		}
		hidden_effect = {
			country_event = { id = verkaldromak.2 days = 300 }
		}
	}
}

country_event = {
	id = verkaldromak.2
	title = verkaldromak.2.t
	desc = verkaldromak.2.d
	picture = WAR_OF_THE_ROSES_eventPicture
	
	# fire_only_once = yes
	# hidden = yes
	is_triggered_only = yes
	
	option = {
		name = verkaldromak.2.a

		hidden_effect = {
			country_event = { id = verkaldromak.3 days = 200 }
		}
	}

	option = {
		name = verkaldromak.2.b
		
		add_country_modifier = {
			name = I25_disallow_sleepers_2
			duration = -1
		}
		capital_scope = {
			spawn_rebels = {
				type = anti_tax_rebels
				size = 3
			}
		}
		
		hidden_effect = {
			country_event = { id = verkaldromak.9 days = 100 }
		}
	}
}

country_event = {
	id = verkaldromak.3
	title = verkaldromak.3.t
	desc = verkaldromak.3.d
	picture = WAR_OF_THE_ROSES_eventPicture
	
	# fire_only_once = yes
	# hidden = yes
	is_triggered_only = yes
	
	option = {
		name = verkaldromak.3.a

		add_country_modifier = {
			name = I25_allow_sleepers_3
			duration = -1
		}
		add_estate_loyalty = {
			estate = estate_mages
			loyalty = -15
		}
		hidden_effect = {
			country_event = { id = verkaldromak.5 days = 100 }
		}
	}

	option = {
		name = verkaldromak.3.b
		
		add_country_modifier = {
			name = I25_disallow_sleepers_3
			duration = -1
		}
		hidden_effect = {
			country_event = { id = verkaldromak.4 days = 100 }
		}
	}
}

country_event = {
	id = verkaldromak.4
	title = verkaldromak.4.t
	desc = verkaldromak.4.d
	picture = WAR_OF_THE_ROSES_eventPicture
	
	# fire_only_once = yes
	# hidden = yes
	is_triggered_only = yes
	
	option = {
		name = verkaldromak.4.a

		add_country_modifier = {
			name = I25_allow_sleepers_4
			duration = -1
		}
		add_estate_loyalty = {
			estate = estate_mages
			loyalty = -20
		}

		hidden_effect = {
			country_event = { id = verkaldromak.5 days = 60 }
		}
	}

	option = {
		name = verkaldromak.4.b
		
		add_country_modifier = {
			name = I25_disallow_sleepers_4
			duration = -1
		}
		capital_scope = {
			spawn_rebels = {
				type = anti_tax_rebels
				size = 2
			}
		}
		
		hidden_effect = {
			country_event = { id = verkaldromak.9 days = 200 }
		}
	}
}


country_event = {
	id = verkaldromak.5
	title = verkaldromak.5.t
	desc = verkaldromak.5.d
	picture = WAR_OF_THE_ROSES_eventPicture
	
	# fire_only_once = yes
	# hidden = yes
	is_triggered_only = yes
	
	option = {
		name = verkaldromak.5.a

		add_country_modifier = {
			name = I25_allow_sleepers_5
			duration = -1
		}
		add_estate_loyalty = {
			estate = estate_mages
			loyalty = -10
		}

		hidden_effect = {
			country_event = { id = verkaldromak.6 days = 30 }
		}
	}

	option = {
		name = verkaldromak.5.b
		
		add_country_modifier = {
			name = I25_disallow_sleepers_3
			duration = -1
		}
		
		hidden_effect = {
			country_event = { id = verkaldromak.4 days = 60 }
		}
	}
}


country_event = {
	id = verkaldromak.6
	title = verkaldromak.6.t
	desc = verkaldromak.6.d
	picture = WAR_OF_THE_ROSES_eventPicture
	
	# fire_only_once = yes
	# hidden = yes
	is_triggered_only = yes
	
	option = {
		name = verkaldromak.6.a

		add_country_modifier = {
			name = I25_mages_gain_influence
			duration = -1
		}

		hidden_effect = {
			country_event = { id = verkaldromak.7 days = 30 }
		}
	}
}

country_event = {
	id = verkaldromak.7
	title = verkaldromak.7.t
	desc = verkaldromak.7.d
	picture = WAR_OF_THE_ROSES_eventPicture
	
	# fire_only_once = yes
	# hidden = yes
	is_triggered_only = yes
	
	option = {
		name = verkaldromak.7.a

		# mage disaster
		set_country_flag = verkal_dromak_mage_expulsion

		# unlock next missions
		set_country_flag = I25_want_to_throw_away_mages
		swap_non_generic_missions = yes
	}

	option = {
		name = verkaldromak.7.b
		
		add_country_modifier = {
			name = I25_disallow_sleepers_4
			duration = -1
		}
		capital_scope = {
			spawn_rebels = {
				type = anti_tax_rebels
				size = 2
			}
		}
		
		hidden_effect = {
			country_event = { id = verkaldromak.9 days = 100 }
		}
	}
}


country_event = {
	id = verkaldromak.8
	title = verkaldromak.8.t
	desc = verkaldromak.8.d
	picture = WAR_OF_THE_ROSES_eventPicture
	
	# fire_only_once = yes
	# hidden = yes
	is_triggered_only = yes
	
	option = {
		name = verkaldromak.8.a

		remove_country_modifier = I25_allow_sleepers_1
		remove_country_modifier = I25_disallow_sleepers_1
		remove_country_modifier = I25_disallow_sleepers_2
		remove_country_modifier = I25_allow_sleepers_3
		remove_country_modifier = I25_disallow_sleepers_3
		remove_country_modifier = I25_allow_sleepers_4
		remove_country_modifier = I25_disallow_sleepers_4
		remove_country_modifier = I25_allow_sleepers_5
		remove_country_modifier = I25_mages_gain_influence
		remove_country_modifier = I25_epic_battle

		set_country_flag = banned_magic
		set_country_flag = I25_end_of_oppression
		
		#gets rid of all mages advisors and stuffs in your country
		if = {
			limit = {
				advisor = court_mage
			}
			kill_advisor = court_mage
		}
	}
}


country_event = {
	id = verkaldromak.9
	title = verkaldromak.9.t
	desc = verkaldromak.9.d
	picture = WAR_OF_THE_ROSES_eventPicture
	
	# fire_only_once = yes
	# hidden = yes
	is_triggered_only = yes
	
	option = {
		name = verkaldromak.9.a

		# kill_ruler = yes
		define_ruler = {
			min_age = 132
			dynasty = " "
			max_random_adm  = 4
			max_random_dip  = 4
			max_random_mil  = 4
			hide_skills = yes
		}
		capital_scope = {
			add_devastation = 100
			add_base_production = -1
			add_base_manpower = -1
			add_base_tax = -1
		}
		add_country_modifier = {
			name = I25_epic_battle
			duration = -1
		}
		# mages disaster
		set_country_flag = verkal_dromak_mage_expulsion
		
		# unlock next missions
		set_country_flag = I25_want_to_throw_away_mages
		swap_non_generic_missions = yes
	}
}


#--------------------------------------------------------------------
#--------------------------------------------------------------------
# Event chain 2 - Gotrek the Mad
#--------------------------------------------------------------------
#--------------------------------------------------------------------


country_event = {
	id = verkaldromak.10
	title = verkaldromak.10.t
	desc = verkaldromak.10.d
	picture = WAR_OF_THE_ROSES_eventPicture
	
	# fire_only_once = yes
	# hidden = yes
	is_triggered_only = yes
	
	option = {
		name = verkaldromak.10.a

		define_heir = {
			age = 94
			dynasty = "The Mad"
			name="Gotrek"
			change_adm = 5
			change_dip = 5
			change_mil = 5
			block_disinherit = yes
		}

		set_heir_mage_effect = yes

		hidden_effect = {
			country_event = { id = verkaldromak.11 days = 900 }
		}
	}

	option = {
		name = verkaldromak.10.b
		
		# Figure out what to do with this
		
		add_ruler_modifier = {
			name = ruler_studying_magic
			duration = 1825
		}
		
		hidden_effect = {
			country_event = { id = verkaldromak.12 days = 900 }
		}
	}
}

country_event = {
	id = verkaldromak.11
	title = verkaldromak.11.t
	desc = {
		trigger = {
			NOT = {
				has_ruler = "Gotrek"
			}
		}
		desc = verkaldromak.11.d
	}
	desc = {
		trigger = {
			has_ruler = "Gotrek"
		}
		desc = verkaldromak.11.dd
	}
	picture = WAR_OF_THE_ROSES_eventPicture
	
	# fire_only_once = yes
	# hidden = yes
	is_triggered_only = yes
	
	option = {
		name = verkaldromak.11.a

		if = {
			limit = {
				NOT = {
					has_ruler = "Gotrek"
				}
			}
			kill_ruler = yes
	
			hidden_effect = {
				magic_ruler_give_random_spell_school = yes
				magic_ruler_give_random_spell_school = yes
				magic_ruler_give_random_spell_school = yes
				magic_ruler_give_random_spell_school = yes
				magic_ruler_give_random_spell_school = yes
				magic_ruler_give_random_spell_school = yes
				magic_study_level_up_divination = yes
	
			}
		}

		reduce_stability_or_adm_power = yes
		hidden_effect = {
			country_event = { id = verkaldromak.15 days = 30 }
		}
	}
}

country_event = {
	id = verkaldromak.12
	title = verkaldromak.12.t
	desc = verkaldromak.12.d
	picture = WAR_OF_THE_ROSES_eventPicture
	
	# fire_only_once = yes
	# hidden = yes
	is_triggered_only = yes
	
	option = {
		name = verkaldromak.12.a

		hidden_effect = {
			country_event = { id = verkaldromak.13 days = 30 }
		}
	}

	option = {
		name = verkaldromak.12.b
		
		hidden_effect = {
			country_event = { id = verkaldromak.14 days = 100 }
		}
	}
}

country_event = {
	id = verkaldromak.13
	title = verkaldromak.13.t
	desc = verkaldromak.13.d
	picture = WAR_OF_THE_ROSES_eventPicture
	
	# fire_only_once = yes
	# hidden = yes
	is_triggered_only = yes
	
	option = {
		name = verkaldromak.13.a

		add_estate_loyalty = {
			estate = estate_mages
			loyalty = -30
		}

		hidden_effect = {
			country_event = { id = verkaldromak.14 days = 60 }
		}
	}
}

country_event = {
	id = verkaldromak.14
	title = verkaldromak.14.t
	desc = verkaldromak.14.d
	picture = WAR_OF_THE_ROSES_eventPicture
	
	# fire_only_once = yes
	# hidden = yes
	is_triggered_only = yes
	
	option = {
		name = verkaldromak.14.a

		kill_ruler = yes
		reduce_stability_or_adm_power = yes
		reduce_stability_or_adm_power = yes
		define_ruler = {
			min_age = 94
			dynasty = "The Mad"
			name="Gotrek"
			adm = 5
			dip = 5
			mil = 5
		}
		
		hidden_effect = {
			add_ruler_personality = mage_personality
			magic_ruler_give_random_spell_school = yes
			magic_ruler_give_random_spell_school = yes
			magic_ruler_give_random_spell_school = yes
			magic_ruler_give_random_spell_school = yes
			magic_ruler_give_random_spell_school = yes
			magic_ruler_give_random_spell_school = yes
			magic_study_level_up_divination = yes

			country_event = { id = verkaldromak.15 days = 30 }
		}
	}
}

country_event = {
	id = verkaldromak.15
	title = verkaldromak.15.t
	desc = verkaldromak.15.d
	picture = WAR_OF_THE_ROSES_eventPicture
	
	# fire_only_once = yes
	# hidden = yes
	is_triggered_only = yes
	
	option = {
		name = verkaldromak.15.a

		add_years_of_income = -0.5

		hidden_effect = {
			country_event = { id = verkaldromak.16 days = 180 }
		}
	}

	option = {
		name = verkaldromak.15.b
		
		hidden_effect = {
			country_event = { id = verkaldromak.17 days = 30 }
		}
	}
}

country_event = {
	id = verkaldromak.16
	title = verkaldromak.16.t
	desc = verkaldromak.16.d
	picture = WAR_OF_THE_ROSES_eventPicture
	
	# fire_only_once = yes
	# hidden = yes
	is_triggered_only = yes
	
	option = {
		name = verkaldromak.16.a

		add_years_of_income = -0.5

		hidden_effect = {
			country_event = { id = verkaldromak.18 days = 60 }
		}
	}

	option = {
		name = verkaldromak.16.b
		
		hidden_effect = {
			country_event = { id = verkaldromak.17 days = 30 }
		}
	}
}

country_event = {
	id = verkaldromak.17
	title = verkaldromak.17.t
	desc = verkaldromak.17.d
	picture = WAR_OF_THE_ROSES_eventPicture
	
	# fire_only_once = yes
	# hidden = yes
	is_triggered_only = yes
	
	option = {
		name = verkaldromak.17.a

		add_country_modifier = {
			name = I25_ruler_killed_estates_debuff
			duration = -1
		}
		add_country_modifier = {
			name = I25_ruler_killed_no_investigation
			duration = -1
		}

		hidden_effect = {
			set_country_flag = I25_first_government_missions
			swap_non_generic_missions = yes
		}
	}
}

country_event = {
	id = verkaldromak.18
	title = verkaldromak.18.t
	desc = verkaldromak.18.d
	picture = WAR_OF_THE_ROSES_eventPicture
	
	# fire_only_once = yes
	# hidden = yes
	is_triggered_only = yes
	
	option = {
		name = verkaldromak.18.a

		add_country_modifier = {
			name = I25_ruler_killed_estates_debuff
			duration = -1
		}
		add_country_modifier = {
			name = I25_ruler_killed_investigator_disappeared
			duration = -1
		}

		hidden_effect = {
			set_country_flag = I25_first_government_missions
			swap_non_generic_missions = yes
		}
	}
}


#--------------------------------------------------------------------
#--------------------------------------------------------------------
# First sleeper research missions
#--------------------------------------------------------------------
#--------------------------------------------------------------------

# dream about fighting
country_event = {
	id = verkaldromak.19
	title = verkaldromak.19.t
	desc = verkaldromak.19.d
	picture = WAR_OF_THE_ROSES_eventPicture
	
	# fire_only_once = yes
	# hidden = yes
	is_triggered_only = yes

	immediate = {
		hidden_effect = {
			random_country = {
				limit = {
					has_country_modifier = I25_friend_in_dwarovar
					NOT = { tag = I25 }
				}
				save_event_target_as = verkal_dromak_enemy
			}
		}
	}
	
	option = {
		name = verkaldromak.19.a

		remove_country_modifier = I25_friend_in_dwarovar
		event_target:verkal_dromak_enemy = {
			every_owned_province = {
				add_claim = ROOT
			}
			remove_country_modifier = I25_friend_in_dwarovar
		}
		declare_war_with_cb = {
			who = event_target:verkal_dromak_enemy
			casus_belli = cb_vassalize_mission
		}
	}
}

# dream about development
country_event = {
	id = verkaldromak.20
	title = verkaldromak.20.t
	desc = verkaldromak.20.d
	picture = WAR_OF_THE_ROSES_eventPicture
	
	# fire_only_once = yes
	# hidden = yes
	is_triggered_only = yes
	
	option = {
		name = verkaldromak.20.a

		capital_scope = {
			add_base_production = -1
			add_base_manpower = -1
			add_base_tax = -1
			
			if = { limit = { has_province_modifier = dig_2 } remove_province_modifier = dig_2 add_permanent_province_modifier = { name = dig_1 duration = -1 } }
			else_if = { limit = { has_province_modifier = dig_3 } remove_province_modifier = dig_3 add_permanent_province_modifier = { name = dig_2 duration = -1 } }
			else_if = { limit = { has_province_modifier = dig_4 } remove_province_modifier = dig_4 add_permanent_province_modifier = { name = dig_3 duration = -1 } }
			else_if = { limit = { has_province_modifier = dig_5 } remove_province_modifier = dig_5 add_permanent_province_modifier = { name = dig_4 duration = -1 } }
			else_if = { limit = { has_province_modifier = dig_6 } remove_province_modifier = dig_6 add_permanent_province_modifier = { name = dig_5 duration = -1 } }
			else_if = { limit = { has_province_modifier = dig_7 } remove_province_modifier = dig_7 add_permanent_province_modifier = { name = dig_6 duration = -1 } }
			else_if = { limit = { has_province_modifier = dig_8 } remove_province_modifier = dig_8 add_permanent_province_modifier = { name = dig_7 duration = -1 } }
			else_if = { limit = { has_province_modifier = dig_9 } remove_province_modifier = dig_9 add_permanent_province_modifier = { name = dig_8 duration = -1 } }
			else_if = { limit = { has_province_modifier = dig_10 } remove_province_modifier = dig_10 add_permanent_province_modifier = { name = dig_9 duration = -1 } }
			# trigger_switch = { #Broken in 1.31.5
				# on_trigger = has_province_modifier
				
				# dig_2 = { remove_province_modifier = dig_2 add_permanent_province_modifier = { name = dig_1 duration = -1 } }
				# dig_3 = { remove_province_modifier = dig_3 add_permanent_province_modifier = { name = dig_2 duration = -1 } }
				# dig_4 = { remove_province_modifier = dig_4 add_permanent_province_modifier = { name = dig_3 duration = -1 } }
				# dig_5 = { remove_province_modifier = dig_5 add_permanent_province_modifier = { name = dig_4 duration = -1 } }
				# dig_6 = { remove_province_modifier = dig_6 add_permanent_province_modifier = { name = dig_5 duration = -1 } }
				# dig_7 = { remove_province_modifier = dig_7 add_permanent_province_modifier = { name = dig_6 duration = -1 } }
				# dig_8 = { remove_province_modifier = dig_8 add_permanent_province_modifier = { name = dig_7 duration = -1 } }
				# dig_9 = { remove_province_modifier = dig_9 add_permanent_province_modifier = { name = dig_8 duration = -1 } }
				# dig_10 = { remove_province_modifier = dig_10 add_permanent_province_modifier = { name = dig_9 duration = -1 } }
			# }

			add_permanent_province_modifier = {
				name = I25_dreamed_development
				duration = -1
			}
		}
	}
}

# dream about gold
country_event = {
	id = verkaldromak.21
	title = verkaldromak.21.t
	desc = verkaldromak.21.d
	picture = WAR_OF_THE_ROSES_eventPicture
	
	# fire_only_once = yes
	# hidden = yes
	is_triggered_only = yes
	
	option = {
		name = verkaldromak.21.a

		# Verkal Gulan
		2914 = {
			owner = {
				add_spy_network_from = {
					who = ROOT
					value = 80
				}
			}
		}

		hidden_effect = {
			country_event = { id = verkaldromak.22 days = 200 }
		}
	}
}

country_event = {
	id = verkaldromak.22
	title = verkaldromak.22.t
	desc = verkaldromak.22.d
	picture = WAR_OF_THE_ROSES_eventPicture
	
	# fire_only_once = yes
	# hidden = yes
	is_triggered_only = yes
	
	option = {
		name = verkaldromak.22.a

		random_owned_province = {
			limit = {
				NOT = {
					trade_goods = gold
				}
			}
			change_trade_goods = gold
		}
	}
}

# dream about goblins
country_event = {
	id = verkaldromak.23
	title = verkaldromak.23.t
	desc = verkaldromak.23.d
	picture = WAR_OF_THE_ROSES_eventPicture
	
	# fire_only_once = yes
	# hidden = yes
	is_triggered_only = yes
	
	option = {
		name = verkaldromak.23.a

		add_country_modifier = {
			name = I25_goblin_conversion
			duration = 7300
		}

		every_country = {
			limit = {
				has_country_modifier = dwarven_administration
			}
			largest_decrease_of_goblin_tolerance_effect = yes
			largest_decrease_of_goblin_tolerance_effect = yes
			hidden_effect = {
				set_variable = {
					goblin_race_tolerance_ai = 1
				}
			}
		}
	}
}


#--------------------------------------------------------------------
#--------------------------------------------------------------------
# Second sleeper research missions
#--------------------------------------------------------------------
#--------------------------------------------------------------------

# dream about other dwarves 1
country_event = {
	id = verkaldromak.24
	title = verkaldromak.24.t
	desc = verkaldromak.24.d
	picture = WAR_OF_THE_ROSES_eventPicture
	
	# fire_only_once = yes
	# hidden = yes
	is_triggered_only = yes
	
	option = {
		name = verkaldromak.24.a

		swap_non_generic_missions = yes
	}
}

# dream about other dwarves 2
country_event = {
	id = verkaldromak.25
	title = verkaldromak.25.t
	desc = verkaldromak.25.d
	picture = WAR_OF_THE_ROSES_eventPicture
	
	# fire_only_once = yes
	# hidden = yes
	is_triggered_only = yes
	
	immediate = {
		hidden_effect = {
			if = {
				limit = {
					3003 = {
						owned_by = event_target:verkal_dromak_teleportation_victim
					}
				}
				teleport_units_in_province1_to_province2_from_for_cost = {
					province1 = 4323
					province2 = 3003
					from = ROOT
					cost = -50
				}
			}
			else = {
				teleport_units_in_province1_to_province2_from_for_cost = {
					province1 = 4323
					province2 = 4020
					from = ROOT
					cost = -50
				}
			}
			
		}
	}

	option = {
		name = verkaldromak.25.a
	}
}

# dream about other dwarves 3
country_event = {
	id = verkaldromak.26
	title = verkaldromak.26.t
	desc = verkaldromak.26.d
	picture = WAR_OF_THE_ROSES_eventPicture
	
	# fire_only_once = yes
	# hidden = yes
	is_triggered_only = yes
	
	option = {
		name = verkaldromak.26.a

		4020 = {
			add_core = I25
			add_permanent_province_modifier = {
				name = I25_permanent_portal
				duration = -1
			}
		}
	}
}

# dream about our ancestors 1
country_event = {
	id = verkaldromak.27
	title = verkaldromak.27.t
	desc = verkaldromak.27.d
	picture = WAR_OF_THE_ROSES_eventPicture
	
	# fire_only_once = yes
	# hidden = yes
	is_triggered_only = yes
	
	option = {
		name = verkaldromak.27.a

		swap_non_generic_missions = yes
	}
}

# dream about mountains
country_event = {
	id = verkaldromak.29
	title = verkaldromak.29.t
	desc = verkaldromak.29.d
	picture = WAR_OF_THE_ROSES_eventPicture
	
	# fire_only_once = yes
	# hidden = yes
	is_triggered_only = yes
	
	option = {
		name = verkaldromak.29.a

		random_owned_province = {
			limit = {
				has_terrain = cavern
				can_spawn_expedition = yes
			}
			spawn_expedition = yes
		}
	}
}


# dream about our hold 1
country_event = {
	id = verkaldromak.30
	title = verkaldromak.30.t
	desc = verkaldromak.30.d
	picture = WAR_OF_THE_ROSES_eventPicture
	
	# fire_only_once = yes
	# hidden = yes
	is_triggered_only = yes
	
	option = {
		name = verkaldromak.30.a

		swap_non_generic_missions = yes
	}
}


#--------------------------------------------------------------------
#--------------------------------------------------------------------
# Event chain 3 - Kraken
#--------------------------------------------------------------------
#--------------------------------------------------------------------
# losses based on morale
# 			3x medium 2x small 1x big
# morale
# +2		20			8		40
# +1		22			9		45
# 0			25			10		50
# -1		28			11		55
# -2		30			12		60
# -3		33			13		65
# -4		35			15		70

# preparation
country_event = {
	id = verkaldromak.31
	title = verkaldromak.31.t
	desc = verkaldromak.31.d
	picture = WAR_OF_THE_ROSES_eventPicture
	
	# fire_only_once = yes
	# hidden = yes
	is_triggered_only = yes
	
	option = {
		trigger = {
			NOT = {
				has_country_modifier = I25_kraken_maps
			}
		}
		add_treasury = -2000
		add_country_modifier = {
			name = I25_kraken_maps
			duration = -1
		}
		hidden_effect = {
			country_event = { id = verkaldromak.31 days = 30 }
		}
		name = verkaldromak.31.a
	}
	option = {
		trigger = {
			NOT = {
				has_country_modifier = I25_kraken_magical_protection
			}
		}
		add_treasury = -2000
		add_country_modifier = {
			name = I25_kraken_magical_protection
			duration = -1
		}
		hidden_effect = {
			country_event = { id = verkaldromak.31 days = 30 }
		}
		name = verkaldromak.31.b
	}
	option = {
		trigger = {
			NOT = {
				has_country_modifier = I25_kraken_knowledge
			}
		}
		add_treasury = -2000
		add_country_modifier = {
			name = I25_kraken_knowledge
			duration = -1
		}
		hidden_effect = {
			country_event = { id = verkaldromak.31 days = 60 }
		}
		name = verkaldromak.31.c
	}
	option = {
		trigger = {
			NOT = {
				has_country_modifier = I25_kraken_training
			}
		}
		add_treasury = -2000
		add_country_modifier = {
			name = I25_kraken_training
			duration = -1
		}
		hidden_effect = {
			country_event = { id = verkaldromak.31 days = 90 }
		}
		name = verkaldromak.31.e
	}
	option = {
		trigger = {
			NOT = {
				has_country_modifier = I25_kraken_blessing
			}
		}
		add_treasury = -2000
		add_country_modifier = {
			name = I25_kraken_blessing
			duration = -1
		}
		hidden_effect = {
			country_event = { id = verkaldromak.31 days = 10 }
		}
		name = verkaldromak.31.f
	}
	option = {
		trigger = {
			NOT = {
				has_country_modifier = I25_kraken_digging
			}
		}
		add_treasury = -2000
		add_country_modifier = {
			name = I25_kraken_digging
			duration = -1
		}
		hidden_effect = {
			country_event = { id = verkaldromak.31 days = 20 }
		}
		name = verkaldromak.31.g
	}
	option = {
		highlight = yes
		hidden_effect = {
			country_event = { id = verkaldromak.32 days = 30 }
		}
		name = verkaldromak.31.h
	}
}

# going down
country_event = {
	id = verkaldromak.32
	title = verkaldromak.32.t
	desc = verkaldromak.32.d
	picture = WAR_OF_THE_ROSES_eventPicture
	
	# fire_only_once = yes
	# hidden = yes
	is_triggered_only = yes

	immediate = {
		hidden_effect = {
			set_variable = {
				which = kraken_man
				value = 150
			}
			set_variable = {
				which = kraken_morale
				value = 10
			}
	
			if = {
				limit = {
					has_country_modifier = I25_kraken_training
				}
				change_variable = {
					which = kraken_morale
					value = 2
				}
			}
		}
		custom_tooltip = I25_kraken_summary_tooltip
	}
	
	option = {
		name = verkaldromak.32.a

		hidden_effect = {
			country_event = { id = verkaldromak.33 days = 100 }
		}
	}
}

# before small obstacle
country_event = {
	id = verkaldromak.33
	title = verkaldromak.33.t
	desc = verkaldromak.33.d
	picture = WAR_OF_THE_ROSES_eventPicture
	
	# fire_only_once = yes
	# hidden = yes
	is_triggered_only = yes
	
	option = {
		# we have maps :)
		name = verkaldromak.33.a
		trigger = {
			has_country_modifier = I25_kraken_maps
		}
		highlight = yes

		hidden_effect = {
			country_event = { id = verkaldromak.35 days = 60 }
		}
	}
	option = {
		name = verkaldromak.33.b

		hidden_effect = {
			country_event = { id = verkaldromak.34 days = 30 }
		}
	}
	option = {
		name = verkaldromak.33.c

		hidden_effect = {
			country_event = { id = verkaldromak.34 days = 40 }
		}
	}
}

# small obstacle
country_event = {
	id = verkaldromak.34
	title = verkaldromak.34.t
	desc = verkaldromak.34.d
	picture = WAR_OF_THE_ROSES_eventPicture
	
	# fire_only_once = yes
	# hidden = yes
	is_triggered_only = yes

	immediate = {
		hidden_effect = {
			change_variable = {
				which = kraken_morale
				value = 2
			}
		}
		custom_tooltip = I25_kraken_gain_morale_tooltip
	}
	
	option = {
		name = verkaldromak.34.a

		hidden_effect = {
			country_event = { id = verkaldromak.35 days = 30 }
		}
	}
}

# go to unexplored parts
country_event = {
	id = verkaldromak.35
	title = verkaldromak.35.t
	desc = verkaldromak.35.d
	picture = WAR_OF_THE_ROSES_eventPicture
	
	# fire_only_once = yes
	# hidden = yes
	is_triggered_only = yes
	
	option = {
		name = verkaldromak.35.a

		hidden_effect = {
			country_event = { id = verkaldromak.36 days = 60 }
		}
	}
}

# wild strange animals ambush
country_event = {
	id = verkaldromak.36
	title = verkaldromak.36.t
	desc = verkaldromak.36.d
	picture = WAR_OF_THE_ROSES_eventPicture
	
	# fire_only_once = yes
	# hidden = yes
	is_triggered_only = yes

	immediate = {
		hidden_effect = {
			if = { limit = { check_variable = { kraken_morale = 14 } } set_variable = { kraken_lost_man = 20 } }
			else_if = { limit = { check_variable = { kraken_morale = 12 } } set_variable = { kraken_lost_man = 22 } }
			else_if = { limit = { check_variable = { kraken_morale = 10 } } set_variable = { kraken_lost_man = 25 } }
			else_if = { limit = { check_variable = { kraken_morale = 8 } } set_variable = { kraken_lost_man = 28 } }
			else_if = { limit = { check_variable = { kraken_morale = 6 } } set_variable = { kraken_lost_man = 30 } }
			else_if = { limit = { check_variable = { kraken_morale = 4 } } set_variable = { kraken_lost_man = 33 } }
			else = { set_variable = { kraken_lost_man = 35 } }
			subtract_variable = {
				which = kraken_man
				which = kraken_lost_man
			}
		}
		custom_tooltip = I25_kraken_lose_man_tooltip
	}
	
	option = {
		name = verkaldromak.36.a		

		hidden_effect = {
			country_event = { id = verkaldromak.37 days = 30 }
		}
	}

	option = {
		name = verkaldromak.36.b

		set_country_flag = kraken_animal_skin

		hidden_effect = {
			country_event = { id = verkaldromak.37 days = 60 }
		}
	}
}

# cavern entrance
country_event = {
	id = verkaldromak.37
	title = verkaldromak.37.t
	desc = verkaldromak.37.d
	picture = WAR_OF_THE_ROSES_eventPicture
	
	# fire_only_once = yes
	# hidden = yes
	is_triggered_only = yes
	
	immediate = {
		custom_tooltip = I25_kraken_summary_tooltip
	}
	
	
	option = {
		name = verkaldromak.37.a

		hidden_effect = {
			random_list = {
				20 = { country_event = { id = verkaldromak.38 days = 60 } }
				20 = { country_event = { id = verkaldromak.39 days = 60 } }
				20 = { country_event = { id = verkaldromak.40 days = 60 } }
				20 = { country_event = { id = verkaldromak.41 days = 60 } }
				20 = { country_event = { id = verkaldromak.42 days = 60 } }
			}
			random_list = {
				20 = { country_event = { id = verkaldromak.38 days = 150 } }
				20 = { country_event = { id = verkaldromak.39 days = 150 } }
				20 = { country_event = { id = verkaldromak.40 days = 150 } }
				20 = { country_event = { id = verkaldromak.41 days = 150 } }
				20 = { country_event = { id = verkaldromak.42 days = 150 } }
			}
			country_event = { id = verkaldromak.43 days = 250 }
			set_country_flag = kraken_left
		}
	}

	option = {
		name = verkaldromak.37.b

		hidden_effect = {
			random_list = {
				20 = { country_event = { id = verkaldromak.38 days = 40 } }
				20 = { country_event = { id = verkaldromak.39 days = 40 } }
				20 = { country_event = { id = verkaldromak.40 days = 40 } }
				20 = { country_event = { id = verkaldromak.41 days = 40 } }
				20 = { country_event = { id = verkaldromak.42 days = 40 } }
			}
			country_event = { id = verkaldromak.43 days = 130 }
			set_country_flag = kraken_right
		}
	}

	option = {
		name = verkaldromak.37.c

		hidden_effect = {
			random_list = {
				20 = { country_event = { id = verkaldromak.38 days = 80 } }
				20 = { country_event = { id = verkaldromak.39 days = 80 } }
				20 = { country_event = { id = verkaldromak.40 days = 80 } }
				20 = { country_event = { id = verkaldromak.41 days = 80 } }
				20 = { country_event = { id = verkaldromak.42 days = 80 } }
			}
			random_list = {
				20 = { country_event = { id = verkaldromak.38 days = 200 } }
				20 = { country_event = { id = verkaldromak.39 days = 200 } }
				20 = { country_event = { id = verkaldromak.40 days = 200 } }
				20 = { country_event = { id = verkaldromak.41 days = 200 } }
				20 = { country_event = { id = verkaldromak.42 days = 200 } }
			}
			random_list = {
				20 = { country_event = { id = verkaldromak.38 days = 300 } }
				20 = { country_event = { id = verkaldromak.39 days = 300 } }
				20 = { country_event = { id = verkaldromak.40 days = 300 } }
				20 = { country_event = { id = verkaldromak.41 days = 300 } }
				20 = { country_event = { id = verkaldromak.42 days = 300 } }
			}
			country_event = { id = verkaldromak.43 days = 420 }
			set_country_flag = kraken_forward
		}
	}
}

# small enemy
country_event = {
	id = verkaldromak.38
	title = verkaldromak.38.t
	desc = verkaldromak.38.d
	picture = WAR_OF_THE_ROSES_eventPicture
	
	# fire_only_once = yes
	# hidden = yes
	is_triggered_only = yes

	trigger = {
		check_variable = {
			which = kraken_man
			value = 1
		}
	}

	immediate = {
		hidden_effect = {
			if = { limit = { check_variable = { kraken_morale = 14 } } set_variable = { kraken_lost_man = 8 } }
			else_if = { limit = { check_variable = { kraken_morale = 12 } } set_variable = { kraken_lost_man = 9 } }
			else_if = { limit = { check_variable = { kraken_morale = 10 } } set_variable = { kraken_lost_man = 10 } }
			else_if = { limit = { check_variable = { kraken_morale = 8 } } set_variable = { kraken_lost_man = 11 } }
			else_if = { limit = { check_variable = { kraken_morale = 6 } } set_variable = { kraken_lost_man = 12 } }
			else_if = { limit = { check_variable = { kraken_morale = 4 } } set_variable = { kraken_lost_man = 13 } }
			else = { set_variable = { kraken_lost_man = 15 } }
			subtract_variable = {
				which = kraken_man
				which = kraken_lost_man
			}
		}
		custom_tooltip = I25_kraken_lose_man_tooltip
	}
	
	option = {
		trigger = {
			check_variable = {
				which = kraken_man
				value = 1
			}
		}
		name = verkaldromak.38.a
	}

	option = {
		trigger = {
			NOT = {
				check_variable = {
					which = kraken_man
					value = 1
				}
			}
		}
		name = verkaldromak.38.b
		country_event = { id = verkaldromak.301 days = 2 } 
	}
}

# medium enemy
country_event = {
	id = verkaldromak.39
	title = verkaldromak.39.t
	desc = verkaldromak.39.d
	picture = WAR_OF_THE_ROSES_eventPicture
	
	# fire_only_once = yes
	# hidden = yes
	is_triggered_only = yes

	trigger = {
		check_variable = {
			which = kraken_man
			value = 1
		}
	}
	
	immediate = {
		hidden_effect = {
			if = { limit = { check_variable = { kraken_morale = 14 } } set_variable = { kraken_lost_man = 20 } }
			else_if = { limit = { check_variable = { kraken_morale = 12 } } set_variable = { kraken_lost_man = 22 } }
			else_if = { limit = { check_variable = { kraken_morale = 10 } } set_variable = { kraken_lost_man = 25 } }
			else_if = { limit = { check_variable = { kraken_morale = 8 } } set_variable = { kraken_lost_man = 28 } }
			else_if = { limit = { check_variable = { kraken_morale = 6 } } set_variable = { kraken_lost_man = 30 } }
			else_if = { limit = { check_variable = { kraken_morale = 4 } } set_variable = { kraken_lost_man = 33 } }
			else = { set_variable = { kraken_lost_man = 35 } }
			subtract_variable = {
				which = kraken_man
				which = kraken_lost_man
			}
		}
		custom_tooltip = I25_kraken_lose_man_tooltip
	}

	option = {
		trigger = {
			check_variable = {
				which = kraken_man
				value = 1
			}
		}
		name = verkaldromak.39.a
	}

	option = {
		trigger = {
			NOT = {
				check_variable = {
					which = kraken_man
					value = 1
				}
			}
		}
		name = verkaldromak.39.b
		country_event = { id = verkaldromak.301 days = 2 } 
	}
}

# big enemy
country_event = {
	id = verkaldromak.40
	title = verkaldromak.40.t
	desc = verkaldromak.40.d
	picture = WAR_OF_THE_ROSES_eventPicture
	
	# fire_only_once = yes
	# hidden = yes
	is_triggered_only = yes

	trigger = {
		check_variable = {
			which = kraken_man
			value = 1
		}
	}

	immediate = {
		hidden_effect = {
			if = { limit = { check_variable = { kraken_morale = 14 } } set_variable = { kraken_lost_man = 40 } }
			else_if = { limit = { check_variable = { kraken_morale = 12 } } set_variable = { kraken_lost_man = 45 } }
			else_if = { limit = { check_variable = { kraken_morale = 10 } } set_variable = { kraken_lost_man = 50 } }
			else_if = { limit = { check_variable = { kraken_morale = 8 } } set_variable = { kraken_lost_man = 55 } }
			else_if = { limit = { check_variable = { kraken_morale = 6 } } set_variable = { kraken_lost_man = 60 } }
			else_if = { limit = { check_variable = { kraken_morale = 4 } } set_variable = { kraken_lost_man = 65 } }
			else = { set_variable = { kraken_lost_man = 70 } }
			subtract_variable = {
				which = kraken_man
				which = kraken_lost_man
			}
		}
		custom_tooltip = I25_kraken_lose_man_tooltip
	}

	option = {
		trigger = {
			check_variable = {
				which = kraken_man
				value = 1
			}
		}
		name = verkaldromak.40.a
	}

	option = {
		trigger = {
			NOT = {
				check_variable = {
					which = kraken_man
					value = 1
				}
			}
		}
		name = verkaldromak.40.b
		country_event = { id = verkaldromak.301 days = 2 } 
	}
}

# lost in the caves
country_event = {
	id = verkaldromak.41
	title = verkaldromak.41.t
	desc = verkaldromak.41.d
	picture = WAR_OF_THE_ROSES_eventPicture
	
	# fire_only_once = yes
	# hidden = yes
	is_triggered_only = yes

	trigger = {
		check_variable = {
			which = kraken_man
			value = 1
		}
	}

	immediate = {
		hidden_effect = {
			subtract_variable = { which = kraken_morale value = 2 }
		}
		custom_tooltip = I25_kraken_lose_morale_tooltip
	}
	
	option = {
		name = verkaldromak.41.a
	}
}

# nice flowers
country_event = {
	id = verkaldromak.42
	title = verkaldromak.42.t
	desc = verkaldromak.42.d
	picture = WAR_OF_THE_ROSES_eventPicture
	
	# fire_only_once = yes
	# hidden = yes
	is_triggered_only = yes

	trigger = {
		check_variable = {
			which = kraken_man
			value = 1
		}
	}

	immediate = {
		hidden_effect = {
			change_variable = { which = kraken_morale value = 2 }
		}
		custom_tooltip = I25_kraken_gain_morale_tooltip
	}
	
	option = {
		name = verkaldromak.42.a
	}
}

# cavern entrance v2
country_event = {
	id = verkaldromak.43
	title = verkaldromak.43.t
	desc = verkaldromak.43.d
	picture = WAR_OF_THE_ROSES_eventPicture
	
	# fire_only_once = yes
	# hidden = yes
	is_triggered_only = yes

	trigger = {
		check_variable = {
			which = kraken_man
			value = 1
		}
	}

	immediate = {
		hidden_effect = {
			subtract_variable = {
				which = kraken_morale
				value = 2
			}
		}
		custom_tooltip = I25_kraken_lose_morale_tooltip
		custom_tooltip = I25_kraken_summary_tooltip
	}
	
	option = {
		trigger = {
			NOT = {
				has_country_flag = kraken_left
			}
		}

		name = verkaldromak.43.a

		hidden_effect = {
			random_list = {
				20 = { country_event = { id = verkaldromak.38 days = 60 } }
				20 = { country_event = { id = verkaldromak.39 days = 60 } }
				20 = { country_event = { id = verkaldromak.40 days = 60 } }
				20 = { country_event = { id = verkaldromak.41 days = 60 } }
				20 = { country_event = { id = verkaldromak.42 days = 60 } }
			}
			random_list = {
				20 = { country_event = { id = verkaldromak.38 days = 150 } }
				20 = { country_event = { id = verkaldromak.39 days = 150 } }
				20 = { country_event = { id = verkaldromak.40 days = 150 } }
				20 = { country_event = { id = verkaldromak.41 days = 150 } }
				20 = { country_event = { id = verkaldromak.42 days = 150 } }
			}
			country_event = { id = verkaldromak.43 days = 250 }
			set_country_flag = kraken_left
		}
	}

	option = {
		trigger = {
			NOT = {
				has_country_flag = kraken_right
			}
		}

		name = verkaldromak.43.b

		hidden_effect = {
			random_list = {
				20 = { country_event = { id = verkaldromak.38 days = 40 } }
				20 = { country_event = { id = verkaldromak.39 days = 40 } }
				20 = { country_event = { id = verkaldromak.40 days = 40 } }
				20 = { country_event = { id = verkaldromak.41 days = 40 } }
				20 = { country_event = { id = verkaldromak.42 days = 40 } }
			}
			country_event = { id = verkaldromak.43 days = 130 }
			set_country_flag = kraken_right
		}
	}

	option = {
		trigger = {
			NOT = {
				has_country_flag = kraken_forward
			}
		}

		name = verkaldromak.43.c

		hidden_effect = {
			random_list = {
				20 = { country_event = { id = verkaldromak.38 days = 80 } }
				20 = { country_event = { id = verkaldromak.39 days = 80 } }
				20 = { country_event = { id = verkaldromak.40 days = 80 } }
				20 = { country_event = { id = verkaldromak.41 days = 80 } }
				20 = { country_event = { id = verkaldromak.42 days = 80 } }
			}
			random_list = {
				20 = { country_event = { id = verkaldromak.38 days = 200 } }
				20 = { country_event = { id = verkaldromak.39 days = 200 } }
				20 = { country_event = { id = verkaldromak.40 days = 200 } }
				20 = { country_event = { id = verkaldromak.41 days = 200 } }
				20 = { country_event = { id = verkaldromak.42 days = 200 } }
			}
			random_list = {
				20 = { country_event = { id = verkaldromak.38 days = 300 } }
				20 = { country_event = { id = verkaldromak.39 days = 300 } }
				20 = { country_event = { id = verkaldromak.40 days = 300 } }
				20 = { country_event = { id = verkaldromak.41 days = 300 } }
				20 = { country_event = { id = verkaldromak.42 days = 300 } }
			}
			country_event = { id = verkaldromak.43 days = 420 }
			set_country_flag = kraken_forward
		}
	}

	option = {
		trigger = {
			NOT = {
				has_country_flag = kraken_dig
			}
			has_country_modifier = I25_kraken_digging
		}
		highlight = yes

		name = verkaldromak.43.e

		hidden_effect = {
			random_list = {
				20 = { country_event = { id = verkaldromak.38 days = 100 } }
				20 = { country_event = { id = verkaldromak.39 days = 100 } }
				20 = { country_event = { id = verkaldromak.40 days = 100 } }
				20 = { country_event = { id = verkaldromak.41 days = 100 } }
				20 = { country_event = { id = verkaldromak.42 days = 100 } }
			}
			random_list = {
				20 = { country_event = { id = verkaldromak.38 days = 180 } }
				20 = { country_event = { id = verkaldromak.39 days = 180 } }
				20 = { country_event = { id = verkaldromak.40 days = 180 } }
				20 = { country_event = { id = verkaldromak.41 days = 180 } }
				20 = { country_event = { id = verkaldromak.42 days = 180 } }
			}
			country_event = { id = verkaldromak.43 days = 290 }
			set_country_flag = kraken_dig
		}
	}

	# return
	option = {
		name = verkaldromak.43.r

		hidden_effect = {
			country_event = { id = verkaldromak.44 days = 300 }
			clr_country_flag = kraken_left
			clr_country_flag = kraken_right
			clr_country_flag = kraken_forward
			clr_country_flag = kraken_dig
		}
	}
}

# Expedition died
country_event = {
	id = verkaldromak.301
	title = verkaldromak.301.t
	desc = verkaldromak.301.d
	picture = WAR_OF_THE_ROSES_eventPicture
	
	# fire_only_once = yes
	# hidden = yes
	is_triggered_only = yes

	immediate = {
		hidden_effect = {
			clr_country_flag = kraken_left
			clr_country_flag = kraken_right
			clr_country_flag = kraken_forward
			clr_country_flag = kraken_dig
		}
	}
	
	option = {
		name = verkaldromak.301.a
		

		hidden_effect = {
			country_event = { id = verkaldromak.302 days = 365 }
		}
	}
}

# Expedition died, send adventurers?
country_event = {
	id = verkaldromak.302
	title = verkaldromak.302.t
	desc = verkaldromak.302.d
	picture = WAR_OF_THE_ROSES_eventPicture
	
	# fire_only_once = yes
	# hidden = yes
	is_triggered_only = yes

	# send foreign expedition
	option = {
		name = verkaldromak.302.a

		remove_country_modifier = I25_kraken_lost

		add_treasury = -10000

		hidden_effect = {
			country_event = { id = verkaldromak.48 days = 200 }
		}
	}

	# its too expensive
	option = {
		name = verkaldromak.302.b

		remove_country_modifier = I25_kraken_lost
		add_country_modifier = {
			name = I25_expedition_not_sent
			duration = 365
		}
	}
}


# What to tell the king?
country_event = {
	id = verkaldromak.44
	title = verkaldromak.44.t
	desc = verkaldromak.44.d
	picture = WAR_OF_THE_ROSES_eventPicture
	
	# fire_only_once = yes
	# hidden = yes
	is_triggered_only = yes
	
	# tell the truth
	option = {
		name = verkaldromak.44.a

		add_country_modifier = {
			name = I25_kraken_truth
			duration = -1
		}

		hidden_effect = {
			country_event = { id = verkaldromak.47 days = 1825 }
		}
	}

	# show "kraken" skin
	option = {
		name = verkaldromak.44.b

		add_country_modifier = {
			name = I25_kraken_got_skin
			duration = -1
		}

		hidden_effect = {
			country_event = { id = verkaldromak.45 days = 1095 }
		}
	}

	# just lie
	option = {
		name = verkaldromak.44.c

		add_country_modifier = {
			name = I25_kraken_killed_no_proof
			duration = -1
		}

		hidden_effect = {
			country_event = { id = verkaldromak.45 days = 1825 }
		}
	}

	option = {
		name = verkaldromak.44.e

		add_country_modifier = {
			name = I25_kraken_lost
			duration = -1
		}

		hidden_effect = {
			country_event = { id = verkaldromak.46 days = 1095 }
		}
	}
}

# You lied!!
country_event = {
	id = verkaldromak.45
	title = verkaldromak.45.t
	desc = verkaldromak.45.d
	picture = WAR_OF_THE_ROSES_eventPicture
	
	# fire_only_once = yes
	# hidden = yes
	is_triggered_only = yes
	
	option = {
		name = verkaldromak.45.a

		remove_country_modifier = I25_kraken_got_skin
		remove_country_modifier = I25_kraken_killed_no_proof
		add_country_modifier = {
			name = I25_kraken_lied
			duration = 365
		}
	}
}


# Kraken still lives
country_event = {
	id = verkaldromak.46
	title = verkaldromak.46.t
	desc = verkaldromak.46.d
	picture = WAR_OF_THE_ROSES_eventPicture
	
	# fire_only_once = yes
	# hidden = yes
	is_triggered_only = yes
	
	# send foreign expedition
	option = {
		name = verkaldromak.46.a

		remove_country_modifier = I25_kraken_lost

		add_treasury = -10000

		hidden_effect = {
			country_event = { id = verkaldromak.48 days = 200 }
		}
	}

	# its too expensive
	option = {
		name = verkaldromak.46.b

		remove_country_modifier = I25_kraken_lost
		add_country_modifier = {
			name = I25_expedition_not_sent
			duration = 365
		}
	}
}

# They didn't find anything
country_event = {
	id = verkaldromak.47
	title = verkaldromak.47.t
	desc = verkaldromak.47.d
	picture = WAR_OF_THE_ROSES_eventPicture
	
	# fire_only_once = yes
	# hidden = yes
	is_triggered_only = yes
	
	# send foreign expedition
	option = {
		name = verkaldromak.47.a

		remove_country_modifier = I25_kraken_truth

		add_treasury = -10000

		hidden_effect = {
			country_event = { id = verkaldromak.48 days = 200 }
		}
	}

	# its too expensive
	option = {
		name = verkaldromak.47.b

		remove_country_modifier = I25_kraken_truth
	}
}

# Expedition killed the kraken!
country_event = {
	id = verkaldromak.48
	title = verkaldromak.48.t
	desc = verkaldromak.48.d
	picture = WAR_OF_THE_ROSES_eventPicture
	
	# fire_only_once = yes
	# hidden = yes
	is_triggered_only = yes
	
	option = {
		name = verkaldromak.48.a

		add_country_modifier = {
			name = I25_adventures_killed_kraken
			duration = -1
		}

		hidden_effect = {
			country_event = { id = verkaldromak.49 days = 600 }
		}
	}
}


# Fking bastards
country_event = {
	id = verkaldromak.49
	title = verkaldromak.49.t
	desc = verkaldromak.49.d
	picture = WAR_OF_THE_ROSES_eventPicture
	
	# fire_only_once = yes
	# hidden = yes
	is_triggered_only = yes
	
	option = {
		name = verkaldromak.49.a

		remove_country_modifier = I25_adventures_killed_kraken

		add_country_modifier = {
			name = I25_adventurers_losing_support
			duration = -1
		}
	}
}

#--------------------------------------------------------------------
#--------------------------------------------------------------------
# Third sleeper research missions
#--------------------------------------------------------------------
#--------------------------------------------------------------------

# build tower 1
country_event = {
	id = verkaldromak.50
	title = verkaldromak.50.t
	desc = verkaldromak.50.d
	picture = WAR_OF_THE_ROSES_eventPicture
	
	# fire_only_once = yes
	# hidden = yes
	is_triggered_only = yes
	
	option = {
		name = verkaldromak.50.a

		swap_non_generic_missions = yes
	}
}

# build tower 2
country_event = {
	id = verkaldromak.51
	title = verkaldromak.51.t
	desc = verkaldromak.51.d
	picture = WAR_OF_THE_ROSES_eventPicture
	
	# fire_only_once = yes
	# hidden = yes
	is_triggered_only = yes
	
	option = {
		name = verkaldromak.51.a

		4323 = {
			add_permanent_province_modifier = {
				name = I25_mage_tower_replica
				duration = -1
			}
		}
	}
}

# build tower 3
country_event = {
	id = verkaldromak.52
	title = verkaldromak.52.t
	desc = verkaldromak.52.d
	picture = WAR_OF_THE_ROSES_eventPicture
	
	# fire_only_once = yes
	# hidden = yes
	is_triggered_only = yes
	
	option = {
		name = verkaldromak.52.a

		4323 = {
			remove_province_modifier = I25_mage_tower_replica
			add_permanent_province_modifier = {
				name = I25_mage_tower_replica_upgraded
				duration = -1
			}
		}
	}
}

# immortality dream 1
country_event = {
	id = verkaldromak.53
	title = verkaldromak.53.t
	desc = verkaldromak.53.d
	picture = WAR_OF_THE_ROSES_eventPicture
	
	# fire_only_once = yes
	# hidden = yes
	is_triggered_only = yes
	
	option = {
		name = verkaldromak.53.a

		add_prestige = -20

		swap_non_generic_missions = yes
	}
}

# immortality dream 2
country_event = {
	id = verkaldromak.54
	title = verkaldromak.54.t
	desc = verkaldromak.54.d
	picture = WAR_OF_THE_ROSES_eventPicture
	
	# fire_only_once = yes
	# hidden = yes
	is_triggered_only = yes
	
	# ban necromancy
	option = {
		name = verkaldromak.54.a

		add_country_modifier = {
			name = I25_necromancy_banned
			duration = -1
		}
	}

	# learn necromancy
	option = {
		name = verkaldromak.54.b

		if = {
			limit = {
				ruler_has_mage_personality = yes
			}

			magic_study_level_up_necromancy = yes
		}
	}
}

# dream about world jaher
country_event = {
	id = verkaldromak.55
	title = verkaldromak.55.t
	desc = verkaldromak.55.d
	picture = WAR_OF_THE_ROSES_eventPicture
	
	# fire_only_once = yes
	# hidden = yes
	is_triggered_only = yes
	
	option = {
		name = verkaldromak.55.a

		hold_province = { add_permanent_claim = ROOT }
		swap_non_generic_missions = yes
	}
}

# dream about world 2
country_event = {
	id = verkaldromak.58
	title = verkaldromak.58.t
	desc = verkaldromak.58.d
	picture = WAR_OF_THE_ROSES_eventPicture
	
	# fire_only_once = yes
	# hidden = yes
	is_triggered_only = yes
	
	option = {
		name = verkaldromak.58.a

		kill_ruler = yes
		add_country_modifier = {
			name = I25_own_world
			duration = -1
		}
	}
}

country_event = {
	id = verkaldromak.59
	title = verkaldromak.59.t
	desc = verkaldromak.59.d
	picture = WAR_OF_THE_ROSES_eventPicture
	
	# fire_only_once = yes
	# hidden = yes
	is_triggered_only = yes
	
	option = {
		name = verkaldromak.59.a

		add_country_modifier = {
			name = I25_meaning_of_life
			duration = 42
		}
	}
}

#--------------------------------------------------------------------
#--------------------------------------------------------------------
# Event chain 6 - Last sleeper research
#--------------------------------------------------------------------
#--------------------------------------------------------------------

# invitation
country_event = {
	id = verkaldromak.62
	title = verkaldromak.62.t
	desc = verkaldromak.62.d
	picture = WAR_OF_THE_ROSES_eventPicture
	
	# fire_only_once = yes
	# hidden = yes
	is_triggered_only = yes

	immediate = {
		hidden_effect = {
			country_event = { id = verkaldromak.63 days = 365 }
			country_event = { id = verkaldromak.69 days = 3650 }
		}
	}
	
	option = {
		name = verkaldromak.62.a
	}
}

# 1 year
country_event = {
	id = verkaldromak.63
	title = verkaldromak.63.t
	desc = verkaldromak.63.d
	picture = WAR_OF_THE_ROSES_eventPicture
	
	# fire_only_once = yes
	# hidden = yes
	is_triggered_only = yes

	immediate = {
		hidden_effect = {
			country_event = { id = verkaldromak.64 days = 365 }
		}
	}
	
	option = {
		name = verkaldromak.63.a
	}
}

# 2 years
country_event = {
	id = verkaldromak.64
	title = verkaldromak.64.t
	desc = verkaldromak.64.d
	picture = WAR_OF_THE_ROSES_eventPicture
	
	# fire_only_once = yes
	# hidden = yes
	is_triggered_only = yes

	immediate = {
		hidden_effect = {
			country_event = { id = verkaldromak.65 days = 365 }
		}
	}
	
	option = {
		name = verkaldromak.64.a
	}
}

# 3 years
country_event = {
	id = verkaldromak.65
	title = verkaldromak.65.t
	desc = verkaldromak.65.d
	picture = WAR_OF_THE_ROSES_eventPicture
	
	# fire_only_once = yes
	# hidden = yes
	is_triggered_only = yes

	immediate = {
		hidden_effect = {
			country_event = { id = verkaldromak.67 days = 365 }
		}
	}
	
	option = {
		name = verkaldromak.65.a

		capital_scope = {
			add_devastation = 20
			add_base_production = -1
			add_base_manpower = -1
			add_base_tax = -1
		}

		hidden_effect = {
			country_event = { id = verkaldromak.66 days = 30 }
		}
	}

	option = {
		name = verkaldromak.65.b

		capital_scope = {
			add_devastation = 20
			add_base_production = -1
			add_base_manpower = -1
			add_base_tax = -1
		}
	}
}

# trying to stop experiment
country_event = {
	id = verkaldromak.66
	title = verkaldromak.66.t
	desc = verkaldromak.66.d
	picture = WAR_OF_THE_ROSES_eventPicture
	
	# fire_only_once = yes
	# hidden = yes
	is_triggered_only = yes
	
	option = {
		name = verkaldromak.66.a
	}
}

# 4 years
country_event = {
	id = verkaldromak.67
	title = verkaldromak.67.t
	desc = verkaldromak.67.d
	picture = WAR_OF_THE_ROSES_eventPicture
	
	# fire_only_once = yes
	# hidden = yes
	is_triggered_only = yes

	immediate = {
		hidden_effect = {
			country_event = { id = verkaldromak.68 days = 365 }
		}
	}
	
	option = {
		trigger = {
			NOT = {
				OR = {
					is_divination_2 = yes
					is_divination_3 = yes
				}
			}
		}

		name = verkaldromak.67.a

		hidden_effect = {
			country_event = { id = verkaldromak.68 days = 1 }
		}
	}

	option = {
		highlight = yes
		trigger = {
			OR = {
				is_divination_2 = yes
				is_divination_3 = yes
			}
		}
		name = verkaldromak.67.a

		hidden_effect = {
			country_event = { id = verkaldromak.68 days = 1 }
		}
	}

	option = {
		name = verkaldromak.67.b
	}

	option = {
		name = verkaldromak.67.c
	}
}

# 4/5 years
country_event = {
	id = verkaldromak.68
	title = verkaldromak.68.t
	desc = verkaldromak.68.d
	picture = WAR_OF_THE_ROSES_eventPicture
	
	fire_only_once = yes
	# hidden = yes
	is_triggered_only = yes

	trigger = {
		NOT = {
			has_country_flag = looking_for_special_relic
		}
	}

	immediate = {
		hidden_effect = {
			set_country_flag = looking_for_special_relic
			swap_non_generic_missions = yes

			random_known_country = {
				limit = {
					any_owned_province = {
						trade_goods = precursor_relics
					}
					# num_of_owned_provinces_with = {
					# 	value = 5
					# }
				}
				random_owned_province = {
					limit = {
						trade_goods = precursor_relics
					}
					set_province_flag = permanent_precursor_relics
					add_permanent_province_modifier = {
						name = I25_special_relic
						duration = -1
						hidden = yes
					}
				}
			}
		}
	}
	
	option = {
		name = verkaldromak.68.a
	}
}

# failed search
country_event = {
	id = verkaldromak.69
	title = verkaldromak.69.t
	desc = verkaldromak.69.d
	picture = WAR_OF_THE_ROSES_eventPicture
	
	# fire_only_once = yes
	# hidden = yes
	is_triggered_only = yes

	trigger = {
		NOT = {
			mission_completed = I25_stop_it
		}
	}

	immediate = {
		hidden_effect = {
			remove_country_modifier = I25_special_relic
		}
	}
	
	option = {
		name = verkaldromak.69.a

		capital_scope = {
			add_devastation = 100
			add_base_production = -3
			add_base_manpower = -3
			add_base_tax = -3
			
			if = { limit = { has_province_modifier = dig_2 } remove_province_modifier = dig_2 add_permanent_province_modifier = { name = dig_1 duration = -1 } }
			else_if = { limit = { has_province_modifier = dig_3 } remove_province_modifier = dig_3 add_permanent_province_modifier = { name = dig_2 duration = -1 } }
			else_if = { limit = { has_province_modifier = dig_4 } remove_province_modifier = dig_4 add_permanent_province_modifier = { name = dig_3 duration = -1 } }
			else_if = { limit = { has_province_modifier = dig_5 } remove_province_modifier = dig_5 add_permanent_province_modifier = { name = dig_4 duration = -1 } }
			else_if = { limit = { has_province_modifier = dig_6 } remove_province_modifier = dig_6 add_permanent_province_modifier = { name = dig_5 duration = -1 } }
			else_if = { limit = { has_province_modifier = dig_7 } remove_province_modifier = dig_7 add_permanent_province_modifier = { name = dig_6 duration = -1 } }
			else_if = { limit = { has_province_modifier = dig_8 } remove_province_modifier = dig_8 add_permanent_province_modifier = { name = dig_7 duration = -1 } }
			else_if = { limit = { has_province_modifier = dig_9 } remove_province_modifier = dig_9 add_permanent_province_modifier = { name = dig_8 duration = -1 } }
			else_if = { limit = { has_province_modifier = dig_10 } remove_province_modifier = dig_10 add_permanent_province_modifier = { name = dig_9 duration = -1 } }
			# trigger_switch = { #Broken in 1.31.5
				# on_trigger = has_province_modifier
				
				# dig_2 = { remove_province_modifier = dig_2 add_permanent_province_modifier = { name = dig_1 duration = -1 } }
				# dig_3 = { remove_province_modifier = dig_3 add_permanent_province_modifier = { name = dig_2 duration = -1 } }
				# dig_4 = { remove_province_modifier = dig_4 add_permanent_province_modifier = { name = dig_3 duration = -1 } }
				# dig_5 = { remove_province_modifier = dig_5 add_permanent_province_modifier = { name = dig_4 duration = -1 } }
				# dig_6 = { remove_province_modifier = dig_6 add_permanent_province_modifier = { name = dig_5 duration = -1 } }
				# dig_7 = { remove_province_modifier = dig_7 add_permanent_province_modifier = { name = dig_6 duration = -1 } }
				# dig_8 = { remove_province_modifier = dig_8 add_permanent_province_modifier = { name = dig_7 duration = -1 } }
				# dig_9 = { remove_province_modifier = dig_9 add_permanent_province_modifier = { name = dig_8 duration = -1 } }
				# dig_10 = { remove_province_modifier = dig_10 add_permanent_province_modifier = { name = dig_9 duration = -1 } }
			# }

			add_permanent_province_modifier = {
				name = I25_altar_visitors
				duration = -1
			}

			change_trade_goods = precursor_relics
		}

		add_country_modifier = {
			name = I25_everything_for_science
			duration = -1
		}
	}
}

# Successfull ending
country_event = {
	id = verkaldromak.70
	title = verkaldromak.70.t
	desc = verkaldromak.70.d
	picture = WAR_OF_THE_ROSES_eventPicture
	
	# fire_only_once = yes
	# hidden = yes
	is_triggered_only = yes
	
	option = {
		name = verkaldromak.70.a

		capital_scope = {
			add_permanent_province_modifier = {
				name = I25_altar_visitors
				duration = -1
			}

			add_base_production = 1
			add_base_manpower = 1
			add_base_tax = 1
			save_trade_goods = yes
			change_trade_goods = precursor_relics
		}

		add_country_modifier = {
			name = I25_research_complete
			duration = -1
		}
	}
}

# Succesfully stolen special relic
country_event = {
	id = verkaldromak.150
	title = verkaldromak.150.t
	desc = verkaldromak.150.d
	picture = WAR_OF_THE_ROSES_eventPicture
	
	is_triggered_only = yes
	
	immediate = {
		hidden_effect = {
			clr_country_flag = looking_for_special_relic
		}
	}
	
	option = {
		name = verkaldromak.150.a

		add_country_modifier = {
			name = I25_special_relic
			duration = -1
		}
	}
}

# Unsuccesfully stolen relic
country_event = {
	id = verkaldromak.151
	title = verkaldromak.151.t
	desc = verkaldromak.151.d
	picture = WAR_OF_THE_ROSES_eventPicture
	
	is_triggered_only = yes
	
	option = {
		name = verkaldromak.151.a
	}
}

# Successfully bought relic
country_event = {
	id = verkaldromak.152
	title = verkaldromak.152.t
	desc = verkaldromak.152.d
	picture = WAR_OF_THE_ROSES_eventPicture
	
	is_triggered_only = yes

	immediate = {
		hidden_effect = {
			clr_country_flag = looking_for_special_relic
		}
	}
	
	option = {
		name = verkaldromak.152.a

		add_country_modifier = {
			name = I25_special_relic
			duration = -1
		}
	}
}

# Unsuccessfully bought relic
country_event = {
	id = verkaldromak.153
	title = verkaldromak.153.t
	desc = verkaldromak.153.d
	picture = WAR_OF_THE_ROSES_eventPicture
	
	is_triggered_only = yes
	
	option = {
		name = verkaldromak.153.a
	}
}

#--------------------------------------------------------------------
#--------------------------------------------------------------------
# Government changes
#--------------------------------------------------------------------
#--------------------------------------------------------------------

# elections from sleepers
country_event = {
	id = verkaldromak.71
	title = verkaldromak.71.t
	desc = verkaldromak.71.d
	picture = ROYAL_COUPLE_FUTURE_eventPicture
	
	is_triggered_only = yes
	
	trigger = {
		NOT = { has_country_flag = sleepers_election }
		has_reform = verkal_dromak_sleeper_government
	}
	
	immediate = {
		hidden_effect = { set_country_flag = sleepers_election }
	}
	
	option = {		
		name = verkaldromak.71.a
		ai_chance = { factor = 25 }	
		define_ruler = {
			min_age = 99
			max_random_adm = 6
			max_random_dip = 6
			max_random_mil = 6
		}
		add_ruler_personality = mage_personality

		hidden_effect = { clr_country_flag = sleepers_election }
	}

	option = {		
		name = verkaldromak.71.b
		ai_chance = { factor = 25 }	
		define_ruler = {
			min_age = 99
			max_random_adm = 6
			max_random_dip = 6
			max_random_mil = 6
		}
		add_ruler_personality = mage_personality

		hidden_effect = { clr_country_flag = sleepers_election }
	}

	option = {		
		name = verkaldromak.71.c
		ai_chance = { factor = 25 }	
		define_ruler = {
			min_age = 99
			max_random_adm = 6
			max_random_dip = 6
			max_random_mil = 6
		}
		add_ruler_personality = mage_personality

		hidden_effect = { clr_country_flag = sleepers_election }
	}
	after = {
		country_event = {
			id =  magic_ruler.102
		}
	}
}

# Shorter working hours are good
country_event = {
	id = verkaldromak.72
	title = verkaldromak.72.t
	desc = verkaldromak.72.d
	picture = ROYAL_COUPLE_FUTURE_eventPicture
	
	is_triggered_only = yes
	
	option = {		
		name = verkaldromak.72.a

		remove_country_modifier = I25_shorter_working_hours_1
		add_country_modifier = {
			name = I25_shorter_working_hours_2
			duration = -1
		}
	}
}

# Monarch going to sleep hidden
country_event = {
	id = verkaldromak.73
	title = verkaldromak.73.t
	desc = verkaldromak.73.d
	picture = ROYAL_COUPLE_FUTURE_eventPicture
	
	is_triggered_only = yes
	hidden = yes
	immediate = {
		random_list = {
			10 = {
				# no events
			}
			5 = {
				# one event
				country_event = {
					id = verkaldromak.77
					days = 50
					random = 75
				}
			}
			1 = {
				# two events
				country_event = {
					id = verkaldromak.77
					days = 38
					random = 52
				}
				country_event = {
					id = verkaldromak.77
					days = 90
					random = 52
				}
			}
		}

		add_country_modifier = {
			name = I25_monarch_sleeping
			duration = 182
		}
		country_event = {
			id = verkaldromak.75
			days = 182
		}
	}
	
	option = {		
		name = verkaldromak.500.a
		if = {
			limit = {
				NOT = {
					has_country_flag = hide_monarch_going_to_sleep
				}
			}
			country_event = { id = verkaldromak.74 }
		}
	}
}

# Monarch going to sleep
country_event = {
	id = verkaldromak.74
	title = verkaldromak.74.t
	desc = verkaldromak.74.d
	picture = ROYAL_COUPLE_FUTURE_eventPicture
	
	is_triggered_only = yes

	immediate = {
		tooltip = {
			add_country_modifier = {
				name = I25_monarch_sleeping
				duration = 182
			}
		}
	}
	
	option = {		
		name = verkaldromak.74.a
	}
	
	# don't show this event any more
	option = {		
		name = verkaldromak.74.b
		hidden_effect = {
			set_country_flag = hide_monarch_going_to_sleep
		}
	}
}

# Monarch waking up hidden
country_event = {
	id = verkaldromak.75
	title = verkaldromak.75.t
	desc = verkaldromak.75.d
	picture = ROYAL_COUPLE_FUTURE_eventPicture
	
	is_triggered_only = yes
	hidden = yes
	immediate = {
		add_country_modifier = {
			name = I25_monarch_awake
			duration = 183
		}
		country_event = {
			id = verkaldromak.73
			days = 183
		}

		if = {
			limit = { has_country_flag = dream_morale_up }
			clr_country_flag = dream_morale_up
			add_country_modifier = {
				name = I25_dream_morale_up
				duration = 183
			}
		}
		if = {
			limit = { has_country_flag = dream_morale_down }
			clr_country_flag = dream_morale_down
			add_country_modifier = {
				name = I25_dream_morale_down
				duration = 183
			}
		}
		if = {
			limit = { has_country_flag = dream_unrest_up }
			clr_country_flag = dream_unrest_up
			add_country_modifier = {
				name = I25_dream_unrest_up
				duration = 183
			}
		}
		if = {
			limit = { has_country_flag = dream_unrest_down }
			clr_country_flag = dream_unrest_down
			add_country_modifier = {
				name = I25_dream_unrest_down
				duration = 183
			}
		}
		if = {
			limit = { has_country_flag = dream_tax_up }
			clr_country_flag = dream_tax_up
			add_country_modifier = {
				name = I25_dream_tax_up
				duration = 183
			}
		}
		if = {
			limit = { has_country_flag = dream_tax_down }
			clr_country_flag = dream_tax_down
			add_country_modifier = {
				name = I25_dream_tax_down
				duration = 183
			}
		}
		if = {
			limit = { has_country_flag = dream_relations_up }
			clr_country_flag = dream_relations_up
			add_country_modifier = {
				name = I25_dream_relations_up
				duration = 183
			}
		}
		if = {
			limit = { has_country_flag = dream_relations_down }
			clr_country_flag = dream_relations_down
			add_country_modifier = {
				name = I25_dream_relations_down
				duration = 183
			}
		}
	}
	
	option = {		
		name = verkaldromak.500.a
		if = {
			limit = {
				NOT = {
					has_country_flag = hide_monarch_waking_up
				}
			}
			country_event = { id = verkaldromak.76 }
		}
	}
}

# Monarch waking up
country_event = {
	id = verkaldromak.76
	title = verkaldromak.76.t
	desc = verkaldromak.76.d
	picture = ROYAL_COUPLE_FUTURE_eventPicture
	
	is_triggered_only = yes

	immediate = {
		tooltip = {
			add_country_modifier = {
				name = I25_monarch_awake
				duration = 183
			}
		}
		custom_tooltip = I25_modifiers_from_dreams
	}
	
	option = {		
		name = verkaldromak.76.a
	}
	
	# don't show this event any more
	option = {
		name = verkaldromak.76.b
		hidden_effect = {
			set_country_flag = hide_monarch_waking_up
		}
	}
}

# Random lore event
country_event = {
	id = verkaldromak.77
	title = verkaldromak.77.t
	desc = verkaldromak.77.d
	picture = ROYAL_COUPLE_FUTURE_eventPicture
	
	hidden = yes
	is_triggered_only = yes
	
	option = { trigger = { NOT = { has_country_flag = lore79 } } name = verkaldromak.500.a country_event = { id = verkaldromak.79 } }
	option = { trigger = { NOT = { has_country_flag = lore80 } } name = verkaldromak.500.a country_event = { id = verkaldromak.80 } }
	option = { trigger = { NOT = { has_country_flag = lore81 } } name = verkaldromak.500.a country_event = { id = verkaldromak.81 } }
	option = { trigger = { NOT = { has_country_flag = lore82 } } name = verkaldromak.500.a country_event = { id = verkaldromak.82 } }
	option = { trigger = { NOT = { has_country_flag = lore83 } } name = verkaldromak.500.a country_event = { id = verkaldromak.83 } }
	option = { trigger = { NOT = { has_country_flag = lore84 } } name = verkaldromak.500.a country_event = { id = verkaldromak.84 } }
	option = { trigger = { NOT = { has_country_flag = lore85 } } name = verkaldromak.500.a country_event = { id = verkaldromak.85 } }
	option = { trigger = { NOT = { has_country_flag = lore86 } } name = verkaldromak.500.a country_event = { id = verkaldromak.86 } }
	option = { trigger = { NOT = { has_country_flag = lore87 } } name = verkaldromak.500.a country_event = { id = verkaldromak.87 } }
	option = { trigger = { NOT = { has_country_flag = lore88 } } name = verkaldromak.500.a country_event = { id = verkaldromak.88 } }
	option = { trigger = { NOT = { has_country_flag = lore89 } } name = verkaldromak.500.a country_event = { id = verkaldromak.89 } }

	option = { name = verkaldromak.500.a country_event = { id = verkaldromak.78 } }
}

# Random non-lore event
country_event = {
	id = verkaldromak.78
	title = verkaldromak.78.t
	desc = verkaldromak.78.d
	picture = ROYAL_COUPLE_FUTURE_eventPicture
	
	is_triggered_only = yes
	hidden = yes
	
	option = { name = verkaldromak.500.a country_event = { id = verkaldromak.110 } }
	option = { name = verkaldromak.500.a country_event = { id = verkaldromak.111 } }
	# option = { name = verkaldromak.500.a country_event = { id = verkaldromak.112 } }
	# option = { name = verkaldromak.500.a country_event = { id = verkaldromak.113 } }
	# option = { name = verkaldromak.500.a country_event = { id = verkaldromak.114 } }
	# option = { name = verkaldromak.500.a country_event = { id = verkaldromak.115 } }
	# option = { name = verkaldromak.500.a country_event = { id = verkaldromak.116 } }
	# option = { name = verkaldromak.500.a country_event = { id = verkaldromak.117 } }
	# option = { name = verkaldromak.500.a country_event = { id = verkaldromak.118 } }
	# option = { name = verkaldromak.500.a country_event = { id = verkaldromak.119 } }
	# option = { name = verkaldromak.500.a country_event = { id = verkaldromak.120 } }
}


#--------------------------------------------------------------------
#--------------------------------------------------------------------
# Lore and nonlore events - dreams
#--------------------------------------------------------------------
#--------------------------------------------------------------------

country_event = {
	id = verkaldromak.79
	title = verkaldromak.79.t
	desc = verkaldromak.79.d
	picture = ROYAL_COUPLE_FUTURE_eventPicture

	is_triggered_only = yes
	
	option = {		
		name = verkaldromak.79.a
		
		set_country_flag = lore79
		set_country_flag = dream_morale_up
	}
}
country_event = {
	id = verkaldromak.80
	title = verkaldromak.80.t
	desc = verkaldromak.80.d
	picture = ROYAL_COUPLE_FUTURE_eventPicture

	is_triggered_only = yes
	
	option = {		
		name = verkaldromak.80.a
		
		set_country_flag = lore80
		set_country_flag = dream_morale_down
	}
}
country_event = {
	id = verkaldromak.81
	title = verkaldromak.81.t
	desc = verkaldromak.81.d
	picture = ROYAL_COUPLE_FUTURE_eventPicture

	is_triggered_only = yes
	
	option = {		
		name = verkaldromak.81.a
		
		set_country_flag = lore81
		set_country_flag = dream_unrest_up
	}
}
country_event = {
	id = verkaldromak.82
	title = verkaldromak.82.t
	desc = verkaldromak.82.d
	picture = ROYAL_COUPLE_FUTURE_eventPicture

	is_triggered_only = yes
	
	option = {		
		name = verkaldromak.82.a
		
		set_country_flag = lore82
		set_country_flag = dream_unrest_down
	}
}
country_event = {
	id = verkaldromak.83
	title = verkaldromak.83.t
	desc = verkaldromak.83.d
	picture = ROYAL_COUPLE_FUTURE_eventPicture

	is_triggered_only = yes
	
	option = {		
		name = verkaldromak.83.a
		
		set_country_flag = lore83
		set_country_flag = dream_tax_up
	}
}
country_event = {
	id = verkaldromak.84
	title = verkaldromak.84.t
	desc = verkaldromak.84.d
	picture = ROYAL_COUPLE_FUTURE_eventPicture

	is_triggered_only = yes
	
	option = {		
		name = verkaldromak.84.a
		
		set_country_flag = lore84
		set_country_flag = dream_tax_down
	}
}
country_event = {
	id = verkaldromak.85
	title = verkaldromak.85.t
	desc = verkaldromak.85.d
	picture = ROYAL_COUPLE_FUTURE_eventPicture

	is_triggered_only = yes
	
	option = {		
		name = verkaldromak.85.a
		
		set_country_flag = lore85
		set_country_flag = dream_relations_up
	}
}
country_event = {
	id = verkaldromak.86
	title = verkaldromak.86.t
	desc = verkaldromak.86.d
	picture = ROYAL_COUPLE_FUTURE_eventPicture

	is_triggered_only = yes
	
	option = {		
		name = verkaldromak.86.a
		
		set_country_flag = lore86
		set_country_flag = dream_relations_down
	}
}
country_event = {
	id = verkaldromak.87
	title = verkaldromak.87.t
	desc = verkaldromak.87.d
	picture = ROYAL_COUPLE_FUTURE_eventPicture

	is_triggered_only = yes
	
	option = {		
		name = verkaldromak.87.a
		
		set_country_flag = lore87
		set_country_flag = dream_morale_up
	}
}
country_event = {
	id = verkaldromak.88
	title = verkaldromak.88.t
	desc = verkaldromak.88.d
	picture = ROYAL_COUPLE_FUTURE_eventPicture

	is_triggered_only = yes
	
	option = {		
		name = verkaldromak.88.a
		
		set_country_flag = lore88
		set_country_flag = dream_morale_down
	}
}
country_event = {
	id = verkaldromak.89
	title = verkaldromak.89.t
	desc = verkaldromak.89.d
	picture = ROYAL_COUPLE_FUTURE_eventPicture

	is_triggered_only = yes
	
	option = {		
		name = verkaldromak.89.a
		
		set_country_flag = lore89
		set_country_flag = dream_relations_up
	}
}
country_event = {
	id = verkaldromak.110
	title = verkaldromak.110.t
	desc = verkaldromak.110.d
	picture = ROYAL_COUPLE_FUTURE_eventPicture

	is_triggered_only = yes
	
	option = {		
		name = verkaldromak.110.a
		
		set_country_flag = dream_morale_up
	}
}
country_event = {
	id = verkaldromak.111
	title = verkaldromak.111.t
	desc = verkaldromak.111.d
	picture = ROYAL_COUPLE_FUTURE_eventPicture

	is_triggered_only = yes
	
	option = {		
		name = verkaldromak.111.a
		
		set_country_flag = dream_morale_down
	}
}


#--------------------------------------------------------------------
#--------------------------------------------------------------------
# Periodic events, your people behave like kids
#--------------------------------------------------------------------
#--------------------------------------------------------------------

# improve relation diplomat fucked up
country_event = {
	id = verkaldromak.160
	title = verkaldromak.160.t
	desc = verkaldromak.160.d
	picture = ROYAL_COUPLE_FUTURE_eventPicture

	mean_time_to_happen = {
		years = 4

		modifier = {
			factor = 10
			has_country_flag = diplomat_school
		}
	}
	
	trigger = {
		tag = I25
		any_known_country = {
			has_opinion_modifier = {
				who = ROOT
				modifier = improved_relation
			}
		}
	}
	
	immediate = {
		hidden_effect = {
			random_known_country = {
				limit = {
					has_opinion_modifier = {
						who = ROOT
						modifier = improved_relation
					}
				}
				save_event_target_as = target_country
			}
		}
	}
	
	option = {		
		name = verkaldromak.160.a
		
		event_target:target_country = {
			add_opinion = {
				who = ROOT
				modifier = verkaldromak_unskilled_diplomat
			}
		}
	}

	option = {		
		name = verkaldromak.160.b

		trigger = {
			has_country_flag = diplomat_school
		}
		
		event_target:target_country = {
			add_opinion = {
				who = ROOT
				modifier = verkaldromak_turn_into_joke
			}
		}
	}
}

# spy network diplomat fucked up
country_event = {
	id = verkaldromak.161
	title = verkaldromak.161.t
	desc = verkaldromak.161.d
	picture = ROYAL_COUPLE_FUTURE_eventPicture
	
	trigger = {
		tag = I25
		any_known_country = {
			has_spy_network_from = {
				who = ROOT
				value = 5
			}
		}
	}

	mean_time_to_happen = {
		years = 4

		modifier = {
			factor = 10
			has_country_flag = diplomat_school
		}
	}
	
	option = {		
		name = verkaldromak.161.a
		
		random_known_country = {
			limit = {
				has_spy_network_from = {
					who = ROOT
					value = 5
				}
			}

			add_spy_network_in = {
				who = ROOT
				value = 50
			}
		}
	}

	option = {	
		name = verkaldromak.161.b
		trigger = {
			has_country_flag = diplomat_school
		}
	}
}

# brawl in the city
country_event = {
	id = verkaldromak.162
	title = verkaldromak.162.t
	desc = verkaldromak.162.d
	picture = ROYAL_COUPLE_FUTURE_eventPicture
	
	trigger = {
		tag = I25
	}

	mean_time_to_happen = {
		years = 24

		modifier = {
			factor = 0.33
			mission_completed = I25_restoration_of_altar
		}

		modifier = {
			factor = 0.5
			mission_completed = I25_new_government
		}

		modifier = {
			factor = 4
			has_country_flag = durable_constructions
		}

		modifier = {
			factor = 4
			has_country_flag = medical_school
		}
	}

	hidden = yes

	immediate = {
		random_list = {
			100 = {
				if = {
					limit = { has_country_flag = durable_constructions }
					random_list = {
						10 = { set_country_flag = verkaldromak_brawl11 } # lose dev
						90 = { set_country_flag = verkaldromak_brawl12 } # dont lose dev
					}
				}
				else = {
					set_country_flag = verkaldromak_brawl11 # lose dev
				}
			}
			20 = {
				if = {
					limit = { has_country_flag = medical_school }
					random_list = {
						2 = { set_country_flag = verkaldromak_brawl21 } # kill adm advisor
						2 = { set_country_flag = verkaldromak_brawl31 } # kill dip advisor
						2 = { set_country_flag = verkaldromak_brawl41 } # kill mil advisor
						70 = { set_country_flag = verkaldromak_brawl42 } # somebody could die
						10 = { set_country_flag = verkaldromak_brawl52 } # something could appen to ruler
						5 = { set_country_flag = verkaldromak_brawl62 } # ruler could die
					}
				}
				else = {
					random_list = {
						5 = { set_country_flag = verkaldromak_brawl21 } # kill adm advisor
						5 = { set_country_flag = verkaldromak_brawl31 } # kill dip advisor
						5 = { set_country_flag = verkaldromak_brawl41 } # kill mil advisor
						5 = { set_country_flag = verkaldromak_brawl51 } # injure ruler
						1 = { set_country_flag = verkaldromak_brawl61 } # kill ruler
					}
				}

			}
		}
	}
	
	option = {
		name = verkaldromak.500.a
		
		if = {
			limit = {
				OR = {
					has_country_flag = verkaldromak_brawl11
					AND = {
						has_country_flag = verkaldromak_brawl21
						employed_advisor = {
							category = ADM
						}
					}
					AND = {
						has_country_flag = verkaldromak_brawl31
						employed_advisor = {
							category = DIP
						}
					}
					AND = {
						has_country_flag = verkaldromak_brawl41
						employed_advisor = {
							category = MIL
						}
					}
					has_country_flag = verkaldromak_brawl51
					has_country_flag = verkaldromak_brawl61
				}
			}
			country_event = { id = verkaldromak.163 }
		}

		if = {
			limit = {
				OR = {
					has_country_flag = verkaldromak_brawl12
					AND = {
						has_country_flag = verkaldromak_brawl42
						OR = {
							employed_advisor = {
								category = ADM
							}
							employed_advisor = {
								category = DIP
							}
							employed_advisor = {
								category = MIL
							}
						}
					}
					has_country_flag = verkaldromak_brawl52
					has_country_flag = verkaldromak_brawl62
				}
			}
			country_event = { id = verkaldromak.164 }
		}
	}
}

country_event = {
	id = verkaldromak.163
	title = verkaldromak.163.t
	desc = verkaldromak.163.d
	picture = ROYAL_COUPLE_FUTURE_eventPicture
	
	is_triggered_only = yes

	
	option = {
		name = verkaldromak.163.aa
		trigger = {
			has_country_flag = verkaldromak_brawl11
		}
		clr_country_flag = verkaldromak_brawl11
		
		random_owned_province = {
			add_devastation = 30
			random_list = {
				1 = { add_base_production = -1 }
				1 = { add_base_manpower = -1 }
				1 = { add_base_tax = -1 }
			}
		}
	}
	option = {
		name = verkaldromak.163.ba
		trigger = {
			has_country_flag = verkaldromak_brawl21
		}
		clr_country_flag = verkaldromak_brawl21
		
		random_owned_province = {
			add_devastation = 20
		}
		remove_advisor_by_category = ADM
	}
	option = {
		name = verkaldromak.163.ca
		trigger = {
			has_country_flag = verkaldromak_brawl31
		}
		clr_country_flag = verkaldromak_brawl31
		
		random_owned_province = {
			add_devastation = 20
		}
		remove_advisor_by_category = DIP
	}
	option = {
		name = verkaldromak.163.da
		trigger = {
			has_country_flag = verkaldromak_brawl41
		}
		clr_country_flag = verkaldromak_brawl41
		
		random_owned_province = {
			add_devastation = 20
		}
		remove_advisor_by_category = MIL
	}
	option = {
		name = verkaldromak.163.ea
		trigger = {
			has_country_flag = verkaldromak_brawl51
		}
		clr_country_flag = verkaldromak_brawl51
		
		random_owned_province = {
			add_devastation = 20
		}
		add_ruler_modifier = {
			name = I25_injured_monarch
			duration = 365
		}
	}
	option = {
		name = verkaldromak.163.fa
		trigger = {
			has_country_flag = verkaldromak_brawl61
		}
		clr_country_flag = verkaldromak_brawl61
		
		random_owned_province = {
			add_devastation = 20
		}
		kill_ruler = yes
		reduce_stability_or_adm_power = yes
	}
}

country_event = {
	id = verkaldromak.164
	title = verkaldromak.164.t
	desc = verkaldromak.164.d
	picture = ROYAL_COUPLE_FUTURE_eventPicture
	
	is_triggered_only = yes

	
	option = {
		name = verkaldromak.164.ab
		trigger = {
			has_country_flag = verkaldromak_brawl12
		}
		clr_country_flag = verkaldromak_brawl12
		
		random_owned_province = {
			add_devastation = 10
		}
	}
	option = {
		name = verkaldromak.164.db
		trigger = {
			has_country_flag = verkaldromak_brawl42
		}
		clr_country_flag = verkaldromak_brawl42
		
		random_owned_province = {
			add_devastation = 20
		}
	}
	option = {
		name = verkaldromak.164.eb
		trigger = {
			has_country_flag = verkaldromak_brawl52
		}
		clr_country_flag = verkaldromak_brawl52
		
		random_owned_province = {
			add_devastation = 20
		}
	}
	option = {
		name = verkaldromak.164.fb
		trigger = {
			has_country_flag = verkaldromak_brawl62
		}
		clr_country_flag = verkaldromak_brawl62
		
		random_owned_province = {
			add_devastation = 20
		}
		add_ruler_modifier = {
			name = I25_injured_monarch
			duration = 61
		}
	}
}


#--------------------------------------------------------------------
#--------------------------------------------------------------------
# Mage expulsion disaster
#--------------------------------------------------------------------
#--------------------------------------------------------------------

# kill mages in hold
country_event = {
	id = verkaldromak.170
	title = verkaldromak.170.t
	desc = verkaldromak.170.d
	picture = ROYAL_COUPLE_FUTURE_eventPicture
	
	trigger = {
		any_owned_province = {
			OR = {
				has_terrain = dwarven_hold
				has_terrain = dwarven_hold_surface
			}
			controlled_by = ROOT
		}
	}

	is_triggered_only = yes
	mean_time_to_happen = { days = 1 } 
	
	option = {		
		name = verkaldromak.170.a
		
		random_owned_province = {
			limit = {
				OR = {
					has_terrain = dwarven_hold
					has_terrain = dwarven_hold_surface
				}
				controlled_by = ROOT
			}
			add_devastation = 20
			add_base_production = -2
		}
		add_dip_power = -50

		verkal_dromak_kill_mages = yes
		hidden_effect = {
			change_variable = {
				which = disaster_mage_rebel_size
				value = 1
			}
		}
	}

	option = {	
		name = verkaldromak.170.b

		add_dip_power = 50
		add_treasury = 100

		hidden_effect = {
			if = {
				limit = {
					check_variable = {
						disaster_mage_rebel_size = 2
					}
				}
				change_variable = {
					disaster_mage_rebel_size = -1
				}
			}
		}
		
	}
}

# destroy mage tower
country_event = {
	id = verkaldromak.171
	title = verkaldromak.171.t
	desc = verkaldromak.171.d
	picture = ROYAL_COUPLE_FUTURE_eventPicture
	
	trigger = {
		has_country_modifier = I25_mage_tower
	}

	is_triggered_only = yes
	mean_time_to_happen = { days = 1 } 
	
	option = {		
		name = verkaldromak.171.a
		
		4323 = {
			remove_province_modifier = I25_mage_tower
		}

		verkal_dromak_kill_mages = yes
		verkal_dromak_kill_mages = yes
		verkal_dromak_kill_mages = yes
		hidden_effect = {
			change_variable = {
				which = disaster_mage_rebel_size
				value = 2
			}
		}
	}

	option = {	
		name = verkaldromak.171.b

		add_dip_power = 30
		add_mil_power = 30
		add_adm_power = 30

		hidden_effect = {
			if = {
				limit = {
					check_variable = {
						disaster_mage_rebel_size = 2
					}
				}
				change_variable = {
					disaster_mage_rebel_size = -1
				}
			}
		}
	}
}


# sweep through the rails
country_event = {
	id = verkaldromak.172
	title = verkaldromak.172.t
	desc = verkaldromak.172.d
	picture = ROYAL_COUPLE_FUTURE_eventPicture
	
	trigger = {
		any_owned_province = {
			has_terrain = dwarven_road
			controlled_by = ROOT
		}
	}

	is_triggered_only = yes
	mean_time_to_happen = { days = 1 } 
	
	option = {
		name = verkaldromak.172.a
		
		random_owned_province = {
			limit = {
				has_terrain = dwarven_road
				controlled_by = ROOT
			}
			add_devastation = 50
			add_base_production = -1
			add_base_manpower = -1
			add_base_tax = -1
		}

		verkal_dromak_kill_mages = yes
		hidden_effect = {
			change_variable = {
				which = disaster_mage_rebel_size
				value = 1
			}
		}
	}

	option = {	
		name = verkaldromak.172.b

		random_owned_province = {
			limit = {
				has_terrain = dwarven_road
				controlled_by = ROOT
			}
			add_devastation = 10
			random_list = {
				1 = {
					add_base_production = 1
				}
				1 = {
					add_base_manpower = 1
				}
				1 = {
					add_base_tax = 1
				}
			}
		}
		hidden_effect = {
			if = {
				limit = {
					check_variable = {
						disaster_mage_rebel_size = 2
					}
				}
				change_variable = {
					disaster_mage_rebel_size = -1
				}
			}
		}
	}
}

# look inside caverns
# other monthly events?

# spawn rebels
country_event = {
	id = verkaldromak.173
	title = verkaldromak.173.t
	desc = verkaldromak.173.d
	picture = ROYAL_COUPLE_FUTURE_eventPicture

	is_triggered_only = yes
	mean_time_to_happen = { days = 1 } 
	
	option = {		
		name = verkaldromak.173.a
		
		while = {
			limit = { check_variable = { which = disaster_mage_rebel_size value = 1 } }
			random_owned_province = {
				limit = {
					controlled_by = ROOT
				}
				spawn_rebels = {
					type = mage_rebels
					size = 1
				}
			}
			change_variable = { which = disaster_mage_rebel_size value = -1 }
			change_variable = { which = disaster_mage_rebel_size_tmp value = 1 }
		}
		while = {
			limit = { check_variable = { which = disaster_mage_rebel_size_tmp value = 1 } }
			change_variable = { which = disaster_mage_rebel_size_tmp value = -1 }
			change_variable = { which = disaster_mage_rebel_size value = 1 }
		}
	}
}

# start disaster
country_event = {
	id = verkaldromak.175
	title = verkaldromak.175.t
	desc = verkaldromak.175.d
	picture = ROYAL_COUPLE_FUTURE_eventPicture

	is_triggered_only = yes
	hidden = yes

	immediate = {
		hidden_effect = {
			set_variable = {
				which = disaster_mage_rebel_size
				value = 2
			}
			set_variable = {
				which = disaster_mage_rebel_size_tmp
				value = 0
			}
		}
	}
	
	option = {		
		name = verkaldromak.175.a
	}
}

# end disaster
country_event = {
	id = verkaldromak.176
	title = verkaldromak.176.t
	desc = verkaldromak.176.d
	picture = ROYAL_COUPLE_FUTURE_eventPicture

	is_triggered_only = yes
	hidden = yes

	immediate = {
		hidden_effect = {
			set_country_flag = verkal_dromak_mage_expulsion_happened
			remove_country_modifier = I25_allow_sleepers_1
			remove_country_modifier = I25_disallow_sleepers_1
			remove_country_modifier = I25_disallow_sleepers_2
			remove_country_modifier = I25_allow_sleepers_3
			remove_country_modifier = I25_disallow_sleepers_3
			remove_country_modifier = I25_allow_sleepers_4
			remove_country_modifier = I25_disallow_sleepers_4
			remove_country_modifier = I25_allow_sleepers_5
			remove_country_modifier = I25_mages_gain_influence
			remove_country_modifier = I25_epic_battle

			remove_country_modifier = I25_kill_mages_1
			remove_country_modifier = I25_kill_mages_2
			remove_country_modifier = I25_kill_mages_3
			remove_country_modifier = I25_kill_mages_4
			remove_country_modifier = I25_kill_mages_5
			remove_country_modifier = I25_kill_mages_6
			remove_country_modifier = I25_kill_mages_7
			remove_country_modifier = I25_kill_mages_8
			remove_country_modifier = I25_kill_mages_9
			remove_country_modifier = I25_kill_mages_10
		}
	}
	
	
	option = {
		name = verkaldromak.500.a

		if = {
			limit = {
				has_country_flag = verkal_dromak_mages_enforced_demands
			}
			country_event = { id = verkaldromak.177 }
		}
		else = {
			# continue event chain - expell mages
			country_event = { id = verkaldromak.8 }
		}
		
	}
}

# end disaster, bad way
country_event = {
	id = verkaldromak.177
	title = verkaldromak.177.t
	desc = verkaldromak.177.d
	picture = ROYAL_COUPLE_FUTURE_eventPicture

	is_triggered_only = yes
	
	# continue event chain - expell mages
	option = {	
		name = verkaldromak.177.a
	}
}


#New Country Formed - Verkal Dromak - needs to disable republic because of heirs :-/
country_event = {
	id = verkaldromak.201
	title = marcher.1.t
	desc = marcher.1.d
	picture = STREET_SPEECH_eventPicture
	
	is_triggered_only = yes
	
	trigger = {
		#government_type = adventurer
		#government_rank = 2
	}
	
	option = {		# Despotic Monarchy
		name = marcher.1.a
		hidden_effect = {
			lose_reforms = 10 # Reset reform progress
		}
		if = {
			limit = { NOT = { government = monarchy } }
			change_government = monarchy
		}
		add_government_reform = dwarovar_dwarven_clan_reform
	}
}